<?xml version="1.0" encoding="utf-8"?>
<!DOCTYPE eagle SYSTEM "eagle.dtd">
<eagle version="6.0">
<drawing>
<settings>
<setting alwaysvectorfont="no"/>
<setting verticaltext="up"/>
</settings>
<grid distance="0.5" unitdist="mm" unit="mm" style="lines" multiple="1" display="no" altdistance="0.025" altunitdist="inch" altunit="mm"/>
<layers>
<layer number="1" name="Top" color="4" fill="1" visible="yes" active="yes"/>
<layer number="16" name="Bottom" color="1" fill="1" visible="yes" active="yes"/>
<layer number="17" name="Pads" color="2" fill="1" visible="yes" active="yes"/>
<layer number="18" name="Vias" color="2" fill="1" visible="no" active="yes"/>
<layer number="19" name="Unrouted" color="6" fill="1" visible="no" active="yes"/>
<layer number="20" name="Dimension" color="15" fill="1" visible="yes" active="yes"/>
<layer number="21" name="tPlace" color="7" fill="1" visible="no" active="yes"/>
<layer number="22" name="bPlace" color="7" fill="1" visible="no" active="yes"/>
<layer number="23" name="tOrigins" color="15" fill="1" visible="no" active="yes"/>
<layer number="24" name="bOrigins" color="15" fill="1" visible="no" active="yes"/>
<layer number="25" name="tNames" color="7" fill="1" visible="no" active="yes"/>
<layer number="26" name="bNames" color="7" fill="1" visible="no" active="yes"/>
<layer number="27" name="tValues" color="7" fill="1" visible="no" active="yes"/>
<layer number="28" name="bValues" color="7" fill="1" visible="no" active="yes"/>
<layer number="29" name="tStop" color="7" fill="3" visible="no" active="yes"/>
<layer number="30" name="bStop" color="7" fill="6" visible="no" active="yes"/>
<layer number="31" name="tCream" color="7" fill="4" visible="no" active="yes"/>
<layer number="32" name="bCream" color="7" fill="5" visible="no" active="yes"/>
<layer number="33" name="tFinish" color="6" fill="3" visible="no" active="yes"/>
<layer number="34" name="bFinish" color="6" fill="6" visible="no" active="yes"/>
<layer number="35" name="tGlue" color="7" fill="4" visible="no" active="yes"/>
<layer number="36" name="bGlue" color="7" fill="5" visible="no" active="yes"/>
<layer number="37" name="tTest" color="7" fill="1" visible="no" active="yes"/>
<layer number="38" name="bTest" color="7" fill="1" visible="no" active="yes"/>
<layer number="39" name="tKeepout" color="4" fill="11" visible="no" active="yes"/>
<layer number="40" name="bKeepout" color="1" fill="11" visible="no" active="yes"/>
<layer number="41" name="tRestrict" color="4" fill="10" visible="no" active="yes"/>
<layer number="42" name="bRestrict" color="1" fill="10" visible="no" active="yes"/>
<layer number="43" name="vRestrict" color="2" fill="10" visible="no" active="yes"/>
<layer number="44" name="Drills" color="7" fill="1" visible="no" active="yes"/>
<layer number="45" name="Holes" color="7" fill="1" visible="no" active="yes"/>
<layer number="46" name="Milling" color="3" fill="1" visible="no" active="yes"/>
<layer number="47" name="Measures" color="7" fill="1" visible="no" active="yes"/>
<layer number="48" name="Document" color="7" fill="1" visible="no" active="yes"/>
<layer number="49" name="Reference" color="7" fill="1" visible="no" active="yes"/>
<layer number="50" name="dxf" color="7" fill="1" visible="no" active="no"/>
<layer number="51" name="tDocu" color="7" fill="1" visible="no" active="yes"/>
<layer number="52" name="bDocu" color="7" fill="1" visible="no" active="yes"/>
<layer number="53" name="tGND_GNDA" color="7" fill="1" visible="no" active="no"/>
<layer number="54" name="bGND_GNDA" color="7" fill="1" visible="no" active="no"/>
<layer number="56" name="wert" color="7" fill="1" visible="no" active="no"/>
<layer number="91" name="Nets" color="2" fill="1" visible="no" active="no"/>
<layer number="92" name="Busses" color="1" fill="1" visible="no" active="no"/>
<layer number="93" name="Pins" color="2" fill="1" visible="no" active="no"/>
<layer number="94" name="Symbols" color="4" fill="1" visible="no" active="no"/>
<layer number="95" name="Names" color="7" fill="1" visible="no" active="no"/>
<layer number="96" name="Values" color="7" fill="1" visible="no" active="no"/>
<layer number="97" name="Info" color="7" fill="1" visible="no" active="no"/>
<layer number="98" name="Guide" color="6" fill="1" visible="no" active="no"/>
<layer number="100" name="PaJa" color="12" fill="7" visible="no" active="yes"/>
<layer number="101" name="Doplnky" color="5" fill="1" visible="no" active="yes"/>
<layer number="102" name="Kola" color="11" fill="7" visible="no" active="yes"/>
<layer number="103" name="Popisy" color="7" fill="1" visible="no" active="yes"/>
<layer number="104" name="Zapojeni" color="7" fill="1" visible="no" active="yes"/>
<layer number="151" name="HeatSink" color="7" fill="1" visible="no" active="no"/>
<layer number="200" name="200bmp" color="7" fill="1" visible="no" active="no"/>
<layer number="250" name="Descript" color="7" fill="1" visible="no" active="no"/>
<layer number="251" name="SMDround" color="7" fill="1" visible="no" active="no"/>
<layer number="254" name="OrgLBR" color="7" fill="1" visible="no" active="no"/>
</layers>
<board>
<plain>
<wire x1="10.16" y1="15.24" x2="40.31" y2="15.24" width="0" layer="20"/>
<wire x1="40.31" y1="15.24" x2="40.31" y2="38.09" width="0" layer="20"/>
<wire x1="40.31" y1="38.09" x2="10.16" y2="38.09" width="0" layer="20"/>
<wire x1="10.16" y1="38.09" x2="10.16" y2="15.24" width="0" layer="20"/>
<text x="27.17" y="27.94" size="1.9304" layer="16" rot="MR0">M.B.</text>
</plain>
<libraries>
<library name="#PaJa_30">
<description>&lt;B&gt;PaJa 30&lt;/B&gt; - knihovna   &amp;nbsp; &amp;nbsp; &amp;nbsp; &amp;nbsp; &amp;nbsp; &amp;nbsp; 
&lt;I&gt;(vytvoreno 1.6.2011)&lt;/I&gt;&lt;BR&gt;
Univerzální knihovna soucastek do Eagle &lt;I&gt;(od verze 5.6)&lt;/I&gt;&lt;BR&gt;
&lt;BR&gt;
Knihovna obsahuje: 196 soucastek na DPS, 298 do SCHematu&lt;BR&gt;
&lt;BR&gt;
&lt;Author&gt;Copyright (C) PaJa 2001-2011&lt;BR&gt;
http://www.paja-trb.unas.cz&lt;BR&gt;
paja-trb@seznam.cz
&lt;/author&gt;</description>
<packages>
<package name="PAD_1">
<circle x="0" y="0" radius="0.5732" width="0.127" layer="102"/>
<pad name="1" x="0" y="0" drill="1.016" diameter="2.1844" shape="octagon"/>
<text x="-2.226" y="1.272" size="1.27" layer="25" font="vector">&gt;Name</text>
<text x="-2.067" y="-2.544" size="1.27" layer="27" font="vector">&gt;Value</text>
<text x="-1.272" y="-0.477" size="0.254" layer="100" font="vector" rot="R90">PaJa</text>
</package>
<package name="R-5">
<description>&lt;B&gt;Odpor&lt;/B&gt; - vel. 0204 - 0,4W - miniaturni</description>
<wire x1="-1.778" y1="0.635" x2="-1.524" y2="0.889" width="0.127" layer="21" curve="-90" cap="flat"/>
<wire x1="-1.778" y1="-0.635" x2="-1.524" y2="-0.889" width="0.127" layer="21" curve="90" cap="flat"/>
<wire x1="1.524" y1="-0.889" x2="1.778" y2="-0.635" width="0.127" layer="21" curve="90" cap="flat"/>
<wire x1="1.524" y1="0.889" x2="1.778" y2="0.6388" width="0.127" layer="21" curve="-89.149199"/>
<wire x1="1.778" y1="0.6388" x2="1.778" y2="0.635" width="0.127" layer="21" curve="-0.857165"/>
<wire x1="-1.524" y1="0.889" x2="-1.27" y2="0.889" width="0.127" layer="21"/>
<wire x1="-1.143" y1="0.762" x2="-1.27" y2="0.889" width="0.127" layer="21"/>
<wire x1="-1.524" y1="-0.889" x2="-1.27" y2="-0.889" width="0.127" layer="21"/>
<wire x1="-1.143" y1="-0.762" x2="-1.27" y2="-0.889" width="0.127" layer="21"/>
<wire x1="1.143" y1="0.762" x2="1.27" y2="0.889" width="0.127" layer="21"/>
<wire x1="1.143" y1="0.762" x2="-1.143" y2="0.762" width="0.127" layer="21"/>
<wire x1="1.143" y1="-0.762" x2="1.27" y2="-0.889" width="0.127" layer="21"/>
<wire x1="1.143" y1="-0.762" x2="-1.143" y2="-0.762" width="0.127" layer="21"/>
<wire x1="1.524" y1="0.889" x2="1.27" y2="0.889" width="0.127" layer="21"/>
<wire x1="1.524" y1="-0.889" x2="1.27" y2="-0.889" width="0.127" layer="21"/>
<wire x1="1.778" y1="0.6388" x2="1.778" y2="-0.6332" width="0.127" layer="51"/>
<wire x1="-1.7787" y1="0.6274" x2="-1.7787" y2="-0.6446" width="0.127" layer="51"/>
<circle x="-2.54" y="0" radius="0.4763" width="0.127" layer="102"/>
<circle x="2.54" y="0" radius="0.4762" width="0.127" layer="102"/>
<pad name="1" x="-2.54" y="0" drill="0.8128" diameter="1.778" shape="octagon"/>
<pad name="2" x="2.54" y="0" drill="0.8128" diameter="1.778" shape="octagon"/>
<text x="-1.59" y="-0.477" size="1.016" layer="25" font="vector">&gt;Name</text>
<text x="-2.544" y="-1.908" size="1.016" layer="27" font="vector">&gt;Value</text>
<text x="-0.4797" y="0.8527" size="0.254" layer="100" font="vector">PaJa</text>
<rectangle x1="-2.1022" y1="-0.306" x2="-1.8124" y2="0.3068" layer="51"/>
<rectangle x1="1.8124" y1="-0.3068" x2="2.1022" y2="0.306" layer="51"/>
</package>
<package name="LED_5">
<description>&lt;B&gt;LED dioda&lt;/B&gt; - 5mm prumer</description>
<wire x1="-1.268" y1="-0.446" x2="-1.268" y2="-1.27" width="0.127" layer="51"/>
<wire x1="1.272" y1="-1.27" x2="1.272" y2="-0.446" width="0.127" layer="51"/>
<wire x1="-0.633" y1="-0.508" x2="-0.633" y2="-1.27" width="0.127" layer="51"/>
<wire x1="-0.633" y1="-2.032" x2="0.637" y2="-1.27" width="0.127" layer="51"/>
<wire x1="0.637" y1="-1.27" x2="1.272" y2="-1.27" width="0.127" layer="51"/>
<wire x1="0.637" y1="-1.27" x2="-0.633" y2="-0.508" width="0.127" layer="51"/>
<wire x1="-0.347" y1="0.984" x2="0.415" y2="1.746" width="0.127" layer="51"/>
<wire x1="0.288" y1="0.603" x2="1.05" y2="1.365" width="0.127" layer="51"/>
<wire x1="0.034" y1="1.619" x2="0.288" y2="1.365" width="0.127" layer="51"/>
<wire x1="0.288" y1="1.365" x2="0.415" y2="1.746" width="0.127" layer="51"/>
<wire x1="0.415" y1="1.746" x2="0.034" y2="1.619" width="0.127" layer="51"/>
<wire x1="1.05" y1="1.365" x2="0.669" y2="1.238" width="0.127" layer="51"/>
<wire x1="0.669" y1="1.238" x2="0.923" y2="0.984" width="0.127" layer="51"/>
<wire x1="0.923" y1="0.984" x2="1.05" y2="1.365" width="0.127" layer="51"/>
<wire x1="0.796" y1="1.238" x2="0.923" y2="1.111" width="0.127" layer="51"/>
<wire x1="0.161" y1="1.619" x2="0.288" y2="1.492" width="0.127" layer="51"/>
<wire x1="0.637" y1="-2.032" x2="0.637" y2="-1.27" width="0.127" layer="51"/>
<wire x1="0.637" y1="-1.27" x2="0.637" y2="-0.508" width="0.127" layer="51"/>
<wire x1="-1.268" y1="-1.27" x2="-0.633" y2="-1.27" width="0.127" layer="51"/>
<wire x1="-0.633" y1="-1.27" x2="-0.633" y2="-2.032" width="0.127" layer="51"/>
<wire x1="2.544" y1="-1.431" x2="2.544" y2="1.431" width="0.127" layer="21" curve="-301.284493"/>
<wire x1="2.544" y1="1.431" x2="2.544" y2="-1.431" width="0.127" layer="21"/>
<circle x="-1.272" y="0" radius="0.477" width="0.127" layer="102"/>
<circle x="1.272" y="0" radius="0.477" width="0.127" layer="102"/>
<circle x="0" y="0" radius="2.5489" width="0.127" layer="51"/>
<pad name="K" x="1.27" y="0" drill="0.8128" diameter="1.778" shape="square"/>
<pad name="A" x="-1.27" y="0" drill="0.8128" diameter="1.778"/>
<text x="3.975" y="-2.703" size="1.27" layer="25" font="vector" rot="R90">&gt;Name</text>
<text x="5.7235" y="-2.7035" size="1.27" layer="27" font="vector" rot="R90">&gt;Value</text>
<text x="-0.477" y="-2.385" size="0.254" layer="100" font="vector">PaJa</text>
</package>
<package name="DO41">
<description>&lt;B&gt;Dioda&lt;/B&gt; - roztec nozek 10 mm</description>
<wire x1="-3.0163" y1="1.5875" x2="3.0163" y2="1.5875" width="0.127" layer="21"/>
<wire x1="3.0163" y1="1.5875" x2="3.0163" y2="-1.5875" width="0.127" layer="21"/>
<wire x1="3.0163" y1="-1.5875" x2="-3.0163" y2="-1.5875" width="0.127" layer="21"/>
<wire x1="-3.0163" y1="-1.5875" x2="-3.0163" y2="1.5875" width="0.127" layer="21"/>
<circle x="-5.08" y="0" radius="0.5724" width="0.127" layer="102"/>
<circle x="5.08" y="0" radius="0.5724" width="0.127" layer="102"/>
<pad name="K" x="5.08" y="0" drill="1.016" diameter="2.1844" shape="square"/>
<pad name="A" x="-5.08" y="0" drill="1.016" diameter="2.1844"/>
<text x="-2.8655" y="0.14" size="1.27" layer="25" font="vector">&gt;NAME</text>
<text x="-2.8655" y="-1.315" size="1.27" layer="27" font="vector">&gt;VALUE</text>
<text x="-3.169" y="0.4765" size="0.254" layer="100" font="vector" rot="R90">PaJa</text>
<rectangle x1="1.842" y1="-1.524" x2="2.604" y2="1.524" layer="21"/>
<rectangle x1="3.0163" y1="-0.3175" x2="3.81" y2="0.3175" layer="21"/>
<rectangle x1="-3.81" y1="-0.3175" x2="-3.0163" y2="0.3175" layer="21"/>
<rectangle x1="-4.6038" y1="-0.3175" x2="-3.81" y2="0.3175" layer="51"/>
<rectangle x1="3.81" y1="-0.3175" x2="4.6038" y2="0.3175" layer="51"/>
</package>
<package name="TO-92">
<wire x1="-1.5875" y1="1.905" x2="-1.5875" y2="-1.905" width="0.127" layer="21"/>
<wire x1="-1.1113" y1="2.2225" x2="1.1113" y2="2.2225" width="0.127" layer="51" curve="-53.132165"/>
<wire x1="2.2225" y1="1.1113" x2="2.2225" y2="-1.1113" width="0.127" layer="51" curve="-53.132165"/>
<wire x1="1.1113" y1="-2.2225" x2="-1.1113" y2="-2.2225" width="0.127" layer="51" curve="-53.132165"/>
<wire x1="-1.5875" y1="1.905" x2="-1.1113" y2="2.2225" width="0.127" layer="21" curve="-13.162519"/>
<wire x1="-1.5875" y1="-1.905" x2="-1.1113" y2="-2.2225" width="0.127" layer="21" curve="13.162519"/>
<wire x1="1.1113" y1="-2.2225" x2="2.2225" y2="-1.1113" width="0.127" layer="21" curve="36.867835"/>
<wire x1="2.2225" y1="1.1113" x2="1.1113" y2="2.2225" width="0.127" layer="21" curve="36.867835"/>
<circle x="2.544" y="0" radius="0.477" width="0.127" layer="102"/>
<circle x="0" y="2.544" radius="0.477" width="0.127" layer="102"/>
<circle x="0" y="-2.544" radius="0.477" width="0.127" layer="102"/>
<pad name="3" x="0" y="-2.54" drill="0.8128" diameter="1.9304" shape="octagon"/>
<pad name="2" x="2.54" y="0" drill="0.8128" diameter="1.9304" shape="octagon"/>
<pad name="1" x="0" y="2.54" drill="0.8128" diameter="1.9304" shape="octagon"/>
<text x="0.1017" y="-1.2159" size="1.27" layer="25" font="vector" rot="R90">&gt;Name</text>
<text x="-1.6917" y="-2.8625" size="1.27" layer="27" font="vector" rot="R90">&gt;Value</text>
<text x="1.5895" y="-0.477" size="0.254" layer="100" font="vector" rot="R90">PaJa</text>
</package>
<package name="C-EL_5">
<wire x1="-0.762" y1="-1.524" x2="-0.254" y2="-1.524" width="0.127" layer="21"/>
<wire x1="-0.254" y1="-1.524" x2="-0.254" y2="1.524" width="0.127" layer="21"/>
<wire x1="-0.254" y1="1.524" x2="-0.762" y2="1.524" width="0.127" layer="21"/>
<wire x1="-0.762" y1="1.524" x2="-0.762" y2="0" width="0.127" layer="21"/>
<wire x1="0.635" y1="0" x2="1.2065" y2="0" width="0.127" layer="21"/>
<wire x1="-0.762" y1="0" x2="-1.236" y2="0" width="0.127" layer="21"/>
<wire x1="-0.762" y1="0" x2="-0.762" y2="-1.524" width="0.127" layer="21"/>
<wire x1="-2.003" y1="0" x2="-1.236" y2="0" width="0.127" layer="51"/>
<wire x1="1.2325" y1="0" x2="2.003" y2="0" width="0.127" layer="51"/>
<wire x1="-1.905" y1="-1.27" x2="-1.27" y2="-1.27" width="0.127" layer="21"/>
<wire x1="-1.5875" y1="-0.9525" x2="-1.5875" y2="-1.5875" width="0.127" layer="21"/>
<circle x="0" y="0" radius="5.1308" width="0.127" layer="21"/>
<circle x="-2.54" y="0" radius="0.4763" width="0.127" layer="102"/>
<circle x="2.54" y="0" radius="0.4762" width="0.127" layer="102"/>
<pad name="C-" x="2.54" y="0" drill="0.8128" diameter="2.1844" shape="square"/>
<pad name="C+" x="-2.54" y="0" drill="0.8128" diameter="2.1844"/>
<text x="1.272" y="0.318" size="0.254" layer="100" font="vector" rot="R90">PaJa</text>
<text x="-3.017" y="1.758" size="1.4224" layer="25" font="vector">&gt;Name</text>
<text x="-3.663" y="-3.186" size="1.4224" layer="27" font="vector">&gt;Value</text>
<rectangle x1="0.254" y1="-1.524" x2="0.762" y2="1.524" layer="21"/>
</package>
</packages>
</library>
</libraries>
<attributes>
</attributes>
<variantdefs>
</variantdefs>
<classes>
<class number="0" name="default" width="0" drill="0">
</class>
</classes>
<designrules>
<description language="de">&lt;b&gt;EAGLE Design Rules&lt;/b&gt;
&lt;p&gt;
Die Standard-Design-Rules sind so gewählt, dass sie für 
die meisten Anwendungen passen. Sollte ihre Platine 
besondere Anforderungen haben, treffen Sie die erforderlichen
Einstellungen hier und speichern die Design Rules unter 
einem neuen Namen ab.</description>
<description language="en">&lt;b&gt;EAGLE Design Rules&lt;/b&gt;
&lt;p&gt;
The default Design Rules have been set to cover
a wide range of applications. Your particular design
may have different requirements, so please make the
necessary adjustments and save your customized
design rules under a new name.</description>
<param name="layerSetup" value="(1*16)"/>
<param name="mtCopper" value="0.035mm 0.035mm 0.035mm 0.035mm 0.035mm 0.035mm 0.035mm 0.035mm 0.035mm 0.035mm 0.035mm 0.035mm 0.035mm 0.035mm 0.035mm 0.035mm"/>
<param name="mtIsolate" value="1.5mm 0.15mm 0.2mm 0.15mm 0.2mm 0.15mm 0.2mm 0.15mm 0.2mm 0.15mm 0.2mm 0.15mm 0.2mm 0.15mm 0.2mm"/>
<param name="mdWireWire" value="8mil"/>
<param name="mdWirePad" value="8mil"/>
<param name="mdWireVia" value="8mil"/>
<param name="mdPadPad" value="8mil"/>
<param name="mdPadVia" value="8mil"/>
<param name="mdViaVia" value="8mil"/>
<param name="mdSmdPad" value="8mil"/>
<param name="mdSmdVia" value="8mil"/>
<param name="mdSmdSmd" value="8mil"/>
<param name="mdViaViaSameLayer" value="8mil"/>
<param name="mnLayersViaInSmd" value="2"/>
<param name="mdCopperDimension" value="40mil"/>
<param name="mdDrill" value="8mil"/>
<param name="mdSmdStop" value="0mil"/>
<param name="msWidth" value="10mil"/>
<param name="msDrill" value="24mil"/>
<param name="msMicroVia" value="9.99mm"/>
<param name="msBlindViaRatio" value="0.5"/>
<param name="rvPadTop" value="0.25"/>
<param name="rvPadInner" value="0.25"/>
<param name="rvPadBottom" value="0.25"/>
<param name="rvViaOuter" value="0.25"/>
<param name="rvViaInner" value="0.25"/>
<param name="rvMicroViaOuter" value="0.25"/>
<param name="rvMicroViaInner" value="0.25"/>
<param name="rlMinPadTop" value="10mil"/>
<param name="rlMaxPadTop" value="20mil"/>
<param name="rlMinPadInner" value="10mil"/>
<param name="rlMaxPadInner" value="20mil"/>
<param name="rlMinPadBottom" value="10mil"/>
<param name="rlMaxPadBottom" value="20mil"/>
<param name="rlMinViaOuter" value="8mil"/>
<param name="rlMaxViaOuter" value="20mil"/>
<param name="rlMinViaInner" value="8mil"/>
<param name="rlMaxViaInner" value="20mil"/>
<param name="rlMinMicroViaOuter" value="4mil"/>
<param name="rlMaxMicroViaOuter" value="20mil"/>
<param name="rlMinMicroViaInner" value="4mil"/>
<param name="rlMaxMicroViaInner" value="20mil"/>
<param name="psTop" value="-1"/>
<param name="psBottom" value="-1"/>
<param name="psFirst" value="-1"/>
<param name="psElongationLong" value="100"/>
<param name="psElongationOffset" value="100"/>
<param name="mvStopFrame" value="1"/>
<param name="mvCreamFrame" value="0"/>
<param name="mlMinStopFrame" value="4mil"/>
<param name="mlMaxStopFrame" value="4mil"/>
<param name="mlMinCreamFrame" value="0mil"/>
<param name="mlMaxCreamFrame" value="0mil"/>
<param name="mlViaStopLimit" value="0mil"/>
<param name="srRoundness" value="0"/>
<param name="srMinRoundness" value="0mil"/>
<param name="srMaxRoundness" value="0mil"/>
<param name="slThermalIsolate" value="10mil"/>
<param name="slThermalsForVias" value="0"/>
<param name="dpMaxLengthDifference" value="10mm"/>
<param name="dpGapFactor" value="2.5"/>
<param name="checkGrid" value="0"/>
<param name="checkAngle" value="0"/>
<param name="checkFont" value="1"/>
<param name="checkRestrict" value="1"/>
<param name="useDiameter" value="13"/>
<param name="maxErrors" value="50"/>
</designrules>
<autorouter>
<pass name="Default">
<param name="RoutingGrid" value="50mil"/>
<param name="tpViaShape" value="round"/>
<param name="PrefDir.1" value="|"/>
<param name="PrefDir.2" value="0"/>
<param name="PrefDir.3" value="0"/>
<param name="PrefDir.4" value="0"/>
<param name="PrefDir.5" value="0"/>
<param name="PrefDir.6" value="0"/>
<param name="PrefDir.7" value="0"/>
<param name="PrefDir.8" value="0"/>
<param name="PrefDir.9" value="0"/>
<param name="PrefDir.10" value="0"/>
<param name="PrefDir.11" value="0"/>
<param name="PrefDir.12" value="0"/>
<param name="PrefDir.13" value="0"/>
<param name="PrefDir.14" value="0"/>
<param name="PrefDir.15" value="0"/>
<param name="PrefDir.16" value="-"/>
<param name="cfVia" value="8"/>
<param name="cfNonPref" value="5"/>
<param name="cfChangeDir" value="2"/>
<param name="cfOrthStep" value="2"/>
<param name="cfDiagStep" value="3"/>
<param name="cfExtdStep" value="0"/>
<param name="cfBonusStep" value="1"/>
<param name="cfMalusStep" value="1"/>
<param name="cfPadImpact" value="4"/>
<param name="cfSmdImpact" value="4"/>
<param name="cfBusImpact" value="0"/>
<param name="cfHugging" value="3"/>
<param name="cfAvoid" value="4"/>
<param name="cfPolygon" value="10"/>
<param name="cfBase.1" value="0"/>
<param name="cfBase.2" value="1"/>
<param name="cfBase.3" value="1"/>
<param name="cfBase.4" value="1"/>
<param name="cfBase.5" value="1"/>
<param name="cfBase.6" value="1"/>
<param name="cfBase.7" value="1"/>
<param name="cfBase.8" value="1"/>
<param name="cfBase.9" value="1"/>
<param name="cfBase.10" value="1"/>
<param name="cfBase.11" value="1"/>
<param name="cfBase.12" value="1"/>
<param name="cfBase.13" value="1"/>
<param name="cfBase.14" value="1"/>
<param name="cfBase.15" value="1"/>
<param name="cfBase.16" value="0"/>
<param name="mnVias" value="20"/>
<param name="mnSegments" value="9999"/>
<param name="mnExtdSteps" value="9999"/>
<param name="mnRipupLevel" value="10"/>
<param name="mnRipupSteps" value="100"/>
<param name="mnRipupTotal" value="100"/>
</pass>
<pass name="Follow-me" refer="Default" active="yes">
</pass>
<pass name="Busses" refer="Default" active="yes">
<param name="cfNonPref" value="4"/>
<param name="cfBusImpact" value="4"/>
<param name="cfHugging" value="0"/>
<param name="mnVias" value="0"/>
</pass>
<pass name="Route" refer="Default" active="yes">
</pass>
<pass name="Optimize1" refer="Default" active="yes">
<param name="cfVia" value="99"/>
<param name="cfExtdStep" value="10"/>
<param name="cfHugging" value="1"/>
<param name="mnExtdSteps" value="1"/>
<param name="mnRipupLevel" value="0"/>
</pass>
<pass name="Optimize2" refer="Optimize1" active="yes">
<param name="cfNonPref" value="0"/>
<param name="cfChangeDir" value="6"/>
<param name="cfExtdStep" value="0"/>
<param name="cfBonusStep" value="2"/>
<param name="cfMalusStep" value="2"/>
<param name="cfPadImpact" value="2"/>
<param name="cfSmdImpact" value="2"/>
<param name="cfHugging" value="0"/>
</pass>
<pass name="Optimize3" refer="Optimize2" active="yes">
<param name="cfChangeDir" value="8"/>
<param name="cfPadImpact" value="0"/>
<param name="cfSmdImpact" value="0"/>
</pass>
<pass name="Optimize4" refer="Optimize3" active="yes">
<param name="cfChangeDir" value="25"/>
</pass>
</autorouter>
<elements>
<element name="PAD1" library="#PaJa_30" package="PAD_1" value="PAD_1+" x="12.7" y="35.56"/>
<element name="R1" library="#PaJa_30" package="R-5" value="" x="16.51" y="33.02" rot="R90"/>
<element name="D1" library="#PaJa_30" package="LED_5" value="LED_5" x="16.51" y="25.4" rot="R270"/>
<element name="D2" library="#PaJa_30" package="DO41" value="1N4007_10" x="29.21" y="35.56"/>
<element name="T1" library="#PaJa_30" package="TO-92" value="BC546" x="29.21" y="25.4" rot="MR90"/>
<element name="R2" library="#PaJa_30" package="R-5" value="" x="38.1" y="33.02" rot="R90"/>
<element name="R3" library="#PaJa_30" package="R-5" value="" x="20.32" y="33.02" rot="R90"/>
<element name="T2" library="#PaJa_30" package="TO-92" value="BC546" x="35.56" y="20.32" rot="MR90"/>
<element name="C1" library="#PaJa_30" package="C-EL_5" value="" x="21.59" y="22.86" rot="R90"/>
<element name="R4" library="#PaJa_30" package="R-5" value="" x="35.56" y="27.94" rot="R270"/>
<element name="R5" library="#PaJa_30" package="R-5" value="" x="26.67" y="31.75" rot="R180"/>
<element name="PAD2" library="#PaJa_30" package="PAD_1" value="PAD_1-" x="12.7" y="24.13"/>
<element name="D3" library="#PaJa_30" package="LED_5" value="LED_5" x="27.94" y="20.32" rot="R180"/>
</elements>
<signals>
<signal name="N$2">
<contactref element="R1" pad="1"/>
<contactref element="D1" pad="A"/>
<wire x1="16.51" y1="30.48" x2="16.51" y2="26.67" width="1.27" layer="16"/>
</signal>
<signal name="N$3">
<contactref element="R2" pad="2"/>
<contactref element="D2" pad="K"/>
<wire x1="34.29" y1="35.56" x2="38.1" y2="35.56" width="1.27" layer="16"/>
</signal>
<signal name="N$4">
<contactref element="D2" pad="A"/>
<contactref element="R3" pad="2"/>
<contactref element="PAD1" pad="1"/>
<contactref element="R1" pad="2"/>
<contactref element="R5" pad="2"/>
<wire x1="12.7" y1="35.56" x2="16.51" y2="35.56" width="1.27" layer="16"/>
<wire x1="16.51" y1="35.56" x2="20.32" y2="35.56" width="1.27" layer="16"/>
<wire x1="20.32" y1="35.56" x2="24.13" y2="35.56" width="1.27" layer="16"/>
<wire x1="24.13" y1="35.56" x2="24.13" y2="31.75" width="1.27" layer="16"/>
</signal>
<signal name="N$1">
<contactref element="R2" pad="1"/>
<contactref element="R4" pad="1"/>
<contactref element="C1" pad="C+"/>
<contactref element="T2" pad="1"/>
<wire x1="35.56" y1="30.48" x2="38.1" y2="30.48" width="1.27" layer="16"/>
<wire x1="38.1" y1="30.48" x2="38.1" y2="20.32" width="1.27" layer="16"/>
<wire x1="21.59" y1="20.32" x2="21.59" y2="17.78" width="1.27" layer="16"/>
<wire x1="21.59" y1="17.78" x2="38.1" y2="17.78" width="1.27" layer="16"/>
<wire x1="38.1" y1="17.78" x2="38.1" y2="20.32" width="1.27" layer="16"/>
</signal>
<signal name="N$5">
<contactref element="R4" pad="2"/>
<contactref element="T2" pad="2"/>
<contactref element="T1" pad="1"/>
<wire x1="31.75" y1="25.4" x2="35.56" y2="25.4" width="1.27" layer="16"/>
<wire x1="35.56" y1="25.4" x2="35.56" y2="22.86" width="1.27" layer="16"/>
</signal>
<signal name="N$6">
<contactref element="T2" pad="3"/>
<contactref element="D3" pad="A"/>
<wire x1="29.21" y1="20.32" x2="33.02" y2="20.32" width="1.27" layer="16"/>
</signal>
<signal name="N$7">
<contactref element="C1" pad="C-"/>
<contactref element="T1" pad="3"/>
<contactref element="D1" pad="K"/>
<contactref element="R3" pad="1"/>
<contactref element="PAD2" pad="1"/>
<wire x1="26.67" y1="25.4" x2="21.59" y2="25.4" width="1.27" layer="16"/>
<wire x1="20.32" y1="25.4" x2="20.32" y2="30.48" width="1.27" layer="16"/>
<wire x1="16.51" y1="24.13" x2="20.32" y2="24.13" width="1.27" layer="16"/>
<wire x1="20.32" y1="24.13" x2="20.32" y2="25.4" width="1.27" layer="16"/>
<wire x1="16.51" y1="24.13" x2="12.7" y2="24.13" width="1.27" layer="16"/>
<contactref element="D3" pad="K"/>
<wire x1="26.67" y1="20.32" x2="26.67" y2="25.4" width="1.27" layer="16"/>
<wire x1="21.59" y1="25.4" x2="20.32" y2="25.4" width="1.27" layer="16"/>
</signal>
<signal name="N$8">
<contactref element="R5" pad="1"/>
<contactref element="T1" pad="2"/>
<wire x1="29.21" y1="31.75" x2="29.21" y2="27.94" width="1.27" layer="16"/>
</signal>
</signals>
</board>
</drawing>
</eagle>
