<?xml version="1.0" encoding="utf-8"?>
<!DOCTYPE eagle SYSTEM "eagle.dtd">
<eagle version="6.0">
<drawing>
<settings>
<setting alwaysvectorfont="no"/>
<setting verticaltext="up"/>
</settings>
<grid distance="0.1" unitdist="inch" unit="inch" style="lines" multiple="1" display="no" altdistance="0.01" altunitdist="inch" altunit="inch"/>
<layers>
<layer number="1" name="Top" color="4" fill="1" visible="yes" active="no"/>
<layer number="16" name="Bottom" color="1" fill="1" visible="yes" active="no"/>
<layer number="17" name="Pads" color="2" fill="1" visible="yes" active="no"/>
<layer number="18" name="Vias" color="2" fill="1" visible="yes" active="no"/>
<layer number="19" name="Unrouted" color="6" fill="1" visible="yes" active="no"/>
<layer number="20" name="Dimension" color="15" fill="1" visible="yes" active="no"/>
<layer number="21" name="tPlace" color="7" fill="1" visible="yes" active="no"/>
<layer number="22" name="bPlace" color="7" fill="1" visible="yes" active="no"/>
<layer number="23" name="tOrigins" color="15" fill="1" visible="yes" active="no"/>
<layer number="24" name="bOrigins" color="15" fill="1" visible="yes" active="no"/>
<layer number="25" name="tNames" color="7" fill="1" visible="yes" active="no"/>
<layer number="26" name="bNames" color="7" fill="1" visible="yes" active="no"/>
<layer number="27" name="tValues" color="7" fill="1" visible="yes" active="no"/>
<layer number="28" name="bValues" color="7" fill="1" visible="yes" active="no"/>
<layer number="29" name="tStop" color="7" fill="3" visible="no" active="no"/>
<layer number="30" name="bStop" color="7" fill="6" visible="no" active="no"/>
<layer number="31" name="tCream" color="7" fill="4" visible="no" active="no"/>
<layer number="32" name="bCream" color="7" fill="5" visible="no" active="no"/>
<layer number="33" name="tFinish" color="6" fill="3" visible="no" active="no"/>
<layer number="34" name="bFinish" color="6" fill="6" visible="no" active="no"/>
<layer number="35" name="tGlue" color="7" fill="4" visible="no" active="no"/>
<layer number="36" name="bGlue" color="7" fill="5" visible="no" active="no"/>
<layer number="37" name="tTest" color="7" fill="1" visible="yes" active="no"/>
<layer number="38" name="bTest" color="7" fill="1" visible="yes" active="no"/>
<layer number="39" name="tKeepout" color="4" fill="11" visible="no" active="no"/>
<layer number="40" name="bKeepout" color="1" fill="11" visible="no" active="no"/>
<layer number="41" name="tRestrict" color="4" fill="10" visible="no" active="no"/>
<layer number="42" name="bRestrict" color="1" fill="10" visible="no" active="no"/>
<layer number="43" name="vRestrict" color="2" fill="10" visible="no" active="no"/>
<layer number="44" name="Drills" color="7" fill="1" visible="no" active="no"/>
<layer number="45" name="Holes" color="7" fill="1" visible="no" active="no"/>
<layer number="46" name="Milling" color="3" fill="1" visible="yes" active="no"/>
<layer number="47" name="Measures" color="7" fill="1" visible="yes" active="no"/>
<layer number="48" name="Document" color="7" fill="1" visible="yes" active="no"/>
<layer number="49" name="Reference" color="7" fill="1" visible="yes" active="no"/>
<layer number="50" name="dxf" color="7" fill="1" visible="yes" active="no"/>
<layer number="51" name="tDocu" color="7" fill="1" visible="yes" active="no"/>
<layer number="52" name="bDocu" color="7" fill="1" visible="yes" active="no"/>
<layer number="53" name="tGND_GNDA" color="7" fill="1" visible="yes" active="no"/>
<layer number="54" name="bGND_GNDA" color="7" fill="1" visible="yes" active="no"/>
<layer number="56" name="wert" color="7" fill="1" visible="yes" active="no"/>
<layer number="91" name="Nets" color="2" fill="1" visible="yes" active="yes"/>
<layer number="92" name="Busses" color="1" fill="1" visible="yes" active="yes"/>
<layer number="93" name="Pins" color="2" fill="1" visible="no" active="yes"/>
<layer number="94" name="Symbols" color="4" fill="1" visible="yes" active="yes"/>
<layer number="95" name="Names" color="7" fill="1" visible="yes" active="yes"/>
<layer number="96" name="Values" color="7" fill="1" visible="yes" active="yes"/>
<layer number="97" name="Info" color="7" fill="1" visible="yes" active="yes"/>
<layer number="98" name="Guide" color="6" fill="1" visible="yes" active="yes"/>
<layer number="100" name="PaJa" color="12" fill="7" visible="yes" active="yes"/>
<layer number="101" name="Doplnky" color="5" fill="1" visible="yes" active="yes"/>
<layer number="102" name="Kola" color="11" fill="7" visible="yes" active="yes"/>
<layer number="103" name="Popisy" color="7" fill="1" visible="yes" active="yes"/>
<layer number="104" name="Zapojeni" color="7" fill="1" visible="yes" active="yes"/>
<layer number="151" name="HeatSink" color="7" fill="1" visible="no" active="no"/>
<layer number="200" name="200bmp" color="7" fill="1" visible="no" active="no"/>
<layer number="250" name="Descript" color="7" fill="1" visible="no" active="no"/>
<layer number="251" name="SMDround" color="7" fill="1" visible="no" active="no"/>
<layer number="254" name="OrgLBR" color="7" fill="1" visible="no" active="no"/>
</layers>
<schematic xreflabel="%F%N/%S.%C%R" xrefpart="/%S.%C%R">
<libraries>
<library name="#PaJa_30">
<description>&lt;B&gt;PaJa 30&lt;/B&gt; - knihovna   &amp;nbsp; &amp;nbsp; &amp;nbsp; &amp;nbsp; &amp;nbsp; &amp;nbsp; 
&lt;I&gt;(vytvoreno 1.6.2011)&lt;/I&gt;&lt;BR&gt;
Univerzální knihovna soucastek do Eagle &lt;I&gt;(od verze 5.6)&lt;/I&gt;&lt;BR&gt;
&lt;BR&gt;
Knihovna obsahuje: 196 soucastek na DPS, 298 do SCHematu&lt;BR&gt;
&lt;BR&gt;
&lt;Author&gt;Copyright (C) PaJa 2001-2011&lt;BR&gt;
http://www.paja-trb.unas.cz&lt;BR&gt;
paja-trb@seznam.cz
&lt;/author&gt;</description>
<packages>
<package name="PAD_1">
<circle x="0" y="0" radius="0.5732" width="0.127" layer="102"/>
<pad name="1" x="0" y="0" drill="1.016" diameter="2.1844" shape="octagon"/>
<text x="-2.226" y="1.272" size="1.27" layer="25" font="vector">&gt;Name</text>
<text x="-2.067" y="-2.544" size="1.27" layer="27" font="vector">&gt;Value</text>
<text x="-1.272" y="-0.477" size="0.254" layer="100" font="vector" rot="R90">PaJa</text>
</package>
<package name="R-5">
<description>&lt;B&gt;Odpor&lt;/B&gt; - vel. 0204 - 0,4W - miniaturni</description>
<wire x1="-1.778" y1="0.635" x2="-1.524" y2="0.889" width="0.127" layer="21" curve="-90" cap="flat"/>
<wire x1="-1.778" y1="-0.635" x2="-1.524" y2="-0.889" width="0.127" layer="21" curve="90" cap="flat"/>
<wire x1="1.524" y1="-0.889" x2="1.778" y2="-0.635" width="0.127" layer="21" curve="90" cap="flat"/>
<wire x1="1.524" y1="0.889" x2="1.778" y2="0.6388" width="0.127" layer="21" curve="-89.149199"/>
<wire x1="1.778" y1="0.6388" x2="1.778" y2="0.635" width="0.127" layer="21" curve="-0.857165"/>
<wire x1="-1.524" y1="0.889" x2="-1.27" y2="0.889" width="0.127" layer="21"/>
<wire x1="-1.143" y1="0.762" x2="-1.27" y2="0.889" width="0.127" layer="21"/>
<wire x1="-1.524" y1="-0.889" x2="-1.27" y2="-0.889" width="0.127" layer="21"/>
<wire x1="-1.143" y1="-0.762" x2="-1.27" y2="-0.889" width="0.127" layer="21"/>
<wire x1="1.143" y1="0.762" x2="1.27" y2="0.889" width="0.127" layer="21"/>
<wire x1="1.143" y1="0.762" x2="-1.143" y2="0.762" width="0.127" layer="21"/>
<wire x1="1.143" y1="-0.762" x2="1.27" y2="-0.889" width="0.127" layer="21"/>
<wire x1="1.143" y1="-0.762" x2="-1.143" y2="-0.762" width="0.127" layer="21"/>
<wire x1="1.524" y1="0.889" x2="1.27" y2="0.889" width="0.127" layer="21"/>
<wire x1="1.524" y1="-0.889" x2="1.27" y2="-0.889" width="0.127" layer="21"/>
<wire x1="1.778" y1="0.6388" x2="1.778" y2="-0.6332" width="0.127" layer="51"/>
<wire x1="-1.7787" y1="0.6274" x2="-1.7787" y2="-0.6446" width="0.127" layer="51"/>
<circle x="-2.54" y="0" radius="0.4763" width="0.127" layer="102"/>
<circle x="2.54" y="0" radius="0.4762" width="0.127" layer="102"/>
<pad name="1" x="-2.54" y="0" drill="0.8128" diameter="1.778" shape="octagon"/>
<pad name="2" x="2.54" y="0" drill="0.8128" diameter="1.778" shape="octagon"/>
<text x="-1.59" y="-0.477" size="1.016" layer="25" font="vector">&gt;Name</text>
<text x="-2.544" y="-1.908" size="1.016" layer="27" font="vector">&gt;Value</text>
<text x="-0.4797" y="0.8527" size="0.254" layer="100" font="vector">PaJa</text>
<rectangle x1="-2.1022" y1="-0.306" x2="-1.8124" y2="0.3068" layer="51"/>
<rectangle x1="1.8124" y1="-0.3068" x2="2.1022" y2="0.306" layer="51"/>
</package>
<package name="R-10">
<description>&lt;B&gt;Odpor&lt;/B&gt; - vel. 0207 - 0,6W - vetsi roztec</description>
<wire x1="-2.572" y1="1.016" x2="-2.699" y2="1.143" width="0.127" layer="21"/>
<wire x1="-2.572" y1="-1.016" x2="-2.699" y2="-1.143" width="0.127" layer="21"/>
<wire x1="2.572" y1="1.016" x2="2.699" y2="1.143" width="0.127" layer="21"/>
<wire x1="2.572" y1="1.016" x2="-2.572" y2="1.016" width="0.127" layer="21"/>
<wire x1="2.572" y1="-1.016" x2="2.699" y2="-1.143" width="0.127" layer="21"/>
<wire x1="2.572" y1="-1.016" x2="-2.572" y2="-1.016" width="0.127" layer="21"/>
<wire x1="3.08" y1="1.139" x2="2.699" y2="1.139" width="0.127" layer="21"/>
<wire x1="3.08" y1="-1.147" x2="2.699" y2="-1.147" width="0.127" layer="21"/>
<wire x1="-3.334" y1="0.893" x2="-3.08" y2="1.147" width="0.127" layer="21" curve="-90" cap="flat"/>
<wire x1="-3.334" y1="-0.885" x2="-3.08" y2="-1.139" width="0.127" layer="21" curve="90" cap="flat"/>
<wire x1="-3.08" y1="-1.139" x2="-2.699" y2="-1.139" width="0.127" layer="21"/>
<wire x1="-3.08" y1="1.147" x2="-2.699" y2="1.147" width="0.127" layer="21"/>
<wire x1="-3.3321" y1="0.8823" x2="-3.3321" y2="-0.8667" width="0.127" layer="21"/>
<wire x1="3.08" y1="-1.147" x2="3.334" y2="-0.893" width="0.127" layer="21" curve="90" cap="flat"/>
<wire x1="3.08" y1="1.139" x2="3.334" y2="0.885" width="0.127" layer="21" curve="-90" cap="flat"/>
<wire x1="3.3321" y1="-0.8823" x2="3.3321" y2="0.8667" width="0.127" layer="21"/>
<circle x="-5.08" y="0" radius="0.4763" width="0.127" layer="102"/>
<circle x="5.08" y="0" radius="0.4762" width="0.127" layer="102"/>
<pad name="1" x="-5.08" y="0" drill="0.8128" diameter="1.9304" shape="octagon"/>
<pad name="2" x="5.08" y="0" drill="0.8128" diameter="1.9304" shape="octagon"/>
<text x="-3.1152" y="-0.6276" size="1.27" layer="25" font="vector">&gt;Name</text>
<text x="-0.3178" y="-0.6358" size="1.27" layer="27" font="vector">&gt;Value</text>
<text x="2.3342" y="-0.9351" size="0.254" layer="100" font="vector">PaJa</text>
<rectangle x1="-4.6038" y1="-0.3175" x2="-3.9688" y2="0.3175" layer="51"/>
<rectangle x1="3.9688" y1="-0.3175" x2="4.6038" y2="0.3175" layer="51"/>
<rectangle x1="-3.9688" y1="-0.3175" x2="-3.3338" y2="0.3175" layer="21"/>
<rectangle x1="3.3338" y1="-0.3175" x2="3.9688" y2="0.3175" layer="21"/>
</package>
<package name="R-12,7">
<description>&lt;B&gt;Odpor&lt;/B&gt; - roztec nozek 12,7mm</description>
<wire x1="3.7648" y1="1.2546" x2="3.8918" y2="1.3816" width="0.127" layer="21"/>
<wire x1="3.7648" y1="-1.2546" x2="3.8918" y2="-1.3816" width="0.127" layer="21"/>
<wire x1="4.2728" y1="1.3776" x2="3.8918" y2="1.3776" width="0.127" layer="21"/>
<wire x1="4.2728" y1="-1.3856" x2="3.8918" y2="-1.3856" width="0.127" layer="21"/>
<wire x1="4.2728" y1="-1.3856" x2="4.5268" y2="-1.1316" width="0.127" layer="21" curve="90" cap="flat"/>
<wire x1="4.2728" y1="1.3776" x2="4.5268" y2="1.1236" width="0.127" layer="21" curve="-90" cap="flat"/>
<wire x1="4.5249" y1="-1.1209" x2="4.5249" y2="1.1053" width="0.127" layer="21"/>
<wire x1="-3.7649" y1="1.2547" x2="-3.8919" y2="1.3817" width="0.127" layer="21"/>
<wire x1="-3.7649" y1="-1.2546" x2="-3.8919" y2="-1.3816" width="0.127" layer="21"/>
<wire x1="3.7648" y1="1.2546" x2="-3.7649" y2="1.2547" width="0.127" layer="21"/>
<wire x1="3.7648" y1="-1.2546" x2="-3.7649" y2="-1.2546" width="0.127" layer="21"/>
<wire x1="-4.5269" y1="1.1316" x2="-4.2729" y2="1.3856" width="0.127" layer="21" curve="-90" cap="flat"/>
<wire x1="-4.5269" y1="-1.1236" x2="-4.2729" y2="-1.3776" width="0.127" layer="21" curve="90" cap="flat"/>
<wire x1="-4.2729" y1="-1.3776" x2="-3.8919" y2="-1.3776" width="0.127" layer="21"/>
<wire x1="-4.2729" y1="1.3856" x2="-3.8919" y2="1.3856" width="0.127" layer="21"/>
<wire x1="-4.525" y1="1.1209" x2="-4.525" y2="-1.1054" width="0.127" layer="21"/>
<circle x="-6.35" y="0" radius="0.4763" width="0.127" layer="102"/>
<circle x="6.35" y="0" radius="0.4762" width="0.127" layer="102"/>
<pad name="1" x="-6.35" y="0" drill="0.8128" diameter="2.1844" shape="octagon"/>
<pad name="2" x="6.35" y="0" drill="0.8128" diameter="2.1844" shape="octagon"/>
<text x="-0.4813" y="-0.7958" size="1.4224" layer="27" font="vector">&gt;Value</text>
<text x="-4.2905" y="-0.7144" size="1.4224" layer="25" font="vector">&gt;Name</text>
<text x="3.5712" y="-1.1046" size="0.254" layer="100" font="vector">PaJa</text>
<rectangle x1="-5.08" y1="-0.3175" x2="-4.445" y2="0.3175" layer="21"/>
<rectangle x1="4.6038" y1="-0.3175" x2="5.08" y2="0.3175" layer="21"/>
<rectangle x1="4.445" y1="-0.3175" x2="5.08" y2="0.3175" layer="21"/>
<rectangle x1="-5.8738" y1="-0.3175" x2="-5.08" y2="0.3175" layer="51"/>
<rectangle x1="5.08" y1="-0.3175" x2="5.8738" y2="0.3175" layer="51"/>
</package>
<package name="R-7,5">
<description>&lt;B&gt;Odpor&lt;/B&gt; - vel. 0207 - 0,6W</description>
<wire x1="-3.175" y1="0.893" x2="-2.921" y2="1.147" width="0.127" layer="21" curve="-90" cap="flat"/>
<wire x1="-3.175" y1="-0.885" x2="-2.921" y2="-1.139" width="0.127" layer="21" curve="90" cap="flat"/>
<wire x1="2.413" y1="-1.012" x2="2.54" y2="-1.139" width="0.127" layer="21"/>
<wire x1="2.413" y1="1.02" x2="2.54" y2="1.147" width="0.127" layer="21"/>
<wire x1="-2.413" y1="-1.012" x2="-2.54" y2="-1.139" width="0.127" layer="21"/>
<wire x1="-2.413" y1="-1.012" x2="2.413" y2="-1.012" width="0.127" layer="21"/>
<wire x1="-2.413" y1="1.02" x2="-2.54" y2="1.147" width="0.127" layer="21"/>
<wire x1="-2.413" y1="1.02" x2="2.413" y2="1.02" width="0.127" layer="21"/>
<wire x1="-2.921" y1="-1.139" x2="-2.54" y2="-1.139" width="0.127" layer="21"/>
<wire x1="-2.921" y1="1.147" x2="-2.54" y2="1.147" width="0.127" layer="21"/>
<wire x1="-3.1731" y1="0.8823" x2="-3.1731" y2="-0.8667" width="0.127" layer="51"/>
<wire x1="2.921" y1="-1.147" x2="3.175" y2="-0.893" width="0.127" layer="21" curve="90" cap="flat"/>
<wire x1="2.921" y1="1.139" x2="3.175" y2="0.885" width="0.127" layer="21" curve="-90" cap="flat"/>
<wire x1="2.921" y1="1.139" x2="2.54" y2="1.139" width="0.127" layer="21"/>
<wire x1="2.921" y1="-1.147" x2="2.54" y2="-1.147" width="0.127" layer="21"/>
<wire x1="3.1731" y1="-0.8823" x2="3.1731" y2="0.8667" width="0.127" layer="51"/>
<circle x="-3.81" y="0" radius="0.4763" width="0.127" layer="102"/>
<circle x="3.81" y="0" radius="0.4762" width="0.127" layer="102"/>
<pad name="1" x="-3.81" y="0" drill="0.8128" diameter="1.9304" shape="octagon"/>
<pad name="2" x="3.81" y="0" drill="0.8128" diameter="1.9304" shape="octagon"/>
<text x="-0.3178" y="-0.477" size="1.016" layer="27" font="vector">&gt;Value</text>
<text x="-2.7033" y="-0.477" size="1.016" layer="25" font="vector">&gt;Name</text>
<text x="2.1354" y="-0.8658" size="0.254" layer="100" font="vector">PaJa</text>
<rectangle x1="-3.4323" y1="-0.3053" x2="-3.1758" y2="0.3061" layer="51"/>
<rectangle x1="3.1759" y1="-0.3061" x2="3.4324" y2="0.3053" layer="51"/>
</package>
<package name="1206">
<description>&lt;B&gt;SMD&lt;/B&gt; - velikost 1206</description>
<wire x1="-1.0541" y1="0.7938" x2="-0.7938" y2="0.7938" width="0.127" layer="51"/>
<wire x1="-0.7938" y1="0.7938" x2="0.7938" y2="0.7938" width="0.127" layer="21"/>
<wire x1="0.7938" y1="0.7938" x2="1.0541" y2="0.7938" width="0.127" layer="51"/>
<wire x1="-1.0541" y1="-0.7938" x2="-0.7938" y2="-0.7938" width="0.127" layer="51"/>
<wire x1="-0.7938" y1="-0.7938" x2="0.7938" y2="-0.7938" width="0.127" layer="21"/>
<wire x1="0.7938" y1="-0.7938" x2="1.0541" y2="-0.7938" width="0.127" layer="51"/>
<wire x1="1.0541" y1="0.7938" x2="1.0541" y2="-0.7938" width="0.127" layer="51"/>
<wire x1="-1.0541" y1="0.7938" x2="-1.0541" y2="-0.7938" width="0.127" layer="51"/>
<smd name="1" x="-1.5875" y="0" dx="1.143" dy="1.7018" layer="1"/>
<smd name="2" x="1.5875" y="0" dx="1.143" dy="1.7018" layer="1"/>
<text x="-0.3175" y="-1.1906" size="0.254" layer="100" font="vector">PaJa</text>
<text x="-0.7938" y="-0.4763" size="1.016" layer="25" font="vector">&gt;Name</text>
<text x="-0.7938" y="0.9525" size="1.016" layer="27" font="vector">&gt;Value</text>
<rectangle x1="-1.4541" y1="-0.7874" x2="-0.9461" y2="0.7874" layer="51"/>
<rectangle x1="0.9461" y1="-0.7874" x2="1.4541" y2="0.7874" layer="51"/>
</package>
<package name="R-_2W">
<description>&lt;B&gt;Odpor&lt;/B&gt; - 2W - vel. 0414</description>
<wire x1="4.3998" y1="1.8896" x2="4.5268" y2="2.0166" width="0.127" layer="21"/>
<wire x1="4.3998" y1="-1.8896" x2="4.5268" y2="-2.0166" width="0.127" layer="21"/>
<wire x1="4.9078" y1="2.0126" x2="4.5268" y2="2.0126" width="0.127" layer="21"/>
<wire x1="4.9078" y1="-2.0206" x2="4.5268" y2="-2.0206" width="0.127" layer="21"/>
<wire x1="4.9078" y1="-2.0206" x2="5.1618" y2="-1.7666" width="0.127" layer="21" curve="90" cap="flat"/>
<wire x1="4.9078" y1="2.0126" x2="5.1618" y2="1.7586" width="0.127" layer="21" curve="-90" cap="flat"/>
<wire x1="-4.3999" y1="1.8897" x2="-4.5269" y2="2.0167" width="0.127" layer="21"/>
<wire x1="-4.3999" y1="-1.8896" x2="-4.5269" y2="-2.0166" width="0.127" layer="21"/>
<wire x1="4.3998" y1="1.8896" x2="-4.3999" y2="1.8897" width="0.127" layer="21"/>
<wire x1="4.3998" y1="-1.8896" x2="-4.3999" y2="-1.8896" width="0.127" layer="21"/>
<wire x1="-5.1619" y1="1.7666" x2="-4.9079" y2="2.0206" width="0.127" layer="21" curve="-90" cap="flat"/>
<wire x1="-5.1619" y1="-1.7586" x2="-4.9079" y2="-2.0126" width="0.127" layer="21" curve="90" cap="flat"/>
<wire x1="-4.9079" y1="-2.0126" x2="-4.5269" y2="-2.0126" width="0.127" layer="21"/>
<wire x1="-4.9079" y1="2.0206" x2="-4.5269" y2="2.0206" width="0.127" layer="21"/>
<wire x1="-5.16" y1="1.7559" x2="-5.16" y2="0.9584" width="0.127" layer="21"/>
<wire x1="-5.16" y1="-0.9429" x2="-5.16" y2="-1.7404" width="0.127" layer="21"/>
<wire x1="5.1588" y1="-0.943" x2="5.1588" y2="-1.7405" width="0.127" layer="21"/>
<wire x1="5.1588" y1="1.7559" x2="5.1588" y2="0.9584" width="0.127" layer="21"/>
<wire x1="-5.16" y1="0.9621" x2="-5.16" y2="-0.9467" width="0.127" layer="51"/>
<wire x1="5.1588" y1="0.9621" x2="5.1588" y2="-0.9467" width="0.127" layer="51"/>
<circle x="-6.35" y="0" radius="0.4763" width="0.127" layer="102"/>
<circle x="6.35" y="0" radius="0.4762" width="0.127" layer="102"/>
<pad name="1" x="-6.35" y="0" drill="0.8128" diameter="2.54" shape="octagon"/>
<pad name="2" x="6.35" y="0" drill="0.8128" diameter="2.54" shape="octagon"/>
<text x="-0.4813" y="-0.7958" size="1.6764" layer="27" font="vector">&gt;Value</text>
<text x="-4.9255" y="-0.7144" size="1.6764" layer="25" font="vector">&gt;Name</text>
<text x="4.1268" y="-1.7396" size="0.254" layer="100" font="vector">PaJa</text>
<text x="-4.7625" y="-1.5875" size="0.6096" layer="21" font="vector">2W</text>
<rectangle x1="-5.953" y1="-0.3175" x2="-5.1593" y2="0.3175" layer="51"/>
<rectangle x1="5.1594" y1="-0.3175" x2="5.9531" y2="0.3175" layer="51"/>
</package>
<package name="R-_10W">
<description>&lt;B&gt;Odpor&lt;/B&gt; - 10W - dratovy</description>
<wire x1="-24.13" y1="5.3975" x2="-24.13" y2="-5.3975" width="0.127" layer="21"/>
<wire x1="-24.13" y1="-5.3975" x2="24.13" y2="-5.3975" width="0.127" layer="21"/>
<wire x1="24.13" y1="-5.3975" x2="24.13" y2="5.3975" width="0.127" layer="21"/>
<wire x1="24.13" y1="5.3975" x2="-24.13" y2="5.3975" width="0.127" layer="21"/>
<circle x="-25.7175" y="0" radius="0.5724" width="0.127" layer="102"/>
<circle x="25.7175" y="0" radius="0.5723" width="0.127" layer="102"/>
<pad name="1" x="-25.7175" y="0" drill="1.016" diameter="2.54" shape="octagon"/>
<pad name="2" x="25.7175" y="0" drill="1.016" diameter="2.54" shape="octagon"/>
<text x="-4.9375" y="-3.08" size="1.9304" layer="27" font="vector">&gt;VALUE</text>
<text x="-4.9375" y="1.2225" size="1.9304" layer="25" font="vector">&gt;NAME</text>
<text x="22.86" y="-5.08" size="0.254" layer="100" font="vector">PaJa</text>
<text x="-23.1775" y="-3.81" size="1.27" layer="21" font="vector">10W</text>
<rectangle x1="-25.2412" y1="-0.635" x2="-24.1299" y2="0.635" layer="51"/>
<rectangle x1="-25.5587" y1="0.4763" x2="-25.2412" y2="0.635" layer="51"/>
<rectangle x1="-25.5587" y1="-0.6349" x2="-25.2412" y2="-0.4762" layer="51"/>
<rectangle x1="24.13" y1="-0.635" x2="25.2413" y2="0.635" layer="51"/>
<rectangle x1="25.2413" y1="-0.6349" x2="25.5588" y2="-0.4762" layer="51"/>
<rectangle x1="25.2413" y1="0.4763" x2="25.5588" y2="0.635" layer="51"/>
</package>
<package name="R-_20W">
<description>&lt;B&gt;Odpor&lt;/B&gt; - 20W - dratovy</description>
<wire x1="30.1625" y1="6.985" x2="-30.1625" y2="6.985" width="0.127" layer="21"/>
<wire x1="30.1625" y1="1.1113" x2="30.1625" y2="-1.1113" width="0.127" layer="51"/>
<wire x1="-30.1626" y1="1.1113" x2="-30.1626" y2="-1.1113" width="0.127" layer="51"/>
<wire x1="-30.1625" y1="1.1113" x2="-30.1625" y2="6.985" width="0.127" layer="21"/>
<wire x1="-30.1625" y1="-1.1113" x2="-30.1625" y2="-6.985" width="0.127" layer="21"/>
<wire x1="-30.1625" y1="-6.985" x2="30.1625" y2="-6.985" width="0.127" layer="21"/>
<wire x1="30.1625" y1="-6.985" x2="30.1625" y2="-1.1113" width="0.127" layer="21"/>
<wire x1="30.1625" y1="6.985" x2="30.1625" y2="1.1113" width="0.127" layer="21"/>
<circle x="-31.75" y="0" radius="0.7099" width="0.127" layer="102"/>
<circle x="31.75" y="0" radius="0.7099" width="0.127" layer="102"/>
<pad name="1" x="-31.75" y="0" drill="1.27" diameter="3.2" shape="octagon"/>
<pad name="2" x="31.75" y="0" drill="1.27" diameter="3.2" shape="octagon"/>
<text x="-4.9375" y="-4.6675" size="2.1844" layer="27" font="vector">&gt;VALUE</text>
<text x="-4.9375" y="1.2225" size="2.1844" layer="25" font="vector">&gt;NAME</text>
<text x="28.8925" y="-6.6675" size="0.254" layer="100" font="vector">PaJa</text>
<text x="-29.21" y="-5.715" size="1.27" layer="21" font="vector">20W</text>
<rectangle x1="30.1625" y1="-0.635" x2="31.115" y2="0.635" layer="51"/>
<rectangle x1="-31.1149" y1="-0.635" x2="-30.1624" y2="0.635" layer="51"/>
<rectangle x1="-31.2738" y1="0.4763" x2="-31.115" y2="0.635" layer="51"/>
<rectangle x1="-31.2738" y1="-0.6349" x2="-31.115" y2="-0.4762" layer="51"/>
<rectangle x1="31.115" y1="-0.6349" x2="31.2738" y2="-0.4762" layer="51"/>
<rectangle x1="31.115" y1="0.4763" x2="31.2738" y2="0.635" layer="51"/>
</package>
<package name="R-_5W">
<description>&lt;B&gt;Odpor&lt;/B&gt; - 5W - keramicky</description>
<wire x1="-11.1125" y1="5.08" x2="-11.1125" y2="-5.08" width="0.127" layer="21"/>
<wire x1="-11.1125" y1="-5.08" x2="11.1125" y2="-5.08" width="0.127" layer="21"/>
<wire x1="11.1125" y1="-5.08" x2="11.1125" y2="5.08" width="0.127" layer="21"/>
<wire x1="11.1125" y1="5.08" x2="-11.1125" y2="5.08" width="0.127" layer="21"/>
<circle x="-12.7" y="0" radius="0.5724" width="0.127" layer="102"/>
<circle x="12.7" y="0" radius="0.5723" width="0.127" layer="102"/>
<pad name="1" x="-12.7" y="0" drill="1.016" diameter="2.54" shape="octagon"/>
<pad name="2" x="12.7" y="0" drill="1.016" diameter="2.54" shape="octagon"/>
<text x="-4.9375" y="-3.08" size="1.9304" layer="27" font="vector">&gt;VALUE</text>
<text x="-4.9375" y="1.2225" size="1.9304" layer="25" font="vector">&gt;NAME</text>
<text x="-10.16" y="-3.81" size="1.27" layer="21" font="vector">5W</text>
<text x="9.8425" y="-4.7625" size="0.254" layer="100" font="vector">PaJa</text>
<rectangle x1="-12.2237" y1="-0.635" x2="-11.1124" y2="0.635" layer="51"/>
<rectangle x1="-12.5412" y1="0.4763" x2="-12.2237" y2="0.635" layer="51"/>
<rectangle x1="-12.5412" y1="-0.6349" x2="-12.2237" y2="-0.4762" layer="51"/>
<rectangle x1="11.1125" y1="-0.635" x2="12.2238" y2="0.635" layer="51"/>
<rectangle x1="12.2238" y1="-0.6349" x2="12.5413" y2="-0.4762" layer="51"/>
<rectangle x1="12.2238" y1="0.4763" x2="12.5413" y2="0.635" layer="51"/>
</package>
<package name="R-STOJ">
<description>&lt;B&gt;Odpor&lt;/B&gt; - vel. 0207 - 0,6W - nastojato</description>
<wire x1="-1.905" y1="1.1113" x2="-1.905" y2="-1.1113" width="0.127" layer="21" curve="120.512458"/>
<wire x1="-0.635" y1="1.1113" x2="-0.635" y2="-1.1113" width="0.127" layer="21" curve="-120.512458"/>
<wire x1="-1.905" y1="1.1113" x2="-0.635" y2="1.1113" width="0.127" layer="51" curve="-59.487542"/>
<wire x1="-0.635" y1="-1.1113" x2="-1.905" y2="-1.1113" width="0.127" layer="51" curve="-59.487542"/>
<circle x="-1.27" y="0" radius="0.4763" width="0.127" layer="102"/>
<circle x="1.27" y="0" radius="0.4762" width="0.127" layer="102"/>
<pad name="1" x="-1.27" y="0" drill="0.8128" diameter="1.27" shape="long" rot="R90"/>
<pad name="2" x="1.27" y="0" drill="0.8128" diameter="1.27" shape="long" rot="R90"/>
<text x="-2.389" y="1.433" size="1.016" layer="25" font="vector">&gt;Name</text>
<text x="-2.544" y="-2.385" size="1.016" layer="27" font="vector">&gt;Value</text>
<text x="0.636" y="-1.272" size="0.254" layer="100" font="vector" rot="R90">PaJa</text>
<rectangle x1="-0.7938" y1="-0.3175" x2="-0.4763" y2="0.3175" layer="51"/>
<rectangle x1="0.4763" y1="-0.3175" x2="0.7938" y2="0.3175" layer="51"/>
<rectangle x1="-0.4763" y1="-0.3175" x2="0.4763" y2="0.3175" layer="21"/>
</package>
<package name="0805">
<description>&lt;B&gt;SMD&lt;/B&gt; - velikost 0805</description>
<wire x1="-0.3226" y1="0.5645" x2="-0.5645" y2="0.5645" width="0.127" layer="51"/>
<wire x1="-0.5645" y1="0.5645" x2="-0.5645" y2="-0.5645" width="0.127" layer="51"/>
<wire x1="-0.5645" y1="-0.5645" x2="-0.3226" y2="-0.5645" width="0.127" layer="51"/>
<wire x1="0.3226" y1="0.5645" x2="0.5645" y2="0.5645" width="0.127" layer="51"/>
<wire x1="0.5645" y1="0.5645" x2="0.5645" y2="-0.5645" width="0.127" layer="51"/>
<wire x1="0.5645" y1="-0.5645" x2="0.3226" y2="-0.5645" width="0.127" layer="51"/>
<wire x1="-0.3226" y1="0.5645" x2="0.3226" y2="0.5645" width="0.127" layer="21"/>
<wire x1="0.3226" y1="-0.5645" x2="-0.3226" y2="-0.5645" width="0.127" layer="21"/>
<smd name="1" x="-0.9525" y="0" dx="1.016" dy="1.4224" layer="1"/>
<smd name="2" x="0.9525" y="0" dx="1.016" dy="1.4224" layer="1"/>
<text x="-1.397" y="-1.6351" size="0.8128" layer="27" font="vector" ratio="10">&gt;VALUE</text>
<text x="-1.3177" y="0.8413" size="0.8128" layer="25" font="vector" ratio="10">&gt;NAME</text>
<text x="0.3956" y="-0.4763" size="0.254" layer="100" font="vector" rot="R90">PaJa</text>
<rectangle x1="0.4064" y1="-0.6096" x2="0.9144" y2="0.6096" layer="51"/>
<rectangle x1="-0.9144" y1="-0.6096" x2="-0.4064" y2="0.6096" layer="51"/>
</package>
<package name="LED_10">
<description>&lt;B&gt;LED dioda&lt;/B&gt; - 10mm prumer</description>
<wire x1="-1.268" y1="-0.446" x2="-1.268" y2="-1.27" width="0.127" layer="51"/>
<wire x1="1.272" y1="-1.27" x2="1.272" y2="-0.446" width="0.127" layer="51"/>
<wire x1="-0.633" y1="-2.667" x2="0.637" y2="-1.905" width="0.127" layer="21"/>
<wire x1="0.637" y1="-1.905" x2="1.27" y2="-1.905" width="0.127" layer="21"/>
<wire x1="1.27" y1="-1.905" x2="1.27" y2="-1.27" width="0.127" layer="21"/>
<wire x1="1.27" y1="-1.27" x2="1.272" y2="-1.27" width="0.127" layer="21"/>
<wire x1="0.637" y1="-1.905" x2="-0.633" y2="-1.143" width="0.127" layer="21"/>
<wire x1="-0.347" y1="-3.0478" x2="0.415" y2="-3.8098" width="0.127" layer="21"/>
<wire x1="0.288" y1="-2.6668" x2="1.05" y2="-3.4288" width="0.127" layer="21"/>
<wire x1="0.034" y1="-3.6828" x2="0.288" y2="-3.4288" width="0.127" layer="21"/>
<wire x1="0.288" y1="-3.4288" x2="0.415" y2="-3.8098" width="0.127" layer="21"/>
<wire x1="0.415" y1="-3.8098" x2="0.034" y2="-3.6828" width="0.127" layer="21"/>
<wire x1="1.05" y1="-3.4288" x2="0.669" y2="-3.3018" width="0.127" layer="21"/>
<wire x1="0.669" y1="-3.3018" x2="0.923" y2="-3.0478" width="0.127" layer="21"/>
<wire x1="0.923" y1="-3.0478" x2="1.05" y2="-3.4288" width="0.127" layer="21"/>
<wire x1="0.796" y1="-3.3018" x2="0.923" y2="-3.1748" width="0.127" layer="21"/>
<wire x1="0.161" y1="-3.6828" x2="0.288" y2="-3.5558" width="0.127" layer="21"/>
<wire x1="0.637" y1="-2.667" x2="0.637" y2="-1.905" width="0.127" layer="21"/>
<wire x1="0.637" y1="-1.905" x2="0.637" y2="-1.143" width="0.127" layer="21"/>
<wire x1="-1.268" y1="-1.27" x2="-1.27" y2="-1.27" width="0.127" layer="21"/>
<wire x1="-1.27" y1="-1.27" x2="-1.27" y2="-1.905" width="0.127" layer="21"/>
<wire x1="-1.27" y1="-1.905" x2="-0.633" y2="-1.905" width="0.127" layer="21"/>
<wire x1="-0.633" y1="-1.143" x2="-0.633" y2="-2.667" width="0.127" layer="21"/>
<wire x1="3.81" y1="-2.2225" x2="3.81" y2="2.2225" width="0.127" layer="21"/>
<wire x1="3.81" y1="-2.2225" x2="3.81" y2="2.2225" width="0.127" layer="21" curve="-299.487126"/>
<circle x="-1.272" y="0" radius="0.477" width="0.127" layer="102"/>
<circle x="1.272" y="0" radius="0.477" width="0.127" layer="102"/>
<circle x="0" y="0" radius="3.81" width="0.127" layer="51"/>
<pad name="K" x="1.27" y="0" drill="0.8128" diameter="1.9304" shape="square"/>
<pad name="A" x="-1.27" y="0" drill="0.8128" diameter="1.9304"/>
<text x="-2.2268" y="1.4225" size="1.27" layer="25" font="vector">&gt;Name</text>
<text x="5.2472" y="-2.8622" size="1.27" layer="27" font="vector" rot="R90">&gt;Value</text>
<text x="0.793" y="-2.385" size="0.254" layer="100" font="vector">PaJa</text>
</package>
<package name="LED_3">
<description>&lt;B&gt;LED dioda&lt;/B&gt; - 3mm prumer</description>
<wire x1="-0.381" y1="-0.381" x2="-0.381" y2="-0.889" width="0.127" layer="51"/>
<wire x1="-0.381" y1="-1.397" x2="0.381" y2="-0.889" width="0.127" layer="51"/>
<wire x1="0.381" y1="-0.889" x2="0.889" y2="-0.889" width="0.127" layer="51"/>
<wire x1="0.381" y1="-0.889" x2="-0.381" y2="-0.381" width="0.127" layer="51"/>
<wire x1="-0.635" y1="0.508" x2="0.127" y2="1.27" width="0.127" layer="51"/>
<wire x1="0" y1="0.127" x2="0.762" y2="0.889" width="0.127" layer="51"/>
<wire x1="-0.254" y1="1.143" x2="0" y2="0.889" width="0.127" layer="51"/>
<wire x1="0" y1="0.889" x2="0.127" y2="1.27" width="0.127" layer="51"/>
<wire x1="0.127" y1="1.27" x2="-0.254" y2="1.143" width="0.127" layer="51"/>
<wire x1="0.762" y1="0.889" x2="0.381" y2="0.762" width="0.127" layer="51"/>
<wire x1="0.381" y1="0.762" x2="0.635" y2="0.508" width="0.127" layer="51"/>
<wire x1="0.635" y1="0.508" x2="0.762" y2="0.889" width="0.127" layer="51"/>
<wire x1="0.508" y1="0.762" x2="0.635" y2="0.635" width="0.127" layer="51"/>
<wire x1="-0.127" y1="1.143" x2="0" y2="1.016" width="0.127" layer="51"/>
<wire x1="0.381" y1="-1.397" x2="0.381" y2="-0.889" width="0.127" layer="51"/>
<wire x1="0.381" y1="-0.889" x2="0.381" y2="-0.381" width="0.127" layer="51"/>
<wire x1="0.889" y1="-0.889" x2="1.1685" y2="-0.5239" width="0.127" layer="51"/>
<wire x1="-0.8889" y1="-0.889" x2="-1.0921" y2="-0.5238" width="0.127" layer="51"/>
<wire x1="-0.8889" y1="-0.889" x2="-0.381" y2="-0.889" width="0.127" layer="51"/>
<wire x1="-0.381" y1="-0.889" x2="-0.381" y2="-1.397" width="0.127" layer="51"/>
<wire x1="-1.5081" y1="0.4763" x2="1.4289" y2="0.7145" width="0.127" layer="21" curve="-135.860035" cap="flat"/>
<wire x1="-1.5081" y1="-0.4763" x2="1.4288" y2="-0.7144" width="0.127" layer="21" curve="135.855325" cap="flat"/>
<wire x1="1.4288" y1="0.7144" x2="1.4288" y2="0.4763" width="0.127" layer="21"/>
<wire x1="1.4288" y1="-0.7144" x2="1.4288" y2="-0.4763" width="0.127" layer="21"/>
<wire x1="1.4288" y1="0.4763" x2="1.4288" y2="-0.4763" width="0.127" layer="51"/>
<wire x1="-1.5081" y1="0.4763" x2="-1.5081" y2="-0.4763" width="0.127" layer="51" curve="35.055137" cap="flat"/>
<circle x="-1.272" y="0" radius="0.5028" width="0.127" layer="102"/>
<circle x="1.272" y="0" radius="0.477" width="0.127" layer="102"/>
<pad name="A" x="-1.27" y="0" drill="0.8128" diameter="1.778"/>
<pad name="K" x="1.27" y="0" drill="0.8128" diameter="1.778" shape="square"/>
<text x="-2.544" y="1.749" size="1.27" layer="25" font="vector">&gt;Name</text>
<text x="-2.703" y="-3.021" size="1.27" layer="27" font="vector">&gt;Value</text>
<text x="-0.318" y="0.636" size="0.254" layer="100" font="vector" rot="R270">PaJa</text>
</package>
<package name="LED_5">
<description>&lt;B&gt;LED dioda&lt;/B&gt; - 5mm prumer</description>
<wire x1="-1.268" y1="-0.446" x2="-1.268" y2="-1.27" width="0.127" layer="51"/>
<wire x1="1.272" y1="-1.27" x2="1.272" y2="-0.446" width="0.127" layer="51"/>
<wire x1="-0.633" y1="-0.508" x2="-0.633" y2="-1.27" width="0.127" layer="51"/>
<wire x1="-0.633" y1="-2.032" x2="0.637" y2="-1.27" width="0.127" layer="51"/>
<wire x1="0.637" y1="-1.27" x2="1.272" y2="-1.27" width="0.127" layer="51"/>
<wire x1="0.637" y1="-1.27" x2="-0.633" y2="-0.508" width="0.127" layer="51"/>
<wire x1="-0.347" y1="0.984" x2="0.415" y2="1.746" width="0.127" layer="51"/>
<wire x1="0.288" y1="0.603" x2="1.05" y2="1.365" width="0.127" layer="51"/>
<wire x1="0.034" y1="1.619" x2="0.288" y2="1.365" width="0.127" layer="51"/>
<wire x1="0.288" y1="1.365" x2="0.415" y2="1.746" width="0.127" layer="51"/>
<wire x1="0.415" y1="1.746" x2="0.034" y2="1.619" width="0.127" layer="51"/>
<wire x1="1.05" y1="1.365" x2="0.669" y2="1.238" width="0.127" layer="51"/>
<wire x1="0.669" y1="1.238" x2="0.923" y2="0.984" width="0.127" layer="51"/>
<wire x1="0.923" y1="0.984" x2="1.05" y2="1.365" width="0.127" layer="51"/>
<wire x1="0.796" y1="1.238" x2="0.923" y2="1.111" width="0.127" layer="51"/>
<wire x1="0.161" y1="1.619" x2="0.288" y2="1.492" width="0.127" layer="51"/>
<wire x1="0.637" y1="-2.032" x2="0.637" y2="-1.27" width="0.127" layer="51"/>
<wire x1="0.637" y1="-1.27" x2="0.637" y2="-0.508" width="0.127" layer="51"/>
<wire x1="-1.268" y1="-1.27" x2="-0.633" y2="-1.27" width="0.127" layer="51"/>
<wire x1="-0.633" y1="-1.27" x2="-0.633" y2="-2.032" width="0.127" layer="51"/>
<wire x1="2.544" y1="-1.431" x2="2.544" y2="1.431" width="0.127" layer="21" curve="-301.284493"/>
<wire x1="2.544" y1="1.431" x2="2.544" y2="-1.431" width="0.127" layer="21"/>
<circle x="-1.272" y="0" radius="0.477" width="0.127" layer="102"/>
<circle x="1.272" y="0" radius="0.477" width="0.127" layer="102"/>
<circle x="0" y="0" radius="2.5489" width="0.127" layer="51"/>
<pad name="K" x="1.27" y="0" drill="0.8128" diameter="1.778" shape="square"/>
<pad name="A" x="-1.27" y="0" drill="0.8128" diameter="1.778"/>
<text x="3.975" y="-2.703" size="1.27" layer="25" font="vector" rot="R90">&gt;Name</text>
<text x="5.7235" y="-2.7035" size="1.27" layer="27" font="vector" rot="R90">&gt;Value</text>
<text x="-0.477" y="-2.385" size="0.254" layer="100" font="vector">PaJa</text>
</package>
<package name="LED_5X5">
<description>&lt;B&gt;LED dioda&lt;/B&gt; - ctverec - 5mm x 5mm</description>
<wire x1="-1.27" y1="0.031" x2="-1.27" y2="-0.9515" width="0.127" layer="51"/>
<wire x1="1.27" y1="-0.9515" x2="1.27" y2="0.031" width="0.127" layer="51"/>
<wire x1="-0.635" y1="-0.1895" x2="-0.635" y2="-0.9515" width="0.127" layer="51"/>
<wire x1="-0.635" y1="-1.7135" x2="0.635" y2="-0.9515" width="0.127" layer="51"/>
<wire x1="0.635" y1="-0.9515" x2="1.27" y2="-0.9515" width="0.127" layer="51"/>
<wire x1="0.635" y1="-0.9515" x2="-0.635" y2="-0.1895" width="0.127" layer="51"/>
<wire x1="-0.349" y1="0.3485" x2="0.413" y2="1.1105" width="0.127" layer="51"/>
<wire x1="0.286" y1="-0.0325" x2="1.048" y2="0.7295" width="0.127" layer="51"/>
<wire x1="0.032" y1="0.9835" x2="0.286" y2="0.7295" width="0.127" layer="51"/>
<wire x1="0.286" y1="0.7295" x2="0.413" y2="1.1105" width="0.127" layer="51"/>
<wire x1="0.413" y1="1.1105" x2="0.032" y2="0.9835" width="0.127" layer="51"/>
<wire x1="1.048" y1="0.7295" x2="0.667" y2="0.6025" width="0.127" layer="51"/>
<wire x1="0.667" y1="0.6025" x2="0.921" y2="0.3485" width="0.127" layer="51"/>
<wire x1="0.921" y1="0.3485" x2="1.048" y2="0.7295" width="0.127" layer="51"/>
<wire x1="0.794" y1="0.6025" x2="0.921" y2="0.4755" width="0.127" layer="51"/>
<wire x1="0.159" y1="0.9835" x2="0.286" y2="0.8565" width="0.127" layer="51"/>
<wire x1="0.635" y1="-1.7135" x2="0.635" y2="-0.9515" width="0.127" layer="51"/>
<wire x1="0.635" y1="-0.9515" x2="0.635" y2="-0.1895" width="0.127" layer="51"/>
<wire x1="-1.27" y1="-0.9515" x2="-0.635" y2="-0.9515" width="0.127" layer="51"/>
<wire x1="-0.635" y1="-0.9515" x2="-0.635" y2="-1.7135" width="0.127" layer="51"/>
<wire x1="2.5399" y1="-2.54" x2="-2.54" y2="-2.54" width="0.127" layer="21"/>
<wire x1="2.5399" y1="2.54" x2="2.5399" y2="-2.54" width="0.127" layer="21"/>
<wire x1="2.5399" y1="2.54" x2="-2.54" y2="2.54" width="0.127" layer="21"/>
<wire x1="-2.54" y1="2.54" x2="-2.54" y2="-2.54" width="0.127" layer="21"/>
<circle x="-1.274" y="0" radius="0.477" width="0.127" layer="102"/>
<circle x="1.27" y="0" radius="0.477" width="0.127" layer="102"/>
<pad name="K" x="1.27" y="0" drill="0.8128" diameter="1.9304" shape="square"/>
<pad name="A" x="-1.27" y="0" drill="0.8128" diameter="1.9304"/>
<text x="-2.228" y="1.2722" size="1.016" layer="25" font="vector">&gt;Name</text>
<text x="-2.387" y="-3.655" size="1.016" layer="27" font="vector">&gt;Value</text>
<text x="1.27" y="-2.3795" size="0.254" layer="100" font="vector">PaJa</text>
</package>
<package name="LED_8">
<description>&lt;B&gt;LED dioda&lt;/B&gt; - 8mm prumer</description>
<wire x1="-1.268" y1="-0.446" x2="-1.268" y2="-1.27" width="0.127" layer="51"/>
<wire x1="1.272" y1="-1.27" x2="1.272" y2="-0.446" width="0.127" layer="51"/>
<wire x1="-0.633" y1="-2.667" x2="0.637" y2="-1.905" width="0.127" layer="21"/>
<wire x1="0.637" y1="-1.905" x2="1.27" y2="-1.905" width="0.127" layer="21"/>
<wire x1="1.27" y1="-1.905" x2="1.27" y2="-1.27" width="0.127" layer="21"/>
<wire x1="1.27" y1="-1.27" x2="1.272" y2="-1.27" width="0.127" layer="21"/>
<wire x1="0.637" y1="-1.905" x2="-0.633" y2="-1.143" width="0.127" layer="21"/>
<wire x1="-0.347" y1="-3.0478" x2="0.415" y2="-3.8098" width="0.127" layer="21"/>
<wire x1="0.288" y1="-2.6668" x2="1.05" y2="-3.4288" width="0.127" layer="21"/>
<wire x1="0.034" y1="-3.6828" x2="0.288" y2="-3.4288" width="0.127" layer="21"/>
<wire x1="0.288" y1="-3.4288" x2="0.415" y2="-3.8098" width="0.127" layer="21"/>
<wire x1="0.415" y1="-3.8098" x2="0.034" y2="-3.6828" width="0.127" layer="21"/>
<wire x1="1.05" y1="-3.4288" x2="0.669" y2="-3.3018" width="0.127" layer="21"/>
<wire x1="0.669" y1="-3.3018" x2="0.923" y2="-3.0478" width="0.127" layer="21"/>
<wire x1="0.923" y1="-3.0478" x2="1.05" y2="-3.4288" width="0.127" layer="21"/>
<wire x1="0.796" y1="-3.3018" x2="0.923" y2="-3.1748" width="0.127" layer="22"/>
<wire x1="0.161" y1="-3.6828" x2="0.288" y2="-3.5558" width="0.127" layer="21"/>
<wire x1="0.637" y1="-2.667" x2="0.637" y2="-1.905" width="0.127" layer="21"/>
<wire x1="0.637" y1="-1.905" x2="0.637" y2="-1.143" width="0.127" layer="21"/>
<wire x1="-1.268" y1="-1.27" x2="-1.27" y2="-1.27" width="0.127" layer="21"/>
<wire x1="-1.27" y1="-1.27" x2="-1.27" y2="-1.905" width="0.127" layer="21"/>
<wire x1="-1.27" y1="-1.905" x2="-0.633" y2="-1.905" width="0.127" layer="21"/>
<wire x1="-0.633" y1="-1.143" x2="-0.633" y2="-2.667" width="0.127" layer="21"/>
<wire x1="3.81" y1="-2.2225" x2="3.81" y2="2.2225" width="0.127" layer="21"/>
<wire x1="3.81" y1="-2.2225" x2="3.81" y2="2.2225" width="0.127" layer="21" curve="-299.487126"/>
<circle x="-1.272" y="0" radius="0.477" width="0.127" layer="102"/>
<circle x="1.272" y="0" radius="0.477" width="0.127" layer="102"/>
<circle x="0" y="0" radius="3.81" width="0.127" layer="51"/>
<pad name="K" x="1.27" y="0" drill="0.8128" diameter="1.9304" shape="square"/>
<pad name="A" x="-1.27" y="0" drill="0.8128" diameter="1.9304"/>
<text x="-2.2268" y="1.4225" size="1.27" layer="25" font="vector">&gt;Name</text>
<text x="5.2472" y="-2.386" size="1.27" layer="27" font="vector" rot="R90">&gt;Value</text>
<text x="3.02" y="-0.477" size="0.254" layer="100" font="vector" rot="R90">PaJa</text>
</package>
<package name="LED_TROJ">
<description>&lt;B&gt;LED dioda&lt;/B&gt; - trojuhelnik</description>
<wire x1="-0.637" y1="-0.764" x2="-0.637" y2="-0.002" width="0.127" layer="21"/>
<wire x1="-1.907" y1="-0.002" x2="-2.542" y2="-0.002" width="0.127" layer="21"/>
<wire x1="-0.822" y1="1.143" x2="-0.06" y2="1.905" width="0.127" layer="21"/>
<wire x1="-0.187" y1="0.762" x2="0.575" y2="1.524" width="0.127" layer="21"/>
<wire x1="-0.441" y1="1.778" x2="-0.187" y2="1.524" width="0.127" layer="21"/>
<wire x1="-0.187" y1="1.524" x2="-0.06" y2="1.905" width="0.127" layer="21"/>
<wire x1="-0.06" y1="1.905" x2="-0.441" y2="1.778" width="0.127" layer="21"/>
<wire x1="0.575" y1="1.524" x2="0.194" y2="1.397" width="0.127" layer="21"/>
<wire x1="0.194" y1="1.397" x2="0.448" y2="1.143" width="0.127" layer="21"/>
<wire x1="0.448" y1="1.143" x2="0.575" y2="1.524" width="0.127" layer="21"/>
<wire x1="0.321" y1="1.397" x2="0.448" y2="1.27" width="0.127" layer="21"/>
<wire x1="-0.314" y1="1.778" x2="-0.187" y2="1.651" width="0.127" layer="21"/>
<wire x1="-1.907" y1="0.76" x2="-1.907" y2="-0.002" width="0.127" layer="21"/>
<wire x1="-1.907" y1="-0.002" x2="-1.907" y2="-0.764" width="0.127" layer="21"/>
<wire x1="-0.002" y1="-0.002" x2="-0.637" y2="-0.002" width="0.127" layer="21"/>
<wire x1="-0.637" y1="-0.002" x2="-0.637" y2="0.76" width="0.127" layer="21"/>
<wire x1="-1.903" y1="-0.76" x2="-0.633" y2="0.002" width="0.127" layer="21"/>
<wire x1="-0.633" y1="0.002" x2="-1.903" y2="0.764" width="0.127" layer="21"/>
<wire x1="0.9525" y1="-2.6988" x2="0.9525" y2="2.6988" width="0.127" layer="21"/>
<wire x1="0.9525" y1="2.6988" x2="-3.81" y2="0" width="0.127" layer="21"/>
<wire x1="-3.81" y1="0" x2="0.9525" y2="-2.6988" width="0.127" layer="21"/>
<circle x="0.002" y="0" radius="0.477" width="0.127" layer="102"/>
<circle x="-2.542" y="0" radius="0.477" width="0.127" layer="102"/>
<pad name="K" x="0" y="0" drill="0.8128" diameter="1.9304" shape="square" rot="R180"/>
<pad name="A" x="-2.54" y="0" drill="0.8128" diameter="1.9304" rot="R180"/>
<text x="1.2737" y="2.226" size="1.016" layer="25" font="vector" rot="R270">&gt;Name</text>
<text x="2.3868" y="2.544" size="1.016" layer="27" font="vector" rot="R270">&gt;Value</text>
<text x="0.7964" y="-1.113" size="0.254" layer="100" font="vector" rot="R180">PaJa</text>
</package>
<package name="LED2,5X5">
<description>&lt;B&gt;LED dioda&lt;/B&gt; - obdelnik - 5mm x 2,5mm</description>
<wire x1="0.639" y1="0.287" x2="0.639" y2="-0.475" width="0.127" layer="21"/>
<wire x1="0.639" y1="-1.237" x2="1.909" y2="-0.475" width="0.127" layer="21"/>
<wire x1="1.909" y1="-0.475" x2="2.544" y2="-0.475" width="0.127" layer="21"/>
<wire x1="1.909" y1="-0.475" x2="0.639" y2="0.287" width="0.127" layer="21"/>
<wire x1="1.561" y1="0.348" x2="2.323" y2="1.11" width="0.127" layer="21"/>
<wire x1="2.196" y1="-0.033" x2="2.958" y2="0.729" width="0.127" layer="21"/>
<wire x1="1.942" y1="0.983" x2="2.196" y2="0.729" width="0.127" layer="21"/>
<wire x1="2.196" y1="0.729" x2="2.323" y2="1.11" width="0.127" layer="21"/>
<wire x1="2.323" y1="1.11" x2="1.942" y2="0.983" width="0.127" layer="21"/>
<wire x1="2.958" y1="0.729" x2="2.577" y2="0.602" width="0.127" layer="21"/>
<wire x1="2.577" y1="0.602" x2="2.831" y2="0.348" width="0.127" layer="21"/>
<wire x1="2.831" y1="0.348" x2="2.958" y2="0.729" width="0.127" layer="21"/>
<wire x1="2.704" y1="0.602" x2="2.831" y2="0.475" width="0.127" layer="21"/>
<wire x1="2.069" y1="0.983" x2="2.196" y2="0.856" width="0.127" layer="21"/>
<wire x1="1.909" y1="-1.237" x2="1.909" y2="-0.475" width="0.127" layer="21"/>
<wire x1="1.909" y1="-0.475" x2="1.909" y2="0.287" width="0.127" layer="21"/>
<wire x1="0.004" y1="0.002" x2="0" y2="0.002" width="0.127" layer="21"/>
<wire x1="0" y1="0.002" x2="0" y2="-0.477" width="0.127" layer="21"/>
<wire x1="0" y1="-0.477" x2="0.639" y2="-0.475" width="0.127" layer="21"/>
<wire x1="0.639" y1="-0.475" x2="0.639" y2="-1.237" width="0.127" layer="21"/>
<wire x1="2.544" y1="-0.477" x2="2.544" y2="0" width="0.127" layer="21"/>
<wire x1="-1.27" y1="-1.27" x2="-1.27" y2="1.27" width="0.127" layer="21"/>
<wire x1="-1.27" y1="1.27" x2="3.81" y2="1.27" width="0.127" layer="21"/>
<wire x1="3.81" y1="1.27" x2="3.81" y2="-1.27" width="0.127" layer="21"/>
<wire x1="3.81" y1="-1.27" x2="-1.27" y2="-1.27" width="0.127" layer="21"/>
<circle x="0" y="0" radius="0.477" width="0.127" layer="102"/>
<circle x="2.544" y="0" radius="0.477" width="0.127" layer="102"/>
<pad name="K" x="2.54" y="0" drill="0.8128" diameter="1.9304" shape="square"/>
<pad name="A" x="0" y="0" drill="0.8128" diameter="1.9304"/>
<text x="-1.113" y="1.431" size="1.016" layer="25">&gt;Name</text>
<text x="-1.431" y="-2.385" size="1.016" layer="27">&gt;Value</text>
<text x="1.431" y="0.159" size="0.254" layer="100" rot="R90">PaJa</text>
</package>
<package name="P1206">
<wire x1="-1.7463" y1="0.7938" x2="-1.7463" y2="0.3176" width="0.127" layer="51"/>
<wire x1="0.7937" y1="-0.7937" x2="1.4287" y2="-0.7937" width="0.127" layer="51"/>
<wire x1="1.4287" y1="0.7938" x2="0.7938" y2="0.7938" width="0.127" layer="51"/>
<wire x1="0.7938" y1="0.7938" x2="0.7937" y2="0.7938" width="0.127" layer="51"/>
<wire x1="0.7937" y1="0.7938" x2="-1.1113" y2="0.7938" width="0.127" layer="21"/>
<wire x1="-1.1113" y1="0.7938" x2="-1.7463" y2="0.7938" width="0.127" layer="51"/>
<wire x1="-1.1113" y1="0.7938" x2="-1.1113" y2="-0.7937" width="0.127" layer="21"/>
<wire x1="1.4288" y1="0.3175" x2="1.4288" y2="-0.3175" width="0.127" layer="51" curve="180"/>
<wire x1="-1.7462" y1="0.3175" x2="-1.7462" y2="-0.3175" width="0.127" layer="51" curve="-180" cap="flat"/>
<wire x1="-1.7462" y1="-0.3175" x2="-1.7462" y2="-0.7938" width="0.127" layer="51"/>
<wire x1="-1.1112" y1="-0.7938" x2="-1.7462" y2="-0.7938" width="0.127" layer="51"/>
<wire x1="1.4288" y1="0.7937" x2="1.4288" y2="0.3175" width="0.127" layer="51"/>
<wire x1="1.4288" y1="-0.3175" x2="1.4288" y2="-0.7938" width="0.127" layer="51"/>
<wire x1="0.1588" y1="-0.4763" x2="0.1588" y2="0" width="0.127" layer="21"/>
<wire x1="0.1588" y1="0" x2="0.1588" y2="0.4763" width="0.127" layer="21"/>
<wire x1="0.1588" y1="0" x2="-0.4763" y2="-0.4763" width="0.127" layer="21"/>
<wire x1="-0.4763" y1="-0.4763" x2="-0.4761" y2="0" width="0.127" layer="21"/>
<wire x1="-0.4761" y1="0" x2="-0.4763" y2="0.4762" width="0.127" layer="21"/>
<wire x1="-0.4763" y1="0.4762" x2="0.1588" y2="0" width="0.127" layer="21"/>
<wire x1="0.1588" y1="0" x2="0.4763" y2="0" width="0.127" layer="21"/>
<wire x1="-0.4761" y1="0" x2="-0.7937" y2="0" width="0.127" layer="21"/>
<wire x1="-1.7463" y1="-0.3175" x2="-1.7463" y2="0.3175" width="0.127" layer="51" curve="180" cap="flat"/>
<wire x1="0.7938" y1="0.7938" x2="1.4288" y2="0.7938" width="0.127" layer="51"/>
<wire x1="1.4288" y1="-0.3175" x2="1.4288" y2="0.3175" width="0.127" layer="51" curve="-180" cap="flat"/>
<wire x1="0.7938" y1="0.7938" x2="0.7938" y2="0.3175" width="0.127" layer="51"/>
<wire x1="0.7937" y1="0.7938" x2="0.7937" y2="-0.7937" width="0.127" layer="21"/>
<wire x1="0.7937" y1="-0.7937" x2="-1.1113" y2="-0.7937" width="0.127" layer="21"/>
<circle x="1.0319" y="0.5556" radius="0.2024" width="0.127" layer="51"/>
<smd name="K" x="1.5875" y="0" dx="0.9144" dy="1.778" layer="1" rot="R180"/>
<smd name="A" x="-1.9051" y="0.0001" dx="0.9144" dy="1.778" layer="1" rot="R180"/>
<text x="-0.9922" y="0.4762" size="0.254" layer="100" font="vector" rot="R270">PaJa</text>
<text x="1.1113" y="-1.1113" size="1.016" layer="25" font="vector" rot="R180">&gt;Name</text>
<text x="1.1113" y="2.0638" size="1.016" layer="27" font="vector" rot="R180">&gt;Value</text>
<rectangle x1="-0.3174" y1="-0.1588" x2="0" y2="0.1588" layer="51" rot="R180"/>
<polygon width="0.127" layer="51">
<vertex x="-1.7463" y="-0.3175"/>
<vertex x="-1.7463" y="-0.7938"/>
<vertex x="-1.1113" y="-0.7938"/>
<vertex x="-1.1113" y="0.7938"/>
<vertex x="-1.7463" y="0.7938"/>
<vertex x="-1.7463" y="0.3175"/>
<vertex x="-1.5875" y="0.3175"/>
<vertex x="-1.4288" y="0.1588"/>
<vertex x="-1.4288" y="-0.1588"/>
<vertex x="-1.5875" y="-0.3175"/>
</polygon>
<polygon width="0.127" layer="51">
<vertex x="1.4288" y="0.7938"/>
<vertex x="1.4288" y="0.3174"/>
<vertex x="1.4288" y="0.3175"/>
<vertex x="1.27" y="0.3175"/>
<vertex x="1.1113" y="0.1588"/>
<vertex x="1.1113" y="-0.1588"/>
<vertex x="1.27" y="-0.3175"/>
<vertex x="1.4288" y="-0.3175"/>
<vertex x="1.4288" y="-0.7938"/>
<vertex x="0.7938" y="-0.7938"/>
<vertex x="0.7938" y="-0.635"/>
<vertex x="0.7937" y="-0.635"/>
<vertex x="0.7937" y="0.3175"/>
<vertex x="1.27" y="0.3175"/>
<vertex x="1.27" y="0.7938"/>
</polygon>
</package>
<package name="DO41">
<description>&lt;B&gt;Dioda&lt;/B&gt; - roztec nozek 10 mm</description>
<wire x1="-3.0163" y1="1.5875" x2="3.0163" y2="1.5875" width="0.127" layer="21"/>
<wire x1="3.0163" y1="1.5875" x2="3.0163" y2="-1.5875" width="0.127" layer="21"/>
<wire x1="3.0163" y1="-1.5875" x2="-3.0163" y2="-1.5875" width="0.127" layer="21"/>
<wire x1="-3.0163" y1="-1.5875" x2="-3.0163" y2="1.5875" width="0.127" layer="21"/>
<circle x="-5.08" y="0" radius="0.5724" width="0.127" layer="102"/>
<circle x="5.08" y="0" radius="0.5724" width="0.127" layer="102"/>
<pad name="K" x="5.08" y="0" drill="1.016" diameter="2.1844" shape="square"/>
<pad name="A" x="-5.08" y="0" drill="1.016" diameter="2.1844"/>
<text x="-2.8655" y="0.14" size="1.27" layer="25" font="vector">&gt;NAME</text>
<text x="-2.8655" y="-1.315" size="1.27" layer="27" font="vector">&gt;VALUE</text>
<text x="-3.169" y="0.4765" size="0.254" layer="100" font="vector" rot="R90">PaJa</text>
<rectangle x1="1.842" y1="-1.524" x2="2.604" y2="1.524" layer="21"/>
<rectangle x1="3.0163" y1="-0.3175" x2="3.81" y2="0.3175" layer="21"/>
<rectangle x1="-3.81" y1="-0.3175" x2="-3.0163" y2="0.3175" layer="21"/>
<rectangle x1="-4.6038" y1="-0.3175" x2="-3.81" y2="0.3175" layer="51"/>
<rectangle x1="3.81" y1="-0.3175" x2="4.6038" y2="0.3175" layer="51"/>
</package>
<package name="SM-1">
<wire x1="-0.635" y1="0" x2="0.3175" y2="0.635" width="0.127" layer="21"/>
<wire x1="0.3175" y1="0.635" x2="0.3175" y2="-0.635" width="0.127" layer="21"/>
<wire x1="0.3175" y1="-0.635" x2="-0.635" y2="0" width="0.127" layer="21"/>
<wire x1="-1.905" y1="1.27" x2="-1.905" y2="-1.27" width="0.127" layer="21"/>
<wire x1="-1.905" y1="-1.27" x2="1.905" y2="-1.27" width="0.127" layer="21"/>
<wire x1="1.905" y1="-1.27" x2="1.905" y2="1.27" width="0.127" layer="21"/>
<wire x1="1.905" y1="1.27" x2="-1.905" y2="1.27" width="0.127" layer="21"/>
<smd name="K" x="-2.8575" y="0" dx="2.54" dy="1.27" layer="1" rot="R90"/>
<smd name="A" x="2.8575" y="0" dx="2.54" dy="1.27" layer="1" rot="R90"/>
<text x="-1.3494" y="-0.4763" size="0.254" layer="100" font="vector" rot="R90">PaJa</text>
<text x="-2.0638" y="-2.5401" size="1.016" layer="27" font="vector">&gt;Value</text>
<text x="1.5875" y="-0.9525" size="1.016" layer="25" font="vector" rot="R90">&gt;Name</text>
<rectangle x1="-2.54" y1="-1.27" x2="-1.905" y2="1.27" layer="51"/>
<rectangle x1="1.905" y1="-1.27" x2="2.54" y2="1.27" layer="51"/>
<rectangle x1="-1.27" y1="-1.27" x2="-0.635" y2="1.27" layer="21"/>
</package>
<package name="TO-92">
<wire x1="-1.5875" y1="1.905" x2="-1.5875" y2="-1.905" width="0.127" layer="21"/>
<wire x1="-1.1113" y1="2.2225" x2="1.1113" y2="2.2225" width="0.127" layer="51" curve="-53.132165"/>
<wire x1="2.2225" y1="1.1113" x2="2.2225" y2="-1.1113" width="0.127" layer="51" curve="-53.132165"/>
<wire x1="1.1113" y1="-2.2225" x2="-1.1113" y2="-2.2225" width="0.127" layer="51" curve="-53.132165"/>
<wire x1="-1.5875" y1="1.905" x2="-1.1113" y2="2.2225" width="0.127" layer="21" curve="-13.162519"/>
<wire x1="-1.5875" y1="-1.905" x2="-1.1113" y2="-2.2225" width="0.127" layer="21" curve="13.162519"/>
<wire x1="1.1113" y1="-2.2225" x2="2.2225" y2="-1.1113" width="0.127" layer="21" curve="36.867835"/>
<wire x1="2.2225" y1="1.1113" x2="1.1113" y2="2.2225" width="0.127" layer="21" curve="36.867835"/>
<circle x="2.544" y="0" radius="0.477" width="0.127" layer="102"/>
<circle x="0" y="2.544" radius="0.477" width="0.127" layer="102"/>
<circle x="0" y="-2.544" radius="0.477" width="0.127" layer="102"/>
<pad name="3" x="0" y="-2.54" drill="0.8128" diameter="1.9304" shape="octagon"/>
<pad name="2" x="2.54" y="0" drill="0.8128" diameter="1.9304" shape="octagon"/>
<pad name="1" x="0" y="2.54" drill="0.8128" diameter="1.9304" shape="octagon"/>
<text x="0.1017" y="-1.2159" size="1.27" layer="25" font="vector" rot="R90">&gt;Name</text>
<text x="-1.6917" y="-2.8625" size="1.27" layer="27" font="vector" rot="R90">&gt;Value</text>
<text x="1.5895" y="-0.477" size="0.254" layer="100" font="vector" rot="R90">PaJa</text>
</package>
<package name="C-EL_2">
<wire x1="-0.1378" y1="-1.02" x2="-0.1378" y2="-1.782" width="0.127" layer="21"/>
<wire x1="-0.5188" y1="-1.401" x2="0.2432" y2="-1.401" width="0.127" layer="21"/>
<wire x1="0.4762" y1="-1.524" x2="0.9842" y2="-1.524" width="0.127" layer="21"/>
<wire x1="0.9842" y1="-1.524" x2="0.9842" y2="1.524" width="0.127" layer="21"/>
<wire x1="0.9842" y1="1.524" x2="0.4762" y2="1.524" width="0.127" layer="21"/>
<wire x1="0.4762" y1="1.524" x2="0.4762" y2="-1.524" width="0.127" layer="21"/>
<wire x1="1.4112" y1="1.5" x2="1.7862" y2="1.5" width="0.127" layer="21"/>
<wire x1="1.7862" y1="1.5" x2="1.7862" y2="-1.5" width="0.127" layer="21"/>
<wire x1="1.7862" y1="-1.5" x2="1.4112" y2="-1.5" width="0.127" layer="21"/>
<wire x1="1.4112" y1="-1.5" x2="1.4112" y2="1.5" width="0.127" layer="21"/>
<wire x1="1.5762" y1="0" x2="2.1962" y2="0" width="0.127" layer="21"/>
<wire x1="0.0262" y1="0" x2="0.2712" y2="0" width="0.127" layer="21"/>
<wire x1="0.2712" y1="0" x2="0.3362" y2="0" width="0.127" layer="21"/>
<wire x1="0.2712" y1="0" x2="0.439" y2="0" width="0.127" layer="21"/>
<circle x="1.1112" y="0" radius="2.4848" width="0.127" layer="21"/>
<circle x="-0.0018" y="0" radius="0.477" width="0.127" layer="102"/>
<circle x="2.2242" y="0" radius="0.477" width="0.127" layer="102"/>
<pad name="C+" x="0" y="0" drill="0.8128" diameter="1.27" shape="long" rot="R90"/>
<pad name="C-" x="2.2225" y="0" drill="0.8128" diameter="1.27" shape="long" rot="R90"/>
<text x="-1.2738" y="2.544" size="1.27" layer="25" font="vector">&gt;Name</text>
<text x="-1.5918" y="-3.816" size="1.27" layer="27" font="vector">&gt;Value</text>
<text x="0.6342" y="1.908" size="0.254" layer="100" font="vector">PaJa</text>
<rectangle x1="1.4112" y1="-1.5" x2="1.7862" y2="1.425" layer="21"/>
</package>
<package name="C-EL_2,5">
<wire x1="-0.635" y1="-1.524" x2="-0.127" y2="-1.524" width="0.127" layer="21"/>
<wire x1="-0.127" y1="-1.524" x2="-0.127" y2="1.524" width="0.127" layer="21"/>
<wire x1="-0.127" y1="1.524" x2="-0.635" y2="1.524" width="0.127" layer="21"/>
<wire x1="-1.868" y1="-0.861" x2="-1.868" y2="-1.623" width="0.127" layer="21"/>
<wire x1="-2.249" y1="-1.242" x2="-1.487" y2="-1.242" width="0.127" layer="21"/>
<wire x1="-0.635" y1="1.524" x2="-0.635" y2="-1.524" width="0.127" layer="21"/>
<wire x1="0.3" y1="1.5" x2="0.675" y2="1.5" width="0.127" layer="21"/>
<wire x1="0.675" y1="1.5" x2="0.675" y2="-1.5" width="0.127" layer="21"/>
<wire x1="0.675" y1="-1.5" x2="0.3" y2="-1.5" width="0.127" layer="21"/>
<wire x1="0.3" y1="-1.5" x2="0.3" y2="1.5" width="0.127" layer="21"/>
<wire x1="0.62" y1="0" x2="1.24" y2="0" width="0.127" layer="21"/>
<wire x1="-1.24" y1="0" x2="-0.8146" y2="0" width="0.127" layer="21"/>
<wire x1="-0.8146" y1="0" x2="-0.775" y2="0" width="0.127" layer="21"/>
<wire x1="-0.8146" y1="0" x2="-0.6758" y2="0" width="0.127" layer="21"/>
<circle x="0" y="0" radius="3.255" width="0.127" layer="21"/>
<circle x="-1.272" y="0" radius="0.477" width="0.127" layer="102"/>
<circle x="1.272" y="0" radius="0.477" width="0.127" layer="102"/>
<pad name="C+" x="-1.27" y="0" drill="0.8128" diameter="1.27" shape="long" rot="R90"/>
<pad name="C-" x="1.27" y="0" drill="0.8128" diameter="1.27" shape="long" rot="R90"/>
<text x="-1.431" y="1.59" size="1.27" layer="25" font="vector">&gt;Name</text>
<text x="-1.272" y="-2.862" size="1.27" layer="27" font="vector">&gt;Value</text>
<text x="-0.2447" y="-0.4478" size="0.254" layer="100" font="vector" rot="R90">PaJa</text>
<rectangle x1="0.3" y1="-1.5" x2="0.675" y2="1.425" layer="21"/>
</package>
<package name="C-EL_3,5">
<wire x1="1.1113" y1="-1.524" x2="1.6193" y2="-1.524" width="0.127" layer="21"/>
<wire x1="1.6193" y1="-1.524" x2="1.6193" y2="1.524" width="0.127" layer="21"/>
<wire x1="1.6193" y1="1.524" x2="1.1113" y2="1.524" width="0.127" layer="21"/>
<wire x1="0.1838" y1="-1.1705" x2="0.1838" y2="-1.9325" width="0.127" layer="21"/>
<wire x1="-0.1972" y1="-1.5515" x2="0.5648" y2="-1.5515" width="0.127" layer="21"/>
<wire x1="1.1113" y1="1.524" x2="1.1113" y2="-1.524" width="0.127" layer="21"/>
<wire x1="2.0463" y1="1.5" x2="2.4213" y2="1.5" width="0.127" layer="21"/>
<wire x1="2.4213" y1="1.5" x2="2.4213" y2="-1.5" width="0.127" layer="21"/>
<wire x1="2.4213" y1="-1.5" x2="2.0463" y2="-1.5" width="0.127" layer="21"/>
<wire x1="2.0463" y1="-1.5" x2="2.0463" y2="1.5" width="0.127" layer="21"/>
<wire x1="2.3623" y1="0" x2="2.9783" y2="0" width="0.127" layer="51"/>
<wire x1="0.4747" y1="0" x2="0.9713" y2="0" width="0.127" layer="21"/>
<wire x1="0.5063" y1="0" x2="1.0705" y2="0" width="0.127" layer="51"/>
<circle x="1.7463" y="0.155" radius="4.03" width="0.127" layer="21"/>
<circle x="-0.0027" y="0" radius="0.477" width="0.127" layer="102"/>
<circle x="3.4953" y="0" radius="0.477" width="0.127" layer="102"/>
<pad name="C+" x="0" y="0" drill="0.8128" diameter="1.9304"/>
<pad name="C-" x="3.4925" y="0" drill="0.8128" diameter="1.9304" shape="square"/>
<text x="-0.6476" y="-2.9909" size="1.27" layer="27" font="vector">&gt;VALUE</text>
<text x="4.7965" y="3.0261" size="1.27" layer="25" font="vector" rot="R180">&gt;NAME</text>
<text x="2.7003" y="1.113" size="0.254" layer="100" font="vector">PaJa</text>
<rectangle x1="2.0463" y1="-1.5" x2="2.4213" y2="1.425" layer="21"/>
</package>
<package name="C-EL_5">
<wire x1="-0.762" y1="-1.524" x2="-0.254" y2="-1.524" width="0.127" layer="21"/>
<wire x1="-0.254" y1="-1.524" x2="-0.254" y2="1.524" width="0.127" layer="21"/>
<wire x1="-0.254" y1="1.524" x2="-0.762" y2="1.524" width="0.127" layer="21"/>
<wire x1="-0.762" y1="1.524" x2="-0.762" y2="0" width="0.127" layer="21"/>
<wire x1="0.635" y1="0" x2="1.2065" y2="0" width="0.127" layer="21"/>
<wire x1="-0.762" y1="0" x2="-1.236" y2="0" width="0.127" layer="21"/>
<wire x1="-0.762" y1="0" x2="-0.762" y2="-1.524" width="0.127" layer="21"/>
<wire x1="-2.003" y1="0" x2="-1.236" y2="0" width="0.127" layer="51"/>
<wire x1="1.2325" y1="0" x2="2.003" y2="0" width="0.127" layer="51"/>
<wire x1="-1.905" y1="-1.27" x2="-1.27" y2="-1.27" width="0.127" layer="21"/>
<wire x1="-1.5875" y1="-0.9525" x2="-1.5875" y2="-1.5875" width="0.127" layer="21"/>
<circle x="0" y="0" radius="5.1308" width="0.127" layer="21"/>
<circle x="-2.54" y="0" radius="0.4763" width="0.127" layer="102"/>
<circle x="2.54" y="0" radius="0.4762" width="0.127" layer="102"/>
<pad name="C-" x="2.54" y="0" drill="0.8128" diameter="2.1844" shape="square"/>
<pad name="C+" x="-2.54" y="0" drill="0.8128" diameter="2.1844"/>
<text x="1.272" y="0.318" size="0.254" layer="100" font="vector" rot="R90">PaJa</text>
<text x="-3.017" y="1.758" size="1.4224" layer="25" font="vector">&gt;Name</text>
<text x="-3.663" y="-3.186" size="1.4224" layer="27" font="vector">&gt;Value</text>
<rectangle x1="0.254" y1="-1.524" x2="0.762" y2="1.524" layer="21"/>
</package>
<package name="C-EL_5+">
<wire x1="-0.762" y1="-1.524" x2="-0.254" y2="-1.524" width="0.127" layer="21"/>
<wire x1="-0.254" y1="-1.524" x2="-0.254" y2="1.524" width="0.127" layer="21"/>
<wire x1="-0.254" y1="1.524" x2="-0.762" y2="1.524" width="0.127" layer="21"/>
<wire x1="-0.762" y1="1.524" x2="-0.762" y2="0" width="0.127" layer="21"/>
<wire x1="0.635" y1="0" x2="1.0478" y2="0" width="0.127" layer="21"/>
<wire x1="-0.762" y1="0" x2="-1.0478" y2="0" width="0.127" layer="21"/>
<wire x1="-0.762" y1="0" x2="-0.762" y2="-1.524" width="0.127" layer="21"/>
<wire x1="-2.003" y1="0" x2="-1.0775" y2="0" width="0.127" layer="51"/>
<wire x1="1.0738" y1="0" x2="2.003" y2="0" width="0.127" layer="51"/>
<wire x1="-2.019" y1="-1.5655" x2="-1.081" y2="-1.5655" width="0.127" layer="21"/>
<wire x1="-1.55" y1="-1.0965" x2="-1.55" y2="-2.0345" width="0.127" layer="21"/>
<circle x="0" y="0" radius="6.519" width="0.127" layer="21"/>
<circle x="-2.544" y="0" radius="0.477" width="0.127" layer="102"/>
<circle x="2.544" y="0" radius="0.477" width="0.127" layer="102"/>
<pad name="C+" x="-2.54" y="0" drill="0.8128" diameter="2.54"/>
<pad name="C-" x="2.54" y="0" drill="0.8128" diameter="2.54" shape="square"/>
<text x="-4.299" y="-3.663" size="1.6764" layer="27" font="vector">&gt;VALUE</text>
<text x="-3.653" y="1.758" size="1.6764" layer="25" font="vector">&gt;NAME</text>
<text x="1.113" y="0.318" size="0.254" layer="100" font="vector" rot="R90">PaJa</text>
<rectangle x1="0.254" y1="-1.524" x2="0.762" y2="1.524" layer="21"/>
</package>
<package name="C-EL_7,5">
<wire x1="-0.762" y1="-1.524" x2="-0.254" y2="-1.524" width="0.127" layer="21"/>
<wire x1="-0.254" y1="-1.524" x2="-0.254" y2="1.524" width="0.127" layer="21"/>
<wire x1="-0.254" y1="1.524" x2="-0.762" y2="1.524" width="0.127" layer="21"/>
<wire x1="-0.762" y1="1.524" x2="-0.762" y2="0" width="0.127" layer="21"/>
<wire x1="0.635" y1="0" x2="2.343" y2="0" width="0.127" layer="21"/>
<wire x1="-0.762" y1="0" x2="-2.347" y2="0" width="0.127" layer="21"/>
<wire x1="-0.762" y1="0" x2="-0.762" y2="-1.524" width="0.127" layer="21"/>
<wire x1="-3.275" y1="0" x2="-2.347" y2="0" width="0.127" layer="51"/>
<wire x1="2.343" y1="0" x2="3.275" y2="0" width="0.127" layer="51"/>
<wire x1="-2.54" y1="-0.7938" x2="-2.54" y2="-1.7463" width="0.127" layer="21"/>
<wire x1="-3.0163" y1="-1.27" x2="-2.0638" y2="-1.27" width="0.127" layer="21"/>
<circle x="0" y="0" radius="8.1339" width="0.127" layer="21"/>
<circle x="-3.816" y="0" radius="0.5732" width="0.127" layer="102"/>
<circle x="3.816" y="0" radius="0.5732" width="0.127" layer="102"/>
<pad name="C-" x="3.81" y="0" drill="1.016" diameter="2.54" shape="square"/>
<pad name="C+" x="-3.81" y="0" drill="1.016" diameter="2.54"/>
<text x="-4.458" y="-3.981" size="1.778" layer="27" font="vector">&gt;VALUE</text>
<text x="-3.812" y="2.076" size="1.778" layer="25" font="vector">&gt;NAME</text>
<text x="1.113" y="0.159" size="0.254" layer="100" font="vector">PaJa</text>
<rectangle x1="0.254" y1="-1.524" x2="0.762" y2="1.524" layer="21"/>
</package>
<package name="C-EL7,5+">
<wire x1="-0.762" y1="-1.524" x2="-0.254" y2="-1.524" width="0.127" layer="21"/>
<wire x1="-0.254" y1="-1.524" x2="-0.254" y2="1.524" width="0.127" layer="21"/>
<wire x1="-0.254" y1="1.524" x2="-0.762" y2="1.524" width="0.127" layer="21"/>
<wire x1="-0.762" y1="1.524" x2="-0.762" y2="-1.524" width="0.127" layer="21"/>
<wire x1="-2.6558" y1="-1.089" x2="-1.7178" y2="-1.089" width="0.127" layer="21"/>
<wire x1="-2.1868" y1="-0.62" x2="-2.1868" y2="-1.558" width="0.127" layer="21"/>
<wire x1="-2.3813" y1="0" x2="-3.175" y2="0" width="0.127" layer="51"/>
<wire x1="2.3813" y1="0" x2="3.175" y2="0" width="0.127" layer="51"/>
<wire x1="-2.3813" y1="0" x2="-0.7938" y2="0" width="0.127" layer="21"/>
<wire x1="0.635" y1="0" x2="2.3813" y2="0" width="0.127" layer="21"/>
<circle x="0" y="0" radius="9.063" width="0.127" layer="21"/>
<circle x="-3.816" y="0" radius="0.5732" width="0.127" layer="102"/>
<circle x="3.816" y="0" radius="0.5732" width="0.127" layer="102"/>
<pad name="C-" x="3.81" y="0" drill="1.016" diameter="2.54" shape="square"/>
<pad name="C+" x="-3.81" y="0" drill="1.016" diameter="2.54"/>
<text x="-4.458" y="-3.981" size="1.778" layer="27" font="vector">&gt;VALUE</text>
<text x="-3.812" y="2.076" size="1.778" layer="25" font="vector">&gt;NAME</text>
<text x="1.113" y="0.159" size="0.254" layer="100" font="vector">PaJa</text>
<rectangle x1="0.254" y1="-1.524" x2="0.762" y2="1.524" layer="21"/>
</package>
<package name="C-EL_10">
<wire x1="-0.762" y1="-1.524" x2="-0.254" y2="-1.524" width="0.127" layer="21"/>
<wire x1="-0.254" y1="-1.524" x2="-0.254" y2="1.524" width="0.127" layer="21"/>
<wire x1="-0.254" y1="1.524" x2="-0.762" y2="1.524" width="0.127" layer="21"/>
<wire x1="-0.762" y1="1.524" x2="-0.762" y2="-1.524" width="0.127" layer="21"/>
<wire x1="0.635" y1="0" x2="3.3338" y2="0" width="0.127" layer="21"/>
<wire x1="-0.7938" y1="0" x2="-3.3338" y2="0" width="0.127" layer="21"/>
<wire x1="-3.3338" y1="-1.1113" x2="-2.0638" y2="-1.1113" width="0.127" layer="21"/>
<wire x1="-2.6988" y1="-0.4763" x2="-2.6988" y2="-1.7463" width="0.127" layer="21"/>
<wire x1="3.3338" y1="0" x2="4.2863" y2="0" width="0.127" layer="51"/>
<wire x1="-3.3338" y1="0" x2="-4.2863" y2="0" width="0.127" layer="51"/>
<circle x="0" y="0" radius="11.1125" width="0.127" layer="21"/>
<circle x="-5.08" y="0" radius="0.7099" width="0.127" layer="102"/>
<circle x="5.08" y="0" radius="0.7099" width="0.127" layer="102"/>
<pad name="C-" x="5.08" y="0" drill="1.27" diameter="3.2" shape="square"/>
<pad name="C+" x="-5.08" y="0" drill="1.27" diameter="3.2"/>
<text x="-5.728" y="-4.9335" size="2.1844" layer="27" font="vector">&gt;VALUE</text>
<text x="-4.7645" y="3.0285" size="2.1844" layer="25" font="vector">&gt;NAME</text>
<text x="1.113" y="0.159" size="0.254" layer="100" font="vector">PaJa</text>
<rectangle x1="0.254" y1="-1.524" x2="0.762" y2="1.524" layer="21"/>
</package>
<package name="C-EL_10+">
<wire x1="-0.762" y1="-1.524" x2="-0.254" y2="-1.524" width="0.127" layer="21"/>
<wire x1="-0.254" y1="-1.524" x2="-0.254" y2="1.524" width="0.127" layer="21"/>
<wire x1="-0.254" y1="1.524" x2="-0.762" y2="1.524" width="0.127" layer="21"/>
<wire x1="-0.762" y1="1.524" x2="-0.762" y2="-1.524" width="0.127" layer="21"/>
<wire x1="0.635" y1="0" x2="3.1751" y2="0" width="0.127" layer="21"/>
<wire x1="-0.7938" y1="0" x2="-3.175" y2="0" width="0.127" layer="21"/>
<wire x1="-3.3338" y1="-1.1113" x2="-2.0638" y2="-1.1113" width="0.127" layer="21"/>
<wire x1="-2.6988" y1="-0.4763" x2="-2.6988" y2="-1.7463" width="0.127" layer="21"/>
<wire x1="3.175" y1="0" x2="4.2863" y2="0" width="0.127" layer="51"/>
<wire x1="-3.175" y1="0" x2="-4.2863" y2="0" width="0.127" layer="51"/>
<circle x="-5.08" y="0" radius="0.7099" width="0.127" layer="102"/>
<circle x="5.08" y="0" radius="0.7099" width="0.127" layer="102"/>
<circle x="0" y="0" radius="15.24" width="0.254" layer="21"/>
<pad name="C-" x="5.08" y="0" drill="1.27" diameter="3.2" shape="square"/>
<pad name="C+" x="-5.08" y="0" drill="1.27" diameter="3.2"/>
<text x="-5.728" y="-5.886" size="2.1844" layer="27" font="vector">&gt;VALUE</text>
<text x="-4.7645" y="3.0285" size="2.1844" layer="25" font="vector">&gt;NAME</text>
<text x="1.113" y="0.159" size="0.254" layer="100" font="vector">PaJa</text>
<rectangle x1="0.254" y1="-1.524" x2="0.762" y2="1.524" layer="21"/>
</package>
</packages>
<symbols>
<symbol name="PAD+">
<wire x1="-1.27" y1="0.635" x2="-1.27" y2="-0.635" width="0.152" layer="101"/>
<wire x1="-1.905" y1="0" x2="-0.6351" y2="0" width="0.152" layer="101"/>
<wire x1="-0.3175" y1="0" x2="0" y2="0" width="0.152" layer="94"/>
<circle x="-1.27" y="0" radius="0.9525" width="0.152" layer="94"/>
<text x="0.8068" y="-0.1588" size="0.254" layer="100" ratio="7" rot="R180">PaJa</text>
<text x="-0.159" y="0.4764" size="1.27" layer="95">&gt;Part</text>
<pin name="+" x="2.54" y="0" visible="off" length="short" direction="pas" rot="R180"/>
</symbol>
<symbol name="R">
<wire x1="-2.54" y1="1.0319" x2="2.54" y2="1.0319" width="0.254" layer="94"/>
<wire x1="2.54" y1="1.0319" x2="2.54" y2="-1.0319" width="0.254" layer="94"/>
<wire x1="2.54" y1="-1.0319" x2="-2.54" y2="-1.0319" width="0.254" layer="94"/>
<wire x1="-2.54" y1="-1.0319" x2="-2.54" y2="1.0319" width="0.254" layer="94"/>
<text x="2.3815" y="-0.476" size="0.254" layer="100" rot="R90">PaJa</text>
<text x="-2.2225" y="1.5875" size="1.6764" layer="95">&gt;Name</text>
<text x="-2.2225" y="-1.5875" size="1.6764" layer="96" rot="MR180">&gt;Value</text>
<pin name="1" x="-5.08" y="0" visible="off" length="short" direction="pas" swaplevel="1"/>
<pin name="2" x="5.08" y="0" visible="off" length="short" direction="pas" swaplevel="1" rot="R180"/>
</symbol>
<symbol name="LED">
<wire x1="0.95" y1="1.9085" x2="1.745" y2="2.7035" width="0.155" layer="94"/>
<wire x1="1.745" y1="2.7035" x2="1.268" y2="2.7035" width="0.155" layer="94"/>
<wire x1="1.745" y1="2.7035" x2="1.745" y2="2.2265" width="0.155" layer="94"/>
<wire x1="2.699" y1="2.2265" x2="2.222" y2="2.2265" width="0.155" layer="94"/>
<wire x1="2.699" y1="2.2265" x2="2.699" y2="1.7495" width="0.155" layer="94"/>
<wire x1="1.904" y1="1.4315" x2="2.699" y2="2.2265" width="0.155" layer="94"/>
<wire x1="2.3812" y1="1.27" x2="2.3812" y2="0" width="0.254" layer="94"/>
<wire x1="2.3812" y1="0" x2="2.3812" y2="-1.27" width="0.254" layer="94"/>
<wire x1="0.1587" y1="-1.27" x2="0.1587" y2="1.27" width="0.254" layer="94"/>
<wire x1="0.1587" y1="1.27" x2="2.3812" y2="0" width="0.254" layer="94"/>
<wire x1="2.3812" y1="0" x2="0.1587" y2="-1.27" width="0.254" layer="94"/>
<text x="2.8575" y="-2.2224" size="1.6764" layer="96">&gt;Value</text>
<text x="0.3173" y="0.4759" size="0.254" layer="100" rot="R270">PaJa</text>
<text x="3.0163" y="0.4762" size="1.6764" layer="95">&gt;Part</text>
<pin name="A" x="-2.54" y="0" visible="off" length="short" direction="pas"/>
<pin name="K" x="5.08" y="0" visible="off" length="short" direction="pas" rot="R180"/>
</symbol>
<symbol name="D">
<wire x1="2.3812" y1="1.27" x2="2.3812" y2="0" width="0.254" layer="94"/>
<wire x1="2.3812" y1="0" x2="2.3812" y2="-1.27" width="0.254" layer="94"/>
<wire x1="0.1587" y1="-1.27" x2="0.1587" y2="1.27" width="0.254" layer="94"/>
<wire x1="0.1587" y1="1.27" x2="2.3812" y2="0" width="0.254" layer="94"/>
<wire x1="2.3812" y1="0" x2="0.1587" y2="-1.27" width="0.254" layer="94"/>
<text x="-0.0001" y="-1.905" size="1.6764" layer="96" rot="MR180">&gt;Value</text>
<text x="0.3173" y="0.4759" size="0.254" layer="100" rot="R270">PaJa</text>
<text x="0" y="1.905" size="1.6764" layer="95">&gt;Part</text>
<pin name="A" x="-2.54" y="0" visible="off" length="short" direction="pas"/>
<pin name="K" x="5.08" y="0" visible="off" length="short" direction="pas" rot="R180"/>
</symbol>
<symbol name="T-NPN">
<wire x1="0" y1="2.54" x2="0" y2="-2.54" width="0.6096" layer="94"/>
<wire x1="2.544" y1="2.544" x2="0.318" y2="0" width="0.1524" layer="94"/>
<wire x1="0.318" y1="0" x2="2.544" y2="-2.544" width="0.1524" layer="94"/>
<wire x1="2.544" y1="-2.544" x2="2.544" y2="-1.59" width="0.1524" layer="94"/>
<wire x1="2.544" y1="-2.544" x2="1.59" y2="-2.385" width="0.1524" layer="94"/>
<circle x="1.27" y="0" radius="3.5921" width="0.1524" layer="94"/>
<text x="5.08" y="1.27" size="1.778" layer="95">&gt;Name</text>
<text x="5.08" y="-3.81" size="1.778" layer="96">&gt;Value</text>
<text x="1.27" y="3.81" size="1.27" layer="101">c</text>
<text x="-3.659" y="0.167" size="1.27" layer="101">b</text>
<text x="1.278" y="-5.086" size="1.27" layer="101">e</text>
<text x="-1.431" y="0.159" size="0.254" layer="100">PaJa</text>
<pin name="E" x="2.54" y="-5.08" visible="off" length="short" direction="pas" rot="R90"/>
<pin name="C" x="2.54" y="5.08" visible="off" length="short" direction="pas" rot="R270"/>
<pin name="B" x="-5.08" y="0" visible="off" length="middle" direction="pas"/>
</symbol>
<symbol name="C-EL">
<wire x1="-3.8173" y1="0.9547" x2="-2.5453" y2="0.9547" width="0.155" layer="94"/>
<wire x1="-3.1812" y1="1.5908" x2="-3.1812" y2="0.3188" width="0.155" layer="94"/>
<wire x1="-2.0638" y1="1.7463" x2="-1.4288" y2="1.7463" width="0.254" layer="94"/>
<wire x1="-1.4288" y1="1.7463" x2="-1.4288" y2="-1.5875" width="0.254" layer="94"/>
<wire x1="-1.4288" y1="-1.5875" x2="-2.0638" y2="-1.5875" width="0.254" layer="94"/>
<wire x1="-2.0638" y1="-1.5875" x2="-2.0638" y2="0" width="0.254" layer="94"/>
<wire x1="-2.0638" y1="0" x2="-2.0638" y2="1.7463" width="0.254" layer="94"/>
<wire x1="-2.54" y1="0" x2="-2.0638" y2="0" width="0.152" layer="94"/>
<wire x1="-0.4763" y1="0" x2="0" y2="0" width="0.152" layer="94"/>
<text x="-1.589" y="-0.477" size="0.254" layer="100" rot="R90">PaJa</text>
<text x="0.3175" y="0.635" size="1.6764" layer="95">&gt;Name</text>
<text x="0.3175" y="-0.635" size="1.6764" layer="96" rot="MR180">&gt;Value</text>
<rectangle x1="-0.9525" y1="-1.7463" x2="-0.3175" y2="1.905" layer="94"/>
<pin name="C_EL+" x="-5.08" y="0" visible="off" length="short" direction="pas"/>
<pin name="C_EL-" x="2.54" y="0" visible="off" length="short" direction="pas" rot="R180"/>
</symbol>
<symbol name="PAD-">
<wire x1="-1.905" y1="0" x2="-0.6351" y2="0" width="0.152" layer="101"/>
<wire x1="-0.3175" y1="0" x2="0" y2="0" width="0.152" layer="94"/>
<circle x="-1.27" y="0" radius="0.9525" width="0.152" layer="94"/>
<text x="0.8068" y="-0.1588" size="0.254" layer="100" ratio="7" rot="R180">PaJa</text>
<text x="-0.1589" y="0.4764" size="1.27" layer="95">&gt;Part</text>
<pin name="-" x="2.54" y="0" visible="off" length="short" direction="pas" rot="R180"/>
</symbol>
</symbols>
<devicesets>
<deviceset name="PAD_1+" prefix="PAD">
<description>&lt;B&gt;Pajeci bod&lt;/B&gt; - 2,54 mm prumer, + kladny</description>
<gates>
<gate name="PAD" symbol="PAD+" x="0" y="0"/>
</gates>
<devices>
<device name="" package="PAD_1">
<connects>
<connect gate="PAD" pin="+" pad="1"/>
</connects>
<technologies>
<technology name=""/>
</technologies>
</device>
</devices>
</deviceset>
<deviceset name="R" prefix="R" uservalue="yes">
<description>&lt;b&gt;Rezistor&lt;/b&gt;</description>
<gates>
<gate name="R" symbol="R" x="0" y="0" swaplevel="1"/>
</gates>
<devices>
<device name="_5" package="R-5">
<connects>
<connect gate="R" pin="1" pad="1"/>
<connect gate="R" pin="2" pad="2"/>
</connects>
<technologies>
<technology name=""/>
</technologies>
</device>
<device name="_10" package="R-10">
<connects>
<connect gate="R" pin="1" pad="1"/>
<connect gate="R" pin="2" pad="2"/>
</connects>
<technologies>
<technology name=""/>
</technologies>
</device>
<device name="_12,7" package="R-12,7">
<connects>
<connect gate="R" pin="1" pad="1"/>
<connect gate="R" pin="2" pad="2"/>
</connects>
<technologies>
<technology name=""/>
</technologies>
</device>
<device name="_7,5" package="R-7,5">
<connects>
<connect gate="R" pin="1" pad="1"/>
<connect gate="R" pin="2" pad="2"/>
</connects>
<technologies>
<technology name=""/>
</technologies>
</device>
<device name="_SMD_1206" package="1206">
<connects>
<connect gate="R" pin="1" pad="1"/>
<connect gate="R" pin="2" pad="2"/>
</connects>
<technologies>
<technology name=""/>
</technologies>
</device>
<device name="__2W" package="R-_2W">
<connects>
<connect gate="R" pin="1" pad="1"/>
<connect gate="R" pin="2" pad="2"/>
</connects>
<technologies>
<technology name=""/>
</technologies>
</device>
<device name="__10W" package="R-_10W">
<connects>
<connect gate="R" pin="1" pad="1"/>
<connect gate="R" pin="2" pad="2"/>
</connects>
<technologies>
<technology name=""/>
</technologies>
</device>
<device name="__20W" package="R-_20W">
<connects>
<connect gate="R" pin="1" pad="1"/>
<connect gate="R" pin="2" pad="2"/>
</connects>
<technologies>
<technology name=""/>
</technologies>
</device>
<device name="__5W" package="R-_5W">
<connects>
<connect gate="R" pin="1" pad="1"/>
<connect gate="R" pin="2" pad="2"/>
</connects>
<technologies>
<technology name=""/>
</technologies>
</device>
<device name="_STOJ" package="R-STOJ">
<connects>
<connect gate="R" pin="1" pad="1"/>
<connect gate="R" pin="2" pad="2"/>
</connects>
<technologies>
<technology name=""/>
</technologies>
</device>
<device name="_SMD_0805" package="0805">
<connects>
<connect gate="R" pin="1" pad="1"/>
<connect gate="R" pin="2" pad="2"/>
</connects>
<technologies>
<technology name=""/>
</technologies>
</device>
</devices>
</deviceset>
<deviceset name="LED" prefix="D">
<description>&lt;B&gt;LED&lt;/B&gt; - jednobarevna</description>
<gates>
<gate name="D" symbol="LED" x="-2.54" y="0" swaplevel="1"/>
</gates>
<devices>
<device name="_10" package="LED_10">
<connects>
<connect gate="D" pin="A" pad="A"/>
<connect gate="D" pin="K" pad="K"/>
</connects>
<technologies>
<technology name=""/>
</technologies>
</device>
<device name="_3" package="LED_3">
<connects>
<connect gate="D" pin="A" pad="A"/>
<connect gate="D" pin="K" pad="K"/>
</connects>
<technologies>
<technology name=""/>
</technologies>
</device>
<device name="_5" package="LED_5">
<connects>
<connect gate="D" pin="A" pad="A"/>
<connect gate="D" pin="K" pad="K"/>
</connects>
<technologies>
<technology name=""/>
</technologies>
</device>
<device name="_5X5" package="LED_5X5">
<connects>
<connect gate="D" pin="A" pad="A"/>
<connect gate="D" pin="K" pad="K"/>
</connects>
<technologies>
<technology name=""/>
</technologies>
</device>
<device name="_8" package="LED_8">
<connects>
<connect gate="D" pin="A" pad="A"/>
<connect gate="D" pin="K" pad="K"/>
</connects>
<technologies>
<technology name=""/>
</technologies>
</device>
<device name="_TROJ" package="LED_TROJ">
<connects>
<connect gate="D" pin="A" pad="A"/>
<connect gate="D" pin="K" pad="K"/>
</connects>
<technologies>
<technology name=""/>
</technologies>
</device>
<device name="_2,5X5" package="LED2,5X5">
<connects>
<connect gate="D" pin="A" pad="A"/>
<connect gate="D" pin="K" pad="K"/>
</connects>
<technologies>
<technology name=""/>
</technologies>
</device>
<device name="_SMD_1206" package="P1206">
<connects>
<connect gate="D" pin="A" pad="A"/>
<connect gate="D" pin="K" pad="K"/>
</connects>
<technologies>
<technology name=""/>
</technologies>
</device>
</devices>
</deviceset>
<deviceset name="1N4007" prefix="D">
<description>&lt;B&gt;Usmernovaci dioda&lt;/B&gt; - 1A, 1000V</description>
<gates>
<gate name="D" symbol="D" x="-40.64" y="35.56" swaplevel="1"/>
</gates>
<devices>
<device name="_10" package="DO41">
<connects>
<connect gate="D" pin="A" pad="A"/>
<connect gate="D" pin="K" pad="K"/>
</connects>
<technologies>
<technology name=""/>
</technologies>
</device>
<device name="_SM-1" package="SM-1">
<connects>
<connect gate="D" pin="A" pad="A"/>
<connect gate="D" pin="K" pad="K"/>
</connects>
<technologies>
<technology name=""/>
</technologies>
</device>
</devices>
</deviceset>
<deviceset name="BC546" prefix="T">
<description>&lt;B&gt;Tranzistor NPN&lt;/B&gt; - Univerzalni NF - Ic=0,1A</description>
<gates>
<gate name="T" symbol="T-NPN" x="-20.32" y="15.24"/>
</gates>
<devices>
<device name="" package="TO-92">
<connects>
<connect gate="T" pin="B" pad="2"/>
<connect gate="T" pin="C" pad="1"/>
<connect gate="T" pin="E" pad="3"/>
</connects>
<technologies>
<technology name=""/>
</technologies>
</device>
</devices>
</deviceset>
<deviceset name="C-ELEKTROLYT" prefix="C" uservalue="yes">
<description>&lt;b&gt;Kondenzator - elektrolyticky&lt;/b&gt;</description>
<gates>
<gate name="C" symbol="C-EL" x="0" y="0" swaplevel="1"/>
</gates>
<devices>
<device name="_2" package="C-EL_2">
<connects>
<connect gate="C" pin="C_EL+" pad="C+"/>
<connect gate="C" pin="C_EL-" pad="C-"/>
</connects>
<technologies>
<technology name=""/>
</technologies>
</device>
<device name="_2,5" package="C-EL_2,5">
<connects>
<connect gate="C" pin="C_EL+" pad="C+"/>
<connect gate="C" pin="C_EL-" pad="C-"/>
</connects>
<technologies>
<technology name=""/>
</technologies>
</device>
<device name="_3,5" package="C-EL_3,5">
<connects>
<connect gate="C" pin="C_EL+" pad="C+"/>
<connect gate="C" pin="C_EL-" pad="C-"/>
</connects>
<technologies>
<technology name=""/>
</technologies>
</device>
<device name="_5" package="C-EL_5">
<connects>
<connect gate="C" pin="C_EL+" pad="C+"/>
<connect gate="C" pin="C_EL-" pad="C-"/>
</connects>
<technologies>
<technology name=""/>
</technologies>
</device>
<device name="_5+" package="C-EL_5+">
<connects>
<connect gate="C" pin="C_EL+" pad="C+"/>
<connect gate="C" pin="C_EL-" pad="C-"/>
</connects>
<technologies>
<technology name=""/>
</technologies>
</device>
<device name="_7,5" package="C-EL_7,5">
<connects>
<connect gate="C" pin="C_EL+" pad="C+"/>
<connect gate="C" pin="C_EL-" pad="C-"/>
</connects>
<technologies>
<technology name=""/>
</technologies>
</device>
<device name="_7,5+" package="C-EL7,5+">
<connects>
<connect gate="C" pin="C_EL+" pad="C+"/>
<connect gate="C" pin="C_EL-" pad="C-"/>
</connects>
<technologies>
<technology name=""/>
</technologies>
</device>
<device name="_10" package="C-EL_10">
<connects>
<connect gate="C" pin="C_EL+" pad="C+"/>
<connect gate="C" pin="C_EL-" pad="C-"/>
</connects>
<technologies>
<technology name=""/>
</technologies>
</device>
<device name="_10+" package="C-EL_10+">
<connects>
<connect gate="C" pin="C_EL+" pad="C+"/>
<connect gate="C" pin="C_EL-" pad="C-"/>
</connects>
<technologies>
<technology name=""/>
</technologies>
</device>
</devices>
</deviceset>
<deviceset name="PAD_1-" prefix="PAD">
<description>&lt;B&gt;Pajeci bod&lt;/B&gt; - 2,54 mm prumer, - zaporny</description>
<gates>
<gate name="PAD" symbol="PAD-" x="0" y="0"/>
</gates>
<devices>
<device name="" package="PAD_1">
<connects>
<connect gate="PAD" pin="-" pad="1"/>
</connects>
<technologies>
<technology name=""/>
</technologies>
</device>
</devices>
</deviceset>
</devicesets>
</library>
</libraries>
<attributes>
</attributes>
<variantdefs>
</variantdefs>
<classes>
<class number="0" name="default" width="0" drill="0">
</class>
</classes>
<parts>
<part name="PAD1" library="#PaJa_30" deviceset="PAD_1+" device=""/>
<part name="R1" library="#PaJa_30" deviceset="R" device="_5"/>
<part name="D1" library="#PaJa_30" deviceset="LED" device="_5"/>
<part name="D2" library="#PaJa_30" deviceset="1N4007" device="_10"/>
<part name="T1" library="#PaJa_30" deviceset="BC546" device=""/>
<part name="R2" library="#PaJa_30" deviceset="R" device="_5"/>
<part name="R3" library="#PaJa_30" deviceset="R" device="_5"/>
<part name="T2" library="#PaJa_30" deviceset="BC546" device=""/>
<part name="C1" library="#PaJa_30" deviceset="C-ELEKTROLYT" device="_5"/>
<part name="R4" library="#PaJa_30" deviceset="R" device="_5"/>
<part name="R5" library="#PaJa_30" deviceset="R" device="_5"/>
<part name="PAD2" library="#PaJa_30" deviceset="PAD_1-" device=""/>
<part name="D3" library="#PaJa_30" deviceset="LED" device="_5"/>
</parts>
<sheets>
<sheet>
<plain>
</plain>
<instances>
<instance part="PAD1" gate="PAD" x="17.78" y="73.66"/>
<instance part="R1" gate="R" x="20.32" y="68.58" rot="R90"/>
<instance part="D1" gate="D" x="20.32" y="63.5" smashed="yes" rot="R270">
<attribute name="VALUE" x="10.4775" y="61.2776" size="1.6764" layer="96"/>
<attribute name="PART" x="23.3362" y="63.0237" size="1.6764" layer="95" rot="R270"/>
</instance>
<instance part="D2" gate="D" x="30.48" y="73.66"/>
<instance part="T1" gate="T" x="43.18" y="66.04"/>
<instance part="R2" gate="R" x="38.1" y="73.66" smashed="yes" rot="R180">
<attribute name="NAME" x="37.7825" y="77.1525" size="1.6764" layer="95" rot="R180"/>
<attribute name="VALUE" x="40.3225" y="75.2475" size="1.6764" layer="96" rot="MR0"/>
</instance>
<instance part="R3" gate="R" x="25.4" y="68.58" rot="R90"/>
<instance part="T2" gate="T" x="50.8" y="83.82" rot="MR180"/>
<instance part="C1" gate="C" x="58.42" y="73.66"/>
<instance part="R4" gate="R" x="43.18" y="78.74" rot="R90"/>
<instance part="R5" gate="R" x="33.02" y="66.04" rot="R180"/>
<instance part="PAD2" gate="PAD" x="17.78" y="58.42" smashed="yes">
<attribute name="PART" x="10.0011" y="58.8964" size="1.27" layer="95"/>
</instance>
<instance part="D3" gate="D" x="63.5" y="83.82" rot="R270"/>
</instances>
<busses>
</busses>
<nets>
<net name="N$2" class="0">
<segment>
<pinref part="R1" gate="R" pin="1"/>
<pinref part="D1" gate="D" pin="A"/>
<wire x1="20.32" y1="66.04" x2="20.32" y2="63.5" width="0.1524" layer="91"/>
</segment>
</net>
<net name="N$3" class="0">
<segment>
<pinref part="R2" gate="R" pin="2"/>
<pinref part="D2" gate="D" pin="K"/>
<wire x1="33.02" y1="73.66" x2="35.56" y2="73.66" width="0.1524" layer="91"/>
</segment>
</net>
<net name="N$4" class="0">
<segment>
<pinref part="D2" gate="D" pin="A"/>
<pinref part="R3" gate="R" pin="2"/>
<wire x1="27.94" y1="73.66" x2="25.4" y2="73.66" width="0.1524" layer="91"/>
<pinref part="PAD1" gate="PAD" pin="+"/>
<pinref part="R1" gate="R" pin="2"/>
<wire x1="25.4" y1="73.66" x2="20.32" y2="73.66" width="0.1524" layer="91"/>
<junction x="25.4" y="73.66"/>
<junction x="20.32" y="73.66"/>
<wire x1="27.94" y1="73.66" x2="27.94" y2="66.04" width="0.1524" layer="91"/>
<junction x="27.94" y="73.66"/>
<pinref part="R5" gate="R" pin="2"/>
</segment>
</net>
<net name="N$1" class="0">
<segment>
<pinref part="R2" gate="R" pin="1"/>
<pinref part="R4" gate="R" pin="1"/>
<pinref part="C1" gate="C" pin="C_EL+"/>
<wire x1="43.18" y1="73.66" x2="53.34" y2="73.66" width="0.1524" layer="91"/>
<junction x="43.18" y="73.66"/>
<pinref part="T2" gate="T" pin="C"/>
<wire x1="53.34" y1="78.74" x2="53.34" y2="73.66" width="0.1524" layer="91"/>
<junction x="53.34" y="73.66"/>
</segment>
</net>
<net name="N$5" class="0">
<segment>
<pinref part="R4" gate="R" pin="2"/>
<pinref part="T2" gate="T" pin="B"/>
<wire x1="43.18" y1="83.82" x2="45.72" y2="83.82" width="0.1524" layer="91"/>
<pinref part="T1" gate="T" pin="C"/>
<wire x1="45.72" y1="71.12" x2="45.72" y2="83.82" width="0.1524" layer="91"/>
<junction x="45.72" y="83.82"/>
</segment>
</net>
<net name="N$6" class="0">
<segment>
<pinref part="T2" gate="T" pin="E"/>
<wire x1="53.34" y1="88.9" x2="63.5" y2="88.9" width="0.1524" layer="91"/>
<wire x1="63.5" y1="88.9" x2="63.5" y2="86.36" width="0.1524" layer="91"/>
<pinref part="D3" gate="D" pin="A"/>
</segment>
</net>
<net name="N$7" class="0">
<segment>
<pinref part="C1" gate="C" pin="C_EL-"/>
<wire x1="60.96" y1="73.66" x2="63.5" y2="73.66" width="0.1524" layer="91"/>
<wire x1="63.5" y1="73.66" x2="63.5" y2="58.42" width="0.1524" layer="91"/>
<junction x="63.5" y="73.66"/>
<pinref part="T1" gate="T" pin="E"/>
<wire x1="63.5" y1="58.42" x2="45.72" y2="58.42" width="0.1524" layer="91"/>
<wire x1="45.72" y1="58.42" x2="45.72" y2="60.96" width="0.1524" layer="91"/>
<pinref part="D1" gate="D" pin="K"/>
<wire x1="45.72" y1="58.42" x2="25.4" y2="58.42" width="0.1524" layer="91"/>
<junction x="45.72" y="58.42"/>
<pinref part="R3" gate="R" pin="1"/>
<wire x1="25.4" y1="58.42" x2="20.32" y2="58.42" width="0.1524" layer="91"/>
<wire x1="25.4" y1="63.5" x2="25.4" y2="58.42" width="0.1524" layer="91"/>
<junction x="25.4" y="58.42"/>
<pinref part="PAD2" gate="PAD" pin="-"/>
<junction x="20.32" y="58.42"/>
<pinref part="D3" gate="D" pin="K"/>
<wire x1="63.5" y1="73.66" x2="63.5" y2="78.74" width="0.1524" layer="91"/>
</segment>
</net>
<net name="N$8" class="0">
<segment>
<pinref part="R5" gate="R" pin="1"/>
<pinref part="T1" gate="T" pin="B"/>
</segment>
</net>
</nets>
</sheet>
</sheets>
</schematic>
</drawing>
</eagle>
