<?xml version="1.0" encoding="utf-8"?>
<!DOCTYPE eagle SYSTEM "eagle.dtd">
<eagle version="6.0">
<drawing>
<settings>
<setting alwaysvectorfont="no"/>
<setting verticaltext="up"/>
</settings>
<grid distance="0.3175" unitdist="mm" unit="mm" style="dots" multiple="1" display="yes" altdistance="0.025" altunitdist="inch" altunit="inch"/>
<layers>
<layer number="1" name="Top" color="4" fill="1" visible="no" active="yes"/>
<layer number="16" name="Bottom" color="1" fill="1" visible="yes" active="yes"/>
<layer number="17" name="Pads" color="2" fill="1" visible="yes" active="yes"/>
<layer number="18" name="Vias" color="2" fill="1" visible="yes" active="yes"/>
<layer number="19" name="Unrouted" color="6" fill="1" visible="no" active="yes"/>
<layer number="20" name="Dimension" color="15" fill="1" visible="yes" active="yes"/>
<layer number="21" name="tPlace" color="15" fill="1" visible="no" active="yes"/>
<layer number="22" name="bPlace" color="15" fill="8" visible="no" active="yes"/>
<layer number="23" name="tOrigins" color="13" fill="1" visible="no" active="yes"/>
<layer number="24" name="bOrigins" color="13" fill="8" visible="no" active="yes"/>
<layer number="25" name="tNames" color="3" fill="1" visible="no" active="yes"/>
<layer number="26" name="bNames" color="3" fill="8" visible="no" active="yes"/>
<layer number="27" name="tValues" color="11" fill="1" visible="no" active="yes"/>
<layer number="28" name="bValues" color="11" fill="8" visible="no" active="yes"/>
<layer number="41" name="tRestrict" color="4" fill="10" visible="no" active="yes"/>
<layer number="42" name="bRestrict" color="1" fill="10" visible="no" active="yes"/>
<layer number="43" name="vRestrict" color="2" fill="10" visible="no" active="yes"/>
<layer number="44" name="Drills" color="7" fill="1" visible="no" active="yes"/>
<layer number="45" name="Holes" color="10" fill="1" visible="no" active="yes"/>
<layer number="46" name="Milling" color="3" fill="1" visible="no" active="yes"/>
<layer number="47" name="Measures" color="7" fill="1" visible="no" active="yes"/>
<layer number="48" name="Document" color="7" fill="1" visible="no" active="yes"/>
<layer number="49" name="Reference" color="7" fill="1" visible="no" active="yes"/>
<layer number="50" name="dxf" color="7" fill="1" visible="no" active="yes"/>
<layer number="51" name="tDocu" color="14" fill="1" visible="no" active="yes"/>
<layer number="52" name="bDocu" color="14" fill="8" visible="no" active="yes"/>
<layer number="91" name="Nets" color="2" fill="1" visible="no" active="no"/>
<layer number="92" name="Busses" color="1" fill="1" visible="no" active="no"/>
<layer number="93" name="Pins" color="2" fill="1" visible="no" active="no"/>
<layer number="94" name="Symbols" color="4" fill="1" visible="no" active="no"/>
<layer number="95" name="Names" color="3" fill="1" visible="no" active="no"/>
<layer number="96" name="Values" color="9" fill="1" visible="no" active="no"/>
<layer number="100" name="PaJa" color="12" fill="7" visible="no" active="yes"/>
<layer number="101" name="Doplnky" color="5" fill="1" visible="no" active="yes"/>
<layer number="102" name="Kola" color="11" fill="7" visible="no" active="yes"/>
<layer number="103" name="Popisy" color="2" fill="8" visible="no" active="yes"/>
<layer number="104" name="Zapojeni" color="6" fill="7" visible="no" active="yes"/>
<layer number="105" name="tPlate" color="7" fill="1" visible="no" active="yes"/>
<layer number="106" name="bPlate" color="7" fill="1" visible="no" active="yes"/>
<layer number="110" name="wago-seda" color="7" fill="8" visible="no" active="yes"/>
<layer number="111" name="wago-cervena" color="4" fill="1" visible="no" active="yes"/>
<layer number="112" name="wago-zelena" color="2" fill="8" visible="no" active="yes"/>
<layer number="113" name="wago-modra" color="1" fill="8" visible="no" active="yes"/>
<layer number="98" name="Guide" color="6" fill="1" visible="no" active="no"/>
<layer number="34" name="bFinish" color="6" fill="6" visible="no" active="no"/>
<layer number="35" name="tGlue" color="7" fill="4" visible="no" active="no"/>
<layer number="36" name="bGlue" color="7" fill="5" visible="no" active="no"/>
<layer number="37" name="tTest" color="7" fill="1" visible="no" active="no"/>
<layer number="38" name="bTest" color="7" fill="1" visible="no" active="no"/>
<layer number="39" name="tKeepout" color="4" fill="11" visible="no" active="no"/>
<layer number="40" name="bKeepout" color="1" fill="11" visible="no" active="no"/>
<layer number="31" name="tCream" color="7" fill="4" visible="no" active="no"/>
<layer number="32" name="bCream" color="7" fill="5" visible="no" active="no"/>
<layer number="33" name="tFinish" color="6" fill="3" visible="no" active="no"/>
<layer number="30" name="bStop" color="7" fill="6" visible="no" active="no"/>
<layer number="29" name="tStop" color="7" fill="3" visible="no" active="no"/>
<layer number="107" name="Crop" color="7" fill="1" visible="no" active="no"/>
<layer number="53" name="tGND_GNDA" color="7" fill="1" visible="no" active="no"/>
<layer number="54" name="bGND_GNDA" color="7" fill="1" visible="no" active="no"/>
<layer number="56" name="wert" color="7" fill="1" visible="no" active="no"/>
<layer number="97" name="Info" color="7" fill="1" visible="no" active="no"/>
<layer number="116" name="Patch_BOT" color="9" fill="4" visible="no" active="no"/>
<layer number="121" name="_tsilk" color="7" fill="1" visible="no" active="no"/>
<layer number="122" name="_bsilk" color="7" fill="1" visible="no" active="no"/>
<layer number="151" name="HeatSink" color="7" fill="1" visible="no" active="no"/>
<layer number="200" name="200bmp" color="7" fill="1" visible="no" active="no"/>
<layer number="201" name="201bmp" color="2" fill="10" visible="no" active="no"/>
<layer number="202" name="202bmp" color="3" fill="10" visible="no" active="no"/>
<layer number="203" name="203bmp" color="4" fill="10" visible="no" active="no"/>
<layer number="204" name="204bmp" color="5" fill="10" visible="no" active="no"/>
<layer number="205" name="205bmp" color="6" fill="10" visible="no" active="no"/>
<layer number="206" name="206bmp" color="7" fill="10" visible="no" active="no"/>
<layer number="207" name="207bmp" color="8" fill="10" visible="no" active="no"/>
<layer number="208" name="208bmp" color="9" fill="10" visible="no" active="no"/>
<layer number="209" name="209bmp" color="7" fill="1" visible="no" active="no"/>
<layer number="210" name="210bmp" color="7" fill="1" visible="no" active="no"/>
<layer number="211" name="211bmp" color="7" fill="1" visible="no" active="no"/>
<layer number="212" name="212bmp" color="7" fill="1" visible="no" active="no"/>
<layer number="213" name="213bmp" color="7" fill="1" visible="no" active="no"/>
<layer number="214" name="214bmp" color="7" fill="1" visible="no" active="no"/>
<layer number="215" name="215bmp" color="7" fill="1" visible="no" active="no"/>
<layer number="216" name="216bmp" color="7" fill="1" visible="no" active="no"/>
<layer number="217" name="217bmp" color="7" fill="1" visible="no" active="no"/>
<layer number="218" name="218bmp" color="7" fill="1" visible="no" active="no"/>
<layer number="219" name="219bmp" color="7" fill="1" visible="no" active="no"/>
<layer number="220" name="220bmp" color="7" fill="1" visible="no" active="no"/>
<layer number="221" name="221bmp" color="7" fill="1" visible="no" active="no"/>
<layer number="222" name="222bmp" color="7" fill="1" visible="no" active="no"/>
<layer number="223" name="223bmp" color="7" fill="1" visible="no" active="no"/>
<layer number="224" name="224bmp" color="7" fill="1" visible="no" active="no"/>
<layer number="250" name="Descript" color="3" fill="1" visible="no" active="no"/>
<layer number="251" name="SMDround" color="12" fill="11" visible="no" active="no"/>
<layer number="254" name="OrgLBR" color="13" fill="1" visible="no" active="no"/>
</layers>
<board>
<plain>
<wire x1="15.875" y1="4.1275" x2="15.875" y2="6.6675" width="0.254" layer="42"/>
<wire x1="26.035" y1="0" x2="0" y2="0" width="0.4064" layer="20"/>
<wire x1="0" y1="0" x2="0" y2="39.37" width="0.4064" layer="20"/>
<wire x1="0" y1="39.37" x2="54.9275" y2="39.37" width="0.4064" layer="20"/>
<wire x1="35.2425" y1="0" x2="54.9275" y2="0" width="0.4064" layer="20"/>
<wire x1="54.9275" y1="0" x2="54.9275" y2="39.37" width="0.4064" layer="20"/>
<wire x1="27.94" y1="0" x2="33.655" y2="0" width="0.4064" layer="20"/>
<wire x1="41.91" y1="4.7625" x2="41.91" y2="1.27" width="0.4064" layer="42"/>
<wire x1="40.9575" y1="5.715" x2="31.115" y2="5.715" width="0.4064" layer="42"/>
<wire x1="31.115" y1="5.715" x2="29.845" y2="6.985" width="0.4064" layer="42"/>
<wire x1="38.4175" y1="22.5425" x2="38.4175" y2="20.6375" width="0.4064" layer="42"/>
<wire x1="29.5275" y1="22.86" x2="19.685" y2="22.86" width="0.6096" layer="42"/>
<wire x1="12.7" y1="27.6225" x2="12.7" y2="26.67" width="0.127" layer="111"/>
<wire x1="12.7" y1="26.67" x2="12.7" y2="24.13" width="0.127" layer="111"/>
<wire x1="12.7" y1="24.13" x2="12.7" y2="23.1775" width="0.127" layer="111"/>
<wire x1="12.7" y1="23.1775" x2="14.605" y2="23.1775" width="0.127" layer="111"/>
<wire x1="14.605" y1="23.1775" x2="14.605" y2="24.13" width="0.127" layer="111"/>
<wire x1="14.605" y1="24.13" x2="14.605" y2="26.67" width="0.127" layer="111"/>
<wire x1="14.605" y1="26.67" x2="14.605" y2="27.6225" width="0.127" layer="111"/>
<wire x1="14.605" y1="27.6225" x2="12.7" y2="27.6225" width="0.127" layer="111"/>
<wire x1="12.7" y1="26.67" x2="14.605" y2="26.67" width="0.127" layer="111"/>
<wire x1="12.7" y1="24.13" x2="14.605" y2="24.13" width="0.127" layer="111"/>
<wire x1="6.6675" y1="21.2725" x2="8.255" y2="21.2725" width="0.4064" layer="42"/>
<wire x1="18.0975" y1="17.145" x2="18.0975" y2="13.6525" width="0.4064" layer="42"/>
<wire x1="21.9075" y1="15.5575" x2="21.9075" y2="13.6525" width="0.4064" layer="42"/>
<wire x1="40.9575" y1="5.715" x2="41.91" y2="4.7625" width="0.4064" layer="42"/>
<wire x1="6.985" y1="33.3375" x2="18.0975" y2="33.3375" width="0.4064" layer="42"/>
<circle x="36.5125" y="32.7025" radius="0.449" width="0.254" layer="20"/>
<circle x="47.625" y="14.605" radius="0.3175" width="0.3048" layer="42"/>
<circle x="31.75" y="8.89" radius="0.3175" width="0.3048" layer="42"/>
<circle x="23.8125" y="11.1125" radius="0.3175" width="0.3048" layer="42"/>
<text x="30.1625" y="1.5875" size="1.016" layer="101">&gt;Last_Date_Time</text>
<text x="1.5875" y="6.985" size="1.4224" layer="16" font="vector" ratio="10" rot="MR90">2013</text>
<text x="52.705" y="18.7325" size="1.4224" layer="16" font="vector" ratio="10" rot="MR90">El. ohradník</text>
<text x="40.9575" y="0.635" size="1.4224" layer="16" font="vector" ratio="10" rot="MR0">+12V</text>
<text x="33.655" y="11.7475" size="1.4224" layer="16" font="vector" ratio="10" rot="MR0">Out</text>
<text x="47.9425" y="0.635" size="1.778" layer="16" font="vector" rot="MR0">Gnd</text>
<text x="13.97" y="25.0825" size="1.016" layer="111" font="vector" rot="R90">0</text>
<text x="49.8475" y="20.955" size="1.778" layer="16" rot="MR90">M.B. #10F</text>
</plain>
<libraries>
<library name="#PaJa_20">
<packages>
<package name="DIL8">
<wire x1="-5.079" y1="-0.635" x2="-5.079" y2="0.635" width="0.127" layer="21" curve="180" cap="flat"/>
<wire x1="3.81" y1="3.3338" x2="3.81" y2="3.175" width="0.127" layer="102"/>
<wire x1="-3.81" y1="3.3338" x2="-3.81" y2="3.175" width="0.127" layer="102"/>
<wire x1="-1.27" y1="3.3338" x2="-1.27" y2="3.175" width="0.127" layer="102"/>
<wire x1="1.27" y1="3.3338" x2="1.27" y2="3.175" width="0.127" layer="102"/>
<wire x1="-3.81" y1="-3.3338" x2="-3.81" y2="-3.175" width="0.127" layer="102"/>
<wire x1="3.81" y1="-3.3338" x2="3.81" y2="-3.175" width="0.127" layer="102"/>
<wire x1="1.27" y1="-3.3338" x2="1.27" y2="-3.175" width="0.127" layer="102"/>
<wire x1="-1.27" y1="-3.3338" x2="-1.27" y2="-3.175" width="0.127" layer="102"/>
<wire x1="-5.08" y1="3.175" x2="-5.08" y2="0.635" width="0.127" layer="21"/>
<wire x1="-5.08" y1="-0.635" x2="-5.08" y2="-3.175" width="0.127" layer="21"/>
<wire x1="-5.08" y1="3.175" x2="5.08" y2="3.175" width="0.127" layer="21"/>
<wire x1="5.08" y1="3.175" x2="5.08" y2="-3.175" width="0.127" layer="21"/>
<wire x1="5.08" y1="-3.175" x2="-5.08" y2="-3.175" width="0.127" layer="21"/>
<circle x="3.81" y="3.81" radius="0.4763" width="0.127" layer="102"/>
<circle x="-3.81" y="3.81" radius="0.4763" width="0.127" layer="102"/>
<circle x="-1.27" y="3.81" radius="0.4763" width="0.127" layer="102"/>
<circle x="1.27" y="3.81" radius="0.4763" width="0.127" layer="102"/>
<circle x="-3.81" y="-3.81" radius="0.4763" width="0.127" layer="102"/>
<circle x="3.81" y="-3.81" radius="0.4763" width="0.127" layer="102"/>
<circle x="1.27" y="-3.81" radius="0.4763" width="0.127" layer="102"/>
<circle x="-1.27" y="-3.81" radius="0.4763" width="0.127" layer="102"/>
<pad name="1" x="-3.81" y="-3.81" drill="0.8128" diameter="1.4" shape="long" rot="R90"/>
<pad name="2" x="-1.27" y="-3.81" drill="0.8128" diameter="1.4" shape="long" rot="R90"/>
<pad name="3" x="1.27" y="-3.81" drill="0.8128" diameter="1.4" shape="long" rot="R90"/>
<pad name="4" x="3.81" y="-3.81" drill="0.8128" diameter="1.4" shape="long" rot="R90"/>
<pad name="5" x="3.81" y="3.81" drill="0.8128" diameter="1.4" shape="long" rot="R90"/>
<pad name="6" x="1.27" y="3.81" drill="0.8128" diameter="1.4" shape="long" rot="R90"/>
<pad name="7" x="-1.27" y="3.81" drill="0.8128" diameter="1.4" shape="long" rot="R90"/>
<pad name="8" x="-3.81" y="3.81" drill="0.8128" diameter="1.4" shape="long" rot="R90"/>
<text x="-3.975" y="-2.385" size="1.016" layer="21">1</text>
<text x="-4.134" y="1.431" size="1.016" layer="21">8</text>
<text x="3.339" y="-2.385" size="1.016" layer="21">4</text>
<text x="3.498" y="1.431" size="1.016" layer="21">5</text>
<text x="4.929" y="-0.636" size="0.254" layer="100" rot="R90">PaJa</text>
<text x="-2.2305" y="0.5974" size="1.4224" layer="25">&gt;Name</text>
<text x="-3.5015" y="-1.1486" size="1.4224" layer="27">&gt;Value</text>
</package>
<package name="D-7,5">
<description>&lt;B&gt;Dioda&lt;/B&gt; - roztec nozek 7,5 mm</description>
<wire x1="-2.541" y1="-0.889" x2="2.541" y2="-0.889" width="0.127" layer="21"/>
<wire x1="2.541" y1="-0.889" x2="2.541" y2="0" width="0.127" layer="21"/>
<wire x1="2.541" y1="0.889" x2="-2.541" y2="0.889" width="0.127" layer="21"/>
<wire x1="2.541" y1="0" x2="3.207" y2="0" width="0.127" layer="21"/>
<wire x1="2.541" y1="0" x2="2.541" y2="0.889" width="0.127" layer="21"/>
<wire x1="-3.207" y1="0" x2="-2.541" y2="0" width="0.127" layer="21"/>
<wire x1="-2.541" y1="0" x2="-2.541" y2="-0.889" width="0.127" layer="21"/>
<wire x1="-2.541" y1="0.889" x2="-2.541" y2="0" width="0.127" layer="21"/>
<wire x1="-3.247" y1="0" x2="-3.259" y2="0" width="0.127" layer="21"/>
<wire x1="3.259" y1="0" x2="3.247" y2="0" width="0.127" layer="21"/>
<circle x="-3.816" y="0" radius="0.477" width="0.127" layer="102"/>
<circle x="3.816" y="0" radius="0.477" width="0.127" layer="102"/>
<pad name="K" x="3.81" y="0" drill="0.8128" diameter="1.9304" shape="square"/>
<pad name="A" x="-3.81" y="0" drill="0.8128" diameter="1.9304"/>
<text x="-2.385" y="-0.636" size="1.27" layer="25">&gt;Name</text>
<text x="-2.3865" y="-2.385" size="1.27" layer="27">&gt;Value</text>
<text x="-2.617" y="-0.9985" size="0.254" layer="100" rot="R90">PaJa</text>
<rectangle x1="1.398" y1="-0.889" x2="1.906" y2="0.889" layer="21"/>
</package>
<package name="D-10">
<description>&lt;B&gt;Dioda&lt;/B&gt; - roztec nozek 10 mm</description>
<wire x1="-4.519" y1="0" x2="-4.531" y2="0" width="0.127" layer="21"/>
<wire x1="-3.3338" y1="1.5875" x2="3.3338" y2="1.5875" width="0.127" layer="21"/>
<wire x1="3.3338" y1="1.5875" x2="3.3338" y2="-1.5875" width="0.127" layer="21"/>
<wire x1="3.3338" y1="-1.5875" x2="-3.3338" y2="-1.5875" width="0.127" layer="21"/>
<wire x1="-3.3338" y1="-1.5875" x2="-3.3338" y2="1.5875" width="0.127" layer="21"/>
<circle x="-5.08" y="0" radius="0.5724" width="0.127" layer="102"/>
<circle x="5.08" y="0" radius="0.5724" width="0.127" layer="102"/>
<pad name="K" x="5.08" y="0" drill="1.016" diameter="2.1844" shape="square"/>
<pad name="A" x="-5.08" y="0" drill="1.016" diameter="2.1844"/>
<text x="-3.183" y="0.14" size="1.27" layer="25">&gt;NAME</text>
<text x="-3.183" y="-1.315" size="1.27" layer="27">&gt;VALUE</text>
<text x="-3.4865" y="0.4765" size="0.254" layer="100" rot="R90">PaJa</text>
<rectangle x1="1.842" y1="-1.524" x2="2.604" y2="1.524" layer="21"/>
<rectangle x1="-4.5985" y1="-0.318" x2="-3.3265" y2="0.318" layer="21"/>
<rectangle x1="3.3265" y1="-0.318" x2="4.5985" y2="0.318" layer="21"/>
</package>
<package name="LED_5">
<description>&lt;B&gt;LED dioda&lt;/B&gt; - 5mm prumer</description>
<wire x1="-1.268" y1="-0.446" x2="-1.268" y2="-1.27" width="0.127" layer="21"/>
<wire x1="1.272" y1="-1.27" x2="1.272" y2="-0.446" width="0.127" layer="21"/>
<wire x1="-0.633" y1="-0.508" x2="-0.633" y2="-1.27" width="0.127" layer="21"/>
<wire x1="-0.633" y1="-2.032" x2="0.637" y2="-1.27" width="0.127" layer="21"/>
<wire x1="0.637" y1="-1.27" x2="1.272" y2="-1.27" width="0.127" layer="21"/>
<wire x1="0.637" y1="-1.27" x2="-0.633" y2="-0.508" width="0.127" layer="21"/>
<wire x1="-0.347" y1="0.984" x2="0.415" y2="1.746" width="0.127" layer="21"/>
<wire x1="0.288" y1="0.603" x2="1.05" y2="1.365" width="0.127" layer="21"/>
<wire x1="0.034" y1="1.619" x2="0.288" y2="1.365" width="0.127" layer="21"/>
<wire x1="0.288" y1="1.365" x2="0.415" y2="1.746" width="0.127" layer="21"/>
<wire x1="0.415" y1="1.746" x2="0.034" y2="1.619" width="0.127" layer="21"/>
<wire x1="1.05" y1="1.365" x2="0.669" y2="1.238" width="0.127" layer="21"/>
<wire x1="0.669" y1="1.238" x2="0.923" y2="0.984" width="0.127" layer="21"/>
<wire x1="0.923" y1="0.984" x2="1.05" y2="1.365" width="0.127" layer="21"/>
<wire x1="0.796" y1="1.238" x2="0.923" y2="1.111" width="0.127" layer="21"/>
<wire x1="0.161" y1="1.619" x2="0.288" y2="1.492" width="0.127" layer="21"/>
<wire x1="0.637" y1="-2.032" x2="0.637" y2="-1.27" width="0.127" layer="21"/>
<wire x1="0.637" y1="-1.27" x2="0.637" y2="-0.508" width="0.127" layer="21"/>
<wire x1="-1.268" y1="-1.27" x2="-0.633" y2="-1.27" width="0.127" layer="21"/>
<wire x1="-0.633" y1="-1.27" x2="-0.633" y2="-2.032" width="0.127" layer="21"/>
<wire x1="2.544" y1="-1.431" x2="2.544" y2="1.431" width="0.127" layer="21" curve="-301.284493"/>
<wire x1="2.544" y1="1.431" x2="2.544" y2="-1.431" width="0.127" layer="21"/>
<circle x="-1.272" y="0" radius="0.477" width="0.127" layer="102"/>
<circle x="1.272" y="0" radius="0.477" width="0.127" layer="102"/>
<circle x="0" y="0" radius="2.5489" width="0.127" layer="51"/>
<pad name="K" x="1.27" y="0" drill="0.8128" diameter="1.778" shape="square"/>
<pad name="A" x="-1.27" y="0" drill="0.8128" diameter="1.778"/>
<text x="3.975" y="-2.703" size="1.27" layer="25" rot="R90">&gt;Name</text>
<text x="5.7235" y="-2.7035" size="1.27" layer="27" rot="R90">&gt;Value</text>
<text x="-0.477" y="-2.385" size="0.254" layer="100">PaJa</text>
</package>
<package name="C-5">
<circle x="-2.544" y="0" radius="0.477" width="0.127" layer="102"/>
<circle x="2.544" y="0" radius="0.477" width="0.127" layer="102"/>
<pad name="1" x="-2.54" y="0" drill="0.8128" diameter="1.9304" shape="octagon"/>
<pad name="2" x="2.54" y="0" drill="0.8128" diameter="1.9304" shape="octagon"/>
<text x="0.795" y="0.954" size="1.016" layer="25">&gt;Name</text>
<text x="0.795" y="-1.9085" size="1.016" layer="27">&gt;Value</text>
<text x="0.159" y="0.3182" size="0.254" layer="100" rot="R90">PaJa</text>
<rectangle x1="-0.7143" y1="-1.27" x2="-0.238" y2="1.27" layer="21"/>
<rectangle x1="0.2381" y1="-1.27" x2="0.7144" y2="1.27" layer="21"/>
<rectangle x1="-2.0638" y1="-0.1588" x2="-0.635" y2="0.1588" layer="21"/>
<rectangle x1="0.635" y1="-0.1588" x2="2.0638" y2="0.1588" layer="21"/>
</package>
<package name="R-7,5">
<description>&lt;B&gt;Odpor&lt;/B&gt; - vel. 0207 - 0,6W</description>
<wire x1="-3.175" y1="0.893" x2="-2.921" y2="1.147" width="0.127" layer="21" curve="-90" cap="flat"/>
<wire x1="-3.175" y1="-0.885" x2="-2.921" y2="-1.139" width="0.127" layer="21" curve="90" cap="flat"/>
<wire x1="2.413" y1="-1.012" x2="2.54" y2="-1.139" width="0.127" layer="21"/>
<wire x1="2.413" y1="1.02" x2="2.54" y2="1.147" width="0.127" layer="21"/>
<wire x1="-2.413" y1="-1.012" x2="-2.54" y2="-1.139" width="0.127" layer="21"/>
<wire x1="-2.413" y1="-1.012" x2="2.413" y2="-1.012" width="0.127" layer="21"/>
<wire x1="-2.413" y1="1.02" x2="-2.54" y2="1.147" width="0.127" layer="21"/>
<wire x1="-2.413" y1="1.02" x2="2.413" y2="1.02" width="0.127" layer="21"/>
<wire x1="-2.921" y1="-1.139" x2="-2.54" y2="-1.139" width="0.127" layer="21"/>
<wire x1="-2.921" y1="1.147" x2="-2.54" y2="1.147" width="0.127" layer="21"/>
<wire x1="-3.1731" y1="0.8823" x2="-3.1731" y2="-0.8667" width="0.127" layer="21"/>
<wire x1="2.921" y1="-1.147" x2="3.175" y2="-0.893" width="0.127" layer="21" curve="90" cap="flat"/>
<wire x1="2.921" y1="1.139" x2="3.175" y2="0.885" width="0.127" layer="21" curve="-90" cap="flat"/>
<wire x1="2.921" y1="1.139" x2="2.54" y2="1.139" width="0.127" layer="21"/>
<wire x1="2.921" y1="-1.147" x2="2.54" y2="-1.147" width="0.127" layer="21"/>
<wire x1="3.1731" y1="-0.8823" x2="3.1731" y2="0.8667" width="0.127" layer="21"/>
<circle x="-3.81" y="0" radius="0.4763" width="0.127" layer="102"/>
<circle x="3.81" y="0" radius="0.4762" width="0.127" layer="102"/>
<pad name="1" x="-3.81" y="0" drill="0.8128" diameter="1.9304" shape="octagon"/>
<pad name="2" x="3.81" y="0" drill="0.8128" diameter="1.9304" shape="octagon"/>
<text x="-0.3178" y="-0.477" size="1.016" layer="27">&gt;Value</text>
<text x="-2.7033" y="-0.477" size="1.016" layer="25">&gt;Name</text>
<text x="2.1354" y="-0.8658" size="0.254" layer="100">PaJa</text>
<rectangle x1="-3.4323" y1="-0.3053" x2="-3.1758" y2="0.3061" layer="21"/>
<rectangle x1="3.1759" y1="-0.3061" x2="3.4324" y2="0.3053" layer="21"/>
</package>
<package name="ARK500/2">
<wire x1="-5.08" y1="-3.556" x2="-5.08" y2="-2.159" width="0.127" layer="21"/>
<wire x1="5.08" y1="3.937" x2="-5.08" y2="3.937" width="0.127" layer="21"/>
<wire x1="5.08" y1="3.937" x2="5.08" y2="3.088" width="0.127" layer="21"/>
<wire x1="5.08" y1="2.199" x2="5.08" y2="2.159" width="0.127" layer="21"/>
<wire x1="-5.08" y1="-3.556" x2="5.08" y2="-3.556" width="0.127" layer="21"/>
<wire x1="-5.08" y1="2.159" x2="-5.08" y2="3.937" width="0.127" layer="21"/>
<wire x1="-5.08" y1="2.159" x2="5.08" y2="2.159" width="0.127" layer="21"/>
<wire x1="5.08" y1="2.159" x2="5.08" y2="-2.159" width="0.127" layer="21"/>
<wire x1="-5.08" y1="-2.159" x2="5.08" y2="-2.159" width="0.127" layer="21"/>
<wire x1="-5.08" y1="-2.159" x2="-5.08" y2="2.159" width="0.127" layer="21"/>
<wire x1="5.08" y1="-2.159" x2="5.08" y2="-3.556" width="0.127" layer="21"/>
<wire x1="1.4986" y1="-1.397" x2="3.9116" y2="1.016" width="0.127" layer="51"/>
<wire x1="1.1176" y1="-1.016" x2="3.5306" y2="1.397" width="0.127" layer="51"/>
<wire x1="-3.9116" y1="-1.016" x2="-1.4986" y2="1.397" width="0.127" layer="51"/>
<wire x1="-3.5306" y1="-1.397" x2="-1.1176" y2="1.016" width="0.127" layer="51"/>
<wire x1="1.4986" y1="-1.016" x2="3.5306" y2="1.016" width="0.6096" layer="51"/>
<wire x1="-3.5306" y1="-1.016" x2="-1.4986" y2="1.016" width="0.6096" layer="51"/>
<wire x1="1.1176" y1="-1.016" x2="1.4986" y2="-1.397" width="0.127" layer="51"/>
<wire x1="3.5306" y1="1.397" x2="3.9116" y2="1.016" width="0.127" layer="51"/>
<wire x1="-3.9116" y1="-1.016" x2="-3.5306" y2="-1.397" width="0.127" layer="51"/>
<wire x1="-1.4986" y1="1.397" x2="-1.1176" y2="1.016" width="0.127" layer="51"/>
<wire x1="5.08" y1="2.199" x2="5.588" y2="2.072" width="0.127" layer="21"/>
<wire x1="5.588" y1="2.072" x2="5.588" y2="3.215" width="0.127" layer="21"/>
<wire x1="5.588" y1="3.215" x2="5.08" y2="3.088" width="0.127" layer="21"/>
<wire x1="5.08" y1="3.088" x2="5.08" y2="2.199" width="0.127" layer="21"/>
<circle x="2.5146" y="3.048" radius="0.508" width="0.127" layer="21"/>
<circle x="-2.5146" y="3.048" radius="0.508" width="0.127" layer="21"/>
<circle x="2.5146" y="0" radius="1.778" width="0.127" layer="51"/>
<circle x="-2.5146" y="0" radius="1.778" width="0.127" layer="51"/>
<circle x="-2.54" y="0" radius="0.7099" width="0.127" layer="102"/>
<circle x="2.54" y="0" radius="0.7099" width="0.127" layer="102"/>
<pad name="1" x="-2.54" y="0" drill="1.27" diameter="3.2" shape="octagon"/>
<pad name="2" x="2.54" y="0" drill="1.27" diameter="3.2" shape="octagon"/>
<text x="-2.695" y="-5.398" size="1.4224" layer="25">&gt;NAME</text>
<text x="-4.7093" y="-3.33" size="1.016" layer="27">&gt;VALUE</text>
<text x="-4.127" y="2.54" size="0.9906" layer="21" ratio="12">1</text>
<text x="0.794" y="2.54" size="0.9906" layer="21" ratio="12">2</text>
<text x="-0.477" y="2.2866" size="0.254" layer="100">PaJa</text>
<text x="2.0377" y="-3.4199" size="0.6096" layer="101">dratu</text>
<text x="1.7395" y="-2.7752" size="0.6096" layer="101">strana</text>
<rectangle x1="-0.381" y1="-1.905" x2="0.381" y2="1.905" layer="21"/>
</package>
<package name="SOD-80">
<wire x1="-1.5241" y1="0.635" x2="1.2001" y2="0.635" width="0.127" layer="21"/>
<wire x1="1.2001" y1="0.635" x2="1.2001" y2="-0.635" width="0.127" layer="21"/>
<wire x1="1.2001" y1="-0.635" x2="-1.5241" y2="-0.635" width="0.127" layer="21"/>
<wire x1="-1.5241" y1="-0.635" x2="-1.5241" y2="0.635" width="0.127" layer="21"/>
<wire x1="-0.7938" y1="0" x2="0.1588" y2="0.4763" width="0.127" layer="21"/>
<wire x1="0.1588" y1="-0.4763" x2="-0.7938" y2="0" width="0.127" layer="21"/>
<wire x1="0.1588" y1="0.4763" x2="0.1588" y2="-0.4763" width="0.127" layer="21"/>
<smd name="A" x="1.905" y="0" dx="1.397" dy="1.7018" layer="1"/>
<smd name="K" x="-2.2225" y="0" dx="1.397" dy="1.7018" layer="1"/>
<text x="0.7145" y="-0.3968" size="0.254" layer="100" rot="R90">PaJa</text>
<text x="-2.3813" y="-2.0637" size="1.016" layer="27">&gt;Value</text>
<text x="-2.3812" y="1.1114" size="1.016" layer="25">&gt;Name</text>
<rectangle x1="-1.0349" y1="-0.635" x2="-0.6793" y2="0.635" layer="21"/>
<rectangle x1="-1.905" y1="-0.7938" x2="-1.4288" y2="0.7938" layer="51"/>
<rectangle x1="1.1113" y1="-0.7938" x2="1.5875" y2="0.7938" layer="51"/>
</package>
<package name="TO-220S">
<wire x1="-5.0006" y1="1.3494" x2="-4.9213" y2="-1.905" width="0.127" layer="21"/>
<wire x1="5.0006" y1="1.3494" x2="4.9212" y2="-1.905" width="0.127" layer="21"/>
<wire x1="-4.9213" y1="-1.905" x2="4.9213" y2="-1.905" width="0.127" layer="21"/>
<circle x="-2.54" y="0" radius="0.5724" width="0.127" layer="102"/>
<circle x="0" y="0" radius="0.5724" width="0.127" layer="102"/>
<circle x="2.54" y="0" radius="0.5724" width="0.127" layer="102"/>
<pad name="1" x="-2.54" y="0" drill="1.016" diameter="1.6" shape="long" rot="R90"/>
<pad name="2" x="0" y="0" drill="1.016" diameter="1.6" shape="long" rot="R90"/>
<pad name="3" x="2.54" y="0" drill="1.016" diameter="1.6" shape="long" rot="R90"/>
<text x="-4.929" y="2.703" size="1.27" layer="25">&gt;Name</text>
<text x="-0.795" y="2.703" size="1.27" layer="27">&gt;Value</text>
<text x="-4.77" y="-1.749" size="0.254" layer="100">PaJa</text>
<rectangle x1="-5.084" y1="1.27" x2="5.076" y2="2.54" layer="21"/>
</package>
<package name="1206">
<description>&lt;B&gt;SMD&lt;/B&gt; - velikost 1206</description>
<wire x1="-1.0541" y1="0.7938" x2="1.0541" y2="0.7938" width="0.127" layer="21"/>
<wire x1="-1.0541" y1="-0.7938" x2="1.0541" y2="-0.7938" width="0.127" layer="21"/>
<wire x1="1.0541" y1="0.7938" x2="1.0541" y2="-0.7938" width="0.127" layer="21"/>
<wire x1="-1.0541" y1="0.7938" x2="-1.0541" y2="-0.7938" width="0.127" layer="21"/>
<smd name="1" x="-1.5875" y="0" dx="1.143" dy="1.7018" layer="1"/>
<smd name="2" x="1.5875" y="0" dx="1.143" dy="1.7018" layer="1"/>
<text x="-0.3175" y="-1.1906" size="0.254" layer="100">PaJa</text>
<text x="-0.7938" y="-0.4763" size="1.016" layer="25">&gt;Name</text>
<text x="-0.7938" y="0.9525" size="1.016" layer="27">&gt;Value</text>
<rectangle x1="-1.4541" y1="-0.7874" x2="-0.9461" y2="0.7874" layer="51"/>
<rectangle x1="0.9461" y1="-0.7874" x2="1.4541" y2="0.7874" layer="51"/>
</package>
</packages>
</library>
<library name="#PaJa_C-el">
<packages>
<package name="C_EL_5">
<wire x1="-0.762" y1="-1.524" x2="-0.254" y2="-1.524" width="0.127" layer="21"/>
<wire x1="-0.254" y1="-1.524" x2="-0.254" y2="1.524" width="0.127" layer="21"/>
<wire x1="-0.254" y1="1.524" x2="-0.762" y2="1.524" width="0.127" layer="21"/>
<wire x1="-0.762" y1="1.524" x2="-0.762" y2="0" width="0.127" layer="21"/>
<wire x1="0.635" y1="0" x2="1.524" y2="0" width="0.127" layer="21"/>
<wire x1="-0.762" y1="0" x2="-1.236" y2="0" width="0.127" layer="21"/>
<wire x1="-1.236" y1="0" x2="-1.524" y2="0" width="0.127" layer="21"/>
<wire x1="-0.762" y1="0" x2="-0.762" y2="-1.524" width="0.127" layer="21"/>
<wire x1="-2.003" y1="0" x2="-1.236" y2="0" width="0.127" layer="21"/>
<wire x1="1.55" y1="0" x2="2.003" y2="0" width="0.127" layer="21"/>
<wire x1="-1.86" y1="-0.93" x2="-1.24" y2="-0.93" width="0.127" layer="21"/>
<wire x1="-1.55" y1="-0.62" x2="-1.55" y2="-1.24" width="0.127" layer="21"/>
<circle x="0" y="0" radius="5.1308" width="0.127" layer="21"/>
<circle x="-2.54" y="0" radius="0.4763" width="0.127" layer="102"/>
<circle x="2.54" y="0" radius="0.4762" width="0.127" layer="102"/>
<pad name="C-" x="2.54" y="0" drill="0.8128" diameter="2.1844" shape="square"/>
<pad name="C+" x="-2.54" y="0" drill="0.8128" diameter="2.1844"/>
<text x="-3.663" y="-3.186" size="1.4224" layer="27">&gt;VALUE</text>
<text x="-3.017" y="1.758" size="1.4224" layer="25">&gt;NAME</text>
<text x="1.272" y="0.318" size="0.254" layer="100" rot="R90">PaJa</text>
<rectangle x1="0.254" y1="-1.524" x2="0.762" y2="1.524" layer="21"/>
</package>
<package name="C_EL_2">
<wire x1="-0.1378" y1="-1.02" x2="-0.1378" y2="-1.782" width="0.127" layer="21"/>
<wire x1="-0.5188" y1="-1.401" x2="0.2432" y2="-1.401" width="0.127" layer="21"/>
<wire x1="0.4762" y1="-1.524" x2="0.9842" y2="-1.524" width="0.127" layer="21"/>
<wire x1="0.9842" y1="-1.524" x2="0.9842" y2="1.524" width="0.127" layer="21"/>
<wire x1="0.9842" y1="1.524" x2="0.4762" y2="1.524" width="0.127" layer="21"/>
<wire x1="0.4762" y1="1.524" x2="0.4762" y2="-1.524" width="0.127" layer="21"/>
<wire x1="1.4112" y1="1.5" x2="1.7862" y2="1.5" width="0.127" layer="21"/>
<wire x1="1.7862" y1="1.5" x2="1.7862" y2="-1.5" width="0.127" layer="21"/>
<wire x1="1.7862" y1="-1.5" x2="1.4112" y2="-1.5" width="0.127" layer="21"/>
<wire x1="1.4112" y1="-1.5" x2="1.4112" y2="1.5" width="0.127" layer="21"/>
<wire x1="1.5762" y1="0" x2="2.1962" y2="0" width="0.127" layer="21"/>
<wire x1="0.0262" y1="0" x2="0.2712" y2="0" width="0.127" layer="21"/>
<wire x1="0.2712" y1="0" x2="0.3362" y2="0" width="0.127" layer="21"/>
<wire x1="0.2712" y1="0" x2="0.439" y2="0" width="0.127" layer="21"/>
<circle x="1.1112" y="0" radius="2.4848" width="0.127" layer="21"/>
<circle x="-0.0018" y="0" radius="0.477" width="0.127" layer="102"/>
<circle x="2.2242" y="0" radius="0.477" width="0.127" layer="102"/>
<pad name="C+" x="0" y="0" drill="0.8128" diameter="1.27" shape="long" rot="R90"/>
<pad name="C-" x="2.2225" y="0" drill="0.8128" diameter="1.27" shape="long" rot="R90"/>
<text x="-1.2738" y="2.544" size="1.27" layer="25">&gt;Name</text>
<text x="-1.5918" y="-3.816" size="1.27" layer="27">&gt;Value</text>
<text x="0.6342" y="1.908" size="0.254" layer="100">PaJa</text>
<rectangle x1="1.4112" y1="-1.5" x2="1.7862" y2="1.425" layer="21"/>
</package>
</packages>
</library>
<library name="#PaJa_C-folie">
<packages>
<package name="RM5_5,0">
<wire x1="-3.81" y1="-2.54" x2="-3.81" y2="2.54" width="0.127" layer="21"/>
<wire x1="-3.81" y1="2.54" x2="3.81" y2="2.54" width="0.127" layer="21"/>
<wire x1="3.81" y1="2.54" x2="3.81" y2="-2.54" width="0.127" layer="21"/>
<wire x1="3.81" y1="-2.54" x2="-3.81" y2="-2.54" width="0.127" layer="21"/>
<wire x1="-2.067" y1="0" x2="-0.636" y2="0" width="0.127" layer="21"/>
<wire x1="0.636" y1="0" x2="2.067" y2="0" width="0.127" layer="21"/>
<circle x="-2.54" y="0" radius="0.4762" width="0.127" layer="102"/>
<circle x="2.54" y="0" radius="0.4762" width="0.127" layer="102"/>
<pad name="1" x="-2.54" y="0" drill="0.8128" diameter="2.1844" shape="octagon"/>
<pad name="2" x="2.54" y="0" drill="0.8128" diameter="2.1844" shape="octagon"/>
<text x="-2.615" y="-2.4451" size="1.016" layer="27">&gt;Value</text>
<text x="-2.2974" y="1.3537" size="1.016" layer="25">&gt;Name</text>
<text x="0.159" y="0.3182" size="0.254" layer="100" rot="R90">PaJa</text>
<rectangle x1="-0.635" y1="-1.1906" x2="-0.2381" y2="1.1906" layer="21"/>
<rectangle x1="0.2382" y1="-1.1906" x2="0.6351" y2="1.1906" layer="21"/>
</package>
</packages>
</library>
<library name="#_GM99">
<packages>
<package name="CFAC-22">
<wire x1="-2" y1="5" x2="24.5001" y2="5" width="0.127" layer="21"/>
<wire x1="24.5001" y1="5" x2="24.5001" y2="3" width="0.127" layer="21"/>
<wire x1="24.5001" y1="-5" x2="-2" y2="-5" width="0.127" layer="21"/>
<wire x1="-2" y1="-5" x2="-2" y2="-3" width="0.127" layer="21"/>
<wire x1="-2" y1="3" x2="-2" y2="5" width="0.127" layer="21"/>
<wire x1="-2" y1="3" x2="24.5001" y2="3" width="0.127" layer="21"/>
<wire x1="24.5001" y1="3" x2="24.5001" y2="-3" width="0.127" layer="21"/>
<wire x1="24.5001" y1="-3" x2="24.5001" y2="-5" width="0.127" layer="21"/>
<wire x1="24.5001" y1="-3" x2="-2" y2="-3" width="0.127" layer="21"/>
<wire x1="-2" y1="-3" x2="-2" y2="3" width="0.127" layer="21"/>
<pad name="1" x="0" y="0" drill="0.8128" diameter="1.778"/>
<pad name="2" x="22.5001" y="0" drill="0.8128" diameter="1.778"/>
<text x="3.5001" y="1" size="1.27" layer="25">&gt;NAME</text>
<text x="3.5001" y="-1.5001" size="1.27" layer="27">&gt;VALUE</text>
</package>
</packages>
</library>
<library name="#PaJa_31">
<packages>
<package name="CH_V7142">
<description>&lt;B&gt;Chladic k TO-220&lt;/B&gt; - nastojato</description>
<wire x1="-11.2825" y1="-10.333" x2="-11.2825" y2="6.044" width="0.6096" layer="21"/>
<wire x1="11.2825" y1="-10.333" x2="11.2825" y2="6.044" width="0.6096" layer="21"/>
<wire x1="-10.6465" y1="-3.973" x2="-11.2825" y2="-10.333" width="0.6096" layer="21"/>
<wire x1="-10.6465" y1="-3.019" x2="-11.2825" y2="6.044" width="0.6096" layer="21"/>
<wire x1="10.6465" y1="-4.291" x2="11.2825" y2="-10.333" width="0.6096" layer="21"/>
<wire x1="10.6465" y1="-2.86" x2="11.2825" y2="6.044" width="0.6096" layer="21"/>
<wire x1="0.954" y1="1.113" x2="2.536" y2="1.113" width="0.3048" layer="21"/>
<wire x1="0.954" y1="0.795" x2="-0.954" y2="0.795" width="0.3048" layer="21" curve="-259.611142"/>
<wire x1="0.954" y1="1.113" x2="0.954" y2="0.795" width="0.3048" layer="21"/>
<wire x1="-0.954" y1="1.113" x2="-0.954" y2="0.795" width="0.3048" layer="21"/>
<wire x1="2.703" y1="6.044" x2="2.862" y2="-3.019" width="0.6096" layer="21"/>
<wire x1="-2.703" y1="6.044" x2="-2.862" y2="-3.178" width="0.6096" layer="21"/>
<wire x1="2.703" y1="6.044" x2="2.067" y2="1.271" width="0.6096" layer="21"/>
<wire x1="-2.703" y1="6.044" x2="-2.067" y2="1.271" width="0.6096" layer="21"/>
<wire x1="-2.544" y1="1.113" x2="-2.544" y2="1.9085" width="0.6096" layer="21"/>
<wire x1="-0.954" y1="1.113" x2="-2.544" y2="1.113" width="0.3048" layer="21"/>
<wire x1="-5.0006" y1="-5.6357" x2="-4.9213" y2="-8.8901" width="0.127" layer="101"/>
<wire x1="5.0006" y1="-5.6357" x2="4.9212" y2="-8.8901" width="0.127" layer="101"/>
<wire x1="-4.9213" y1="-8.8901" x2="4.9213" y2="-8.8901" width="0.127" layer="101"/>
<wire x1="-6.8365" y1="-3.019" x2="-7.155" y2="6.044" width="0.6096" layer="21"/>
<wire x1="-7.4715" y1="-3.019" x2="-7.155" y2="6.044" width="0.6096" layer="21"/>
<wire x1="7.451" y1="-3.019" x2="7.1325" y2="6.044" width="0.6096" layer="21"/>
<wire x1="6.816" y1="-3.019" x2="7.1325" y2="6.044" width="0.6096" layer="21"/>
<wire x1="2.536" y1="1.113" x2="2.536" y2="1.9085" width="0.6096" layer="21"/>
<circle x="-2.54" y="-6.9851" radius="0.5724" width="0.127" layer="101"/>
<circle x="0" y="-6.9851" radius="0.5724" width="0.127" layer="101"/>
<circle x="2.54" y="-6.9851" radius="0.5724" width="0.127" layer="101"/>
<text x="5.5485" y="-1.916" size="1.27" layer="25" font="vector" rot="R90">&gt;Name</text>
<text x="-4.45" y="-1.916" size="1.27" layer="27" font="vector" rot="R90">&gt;Value</text>
<text x="8.0955" y="-2.3815" size="0.254" layer="100" font="vector">PaJa</text>
<text x="-4.445" y="-10.0013" size="0.8128" layer="101" font="vector">chladic k TO-220</text>
<rectangle x1="-1.113" y1="-1.113" x2="-0.795" y2="-0.795" layer="21" rot="R270"/>
<rectangle x1="0.795" y1="-1.113" x2="1.113" y2="-0.795" layer="21" rot="R270"/>
<rectangle x1="-5.08" y1="-5.5563" x2="5.08" y2="-4.2863" layer="101"/>
<rectangle x1="-2.6988" y1="-2.6988" x2="-1.1113" y2="0.9525" layer="21"/>
<rectangle x1="-1.27" y1="-2.6988" x2="1.27" y2="-1.1113" layer="21"/>
<rectangle x1="1.1113" y1="-2.6988" x2="2.6988" y2="1.1113" layer="21"/>
<rectangle x1="-11.1125" y1="-4.1275" x2="10.9538" y2="-2.6988" layer="21"/>
<rectangle x1="10.795" y1="-5.3975" x2="11.1125" y2="-1.27" layer="21"/>
<hole x="0" y="0" drill="2.54"/>
</package>
<package name="SM-1">
<wire x1="-0.635" y1="0" x2="0.3175" y2="0.635" width="0.127" layer="21"/>
<wire x1="0.3175" y1="0.635" x2="0.3175" y2="-0.635" width="0.127" layer="21"/>
<wire x1="0.3175" y1="-0.635" x2="-0.635" y2="0" width="0.127" layer="21"/>
<wire x1="-1.905" y1="1.27" x2="-1.905" y2="-1.27" width="0.127" layer="21"/>
<wire x1="-1.905" y1="-1.27" x2="1.905" y2="-1.27" width="0.127" layer="21"/>
<wire x1="1.905" y1="-1.27" x2="1.905" y2="1.27" width="0.127" layer="21"/>
<wire x1="1.905" y1="1.27" x2="-1.905" y2="1.27" width="0.127" layer="21"/>
<smd name="K" x="-2.8575" y="0" dx="2.54" dy="1.27" layer="1" rot="R90"/>
<smd name="A" x="2.8575" y="0" dx="2.54" dy="1.27" layer="1" rot="R90"/>
<text x="-1.3494" y="-0.4763" size="0.254" layer="100" font="vector" rot="R90">PaJa</text>
<text x="-2.0638" y="-2.5401" size="1.016" layer="27" font="vector">&gt;Value</text>
<text x="1.5875" y="-0.9525" size="1.016" layer="25" font="vector" rot="R90">&gt;Name</text>
<rectangle x1="-2.54" y1="-1.27" x2="-1.905" y2="1.27" layer="51"/>
<rectangle x1="1.905" y1="-1.27" x2="2.54" y2="1.27" layer="51"/>
<rectangle x1="-1.27" y1="-1.27" x2="-0.635" y2="1.27" layer="21"/>
</package>
<package name="1206">
<description>&lt;B&gt;SMD&lt;/B&gt; - velikost 1206</description>
<wire x1="-1.0541" y1="0.7938" x2="-0.7938" y2="0.7938" width="0.127" layer="51"/>
<wire x1="-0.7938" y1="0.7938" x2="0.7938" y2="0.7938" width="0.127" layer="21"/>
<wire x1="0.7938" y1="0.7938" x2="1.0541" y2="0.7938" width="0.127" layer="51"/>
<wire x1="-1.0541" y1="-0.7938" x2="-0.7938" y2="-0.7938" width="0.127" layer="51"/>
<wire x1="-0.7938" y1="-0.7938" x2="0.7938" y2="-0.7938" width="0.127" layer="21"/>
<wire x1="0.7938" y1="-0.7938" x2="1.0541" y2="-0.7938" width="0.127" layer="51"/>
<wire x1="1.0541" y1="0.7938" x2="1.0541" y2="-0.7938" width="0.127" layer="51"/>
<wire x1="-1.0541" y1="0.7938" x2="-1.0541" y2="-0.7938" width="0.127" layer="51"/>
<smd name="1" x="-1.5875" y="0" dx="1.143" dy="1.7018" layer="1"/>
<smd name="2" x="1.5875" y="0" dx="1.143" dy="1.7018" layer="1"/>
<text x="-0.3175" y="-1.1906" size="0.254" layer="100" font="vector">PaJa</text>
<text x="-0.7938" y="-0.4763" size="1.016" layer="25" font="vector">&gt;Name</text>
<text x="-0.7938" y="0.9525" size="1.016" layer="27" font="vector">&gt;Value</text>
<rectangle x1="-1.4541" y1="-0.7874" x2="-0.9461" y2="0.7874" layer="51"/>
<rectangle x1="0.9461" y1="-0.7874" x2="1.4541" y2="0.7874" layer="51"/>
</package>
<package name="PT6V">
<description>&lt;B&gt;Trimr&lt;/B&gt; - nalezato - 6,3mm - 250R az 5M</description>
<wire x1="-3.175" y1="3.0163" x2="-3.175" y2="-3.4925" width="0.127" layer="101"/>
<wire x1="-3.175" y1="-3.4925" x2="3.175" y2="-3.4925" width="0.127" layer="101"/>
<wire x1="3.175" y1="-3.4925" x2="3.175" y2="3.0163" width="0.127" layer="101"/>
<wire x1="-3.175" y1="3.0163" x2="-0.3175" y2="3.0163" width="0.127" layer="101"/>
<wire x1="0.3175" y1="3.0163" x2="3.175" y2="3.0163" width="0.127" layer="101"/>
<wire x1="-3.175" y1="0" x2="-3.175" y2="-1.27" width="0.127" layer="21"/>
<wire x1="3.175" y1="0" x2="3.175" y2="-1.27" width="0.127" layer="21"/>
<wire x1="-1.27" y1="-2.54" x2="1.27" y2="-2.54" width="0.127" layer="21"/>
<wire x1="1.27" y1="-2.54" x2="3.175" y2="-2.54" width="0.127" layer="51"/>
<wire x1="3.175" y1="-2.54" x2="3.175" y2="-1.27" width="0.127" layer="51"/>
<wire x1="-1.27" y1="-2.54" x2="-3.175" y2="-2.54" width="0.127" layer="51"/>
<wire x1="-3.175" y1="-2.54" x2="-3.175" y2="-1.27" width="0.127" layer="51"/>
<wire x1="-3.175" y1="0" x2="-1.27" y2="2.8575" width="0.127" layer="21" curve="-65.470453"/>
<wire x1="3.175" y1="0" x2="1.27" y2="2.8575" width="0.127" layer="21" curve="65.470453"/>
<wire x1="-1.27" y1="2.8575" x2="1.27" y2="2.8575" width="0.127" layer="51" curve="-47.924978"/>
<circle x="0" y="0" radius="1.27" width="0.127" layer="51"/>
<circle x="0" y="2.544" radius="0.5732" width="0.127" layer="102"/>
<circle x="-2.544" y="-2.544" radius="0.5732" width="0.127" layer="102"/>
<circle x="2.544" y="-2.544" radius="0.5732" width="0.127" layer="102"/>
<pad name="2" x="2.54" y="-2.54" drill="1.016" diameter="2.1844" shape="octagon"/>
<pad name="1" x="-2.54" y="-2.54" drill="1.016" diameter="2.1844" shape="octagon"/>
<pad name="3" x="0" y="2.54" drill="1.016" diameter="2.1844" shape="octagon"/>
<text x="2.703" y="-1.1135" size="1.27" layer="25" rot="R90">&gt;Name</text>
<text x="-3.1803" y="-5.0877" size="1.27" layer="27">&gt;Value</text>
<text x="-0.477" y="-2.3815" size="0.254" layer="100">PaJa</text>
</package>
<package name="HOLE_3,0">
<description>Hole - 3,0 mm</description>
<wire x1="-2.159" y1="0" x2="0" y2="-2.159" width="1.27" layer="51" curve="90" cap="flat"/>
<wire x1="0" y1="2.159" x2="2.159" y2="0" width="1.27" layer="51" curve="-90" cap="flat"/>
<circle x="0" y="0" radius="0.762" width="0.4572" layer="51"/>
<circle x="0" y="0" radius="1.5875" width="0.3048" layer="20"/>
<circle x="0" y="0" radius="2.8398" width="0.254" layer="21"/>
<circle x="0" y="0" radius="0.635" width="0.254" layer="20"/>
<circle x="0" y="0" radius="2.5597" width="1.778" layer="42"/>
<circle x="0" y="0" radius="2.54" width="1.778" layer="41"/>
<text x="1.905" y="-0.635" size="0.8128" layer="21" font="vector" rot="R225">3.0</text>
<text x="-1.27" y="1.905" size="0.254" layer="100" font="vector" rot="R225">PaJa</text>
<hole x="0" y="0" drill="3.2"/>
</package>
</packages>
</library>
<library name="rcl">
<packages>
<package name="C2225K">
<description>&lt;b&gt;Ceramic Chip Capacitor KEMET 2225 reflow solder&lt;/b&gt;&lt;p&gt;Metric Code Size 5664</description>
<wire x1="-2.725" y1="3.075" x2="2.725" y2="3.075" width="0.1016" layer="51"/>
<wire x1="2.725" y1="-3.075" x2="-2.725" y2="-3.075" width="0.1016" layer="51"/>
<smd name="1" x="-2.55" y="0" dx="1.85" dy="6.8" layer="1"/>
<smd name="2" x="2.55" y="0" dx="1.85" dy="6.8" layer="1"/>
<text x="-2.8" y="3.6" size="1.016" layer="25">&gt;NAME</text>
<text x="-2.8" y="-4.575" size="1.016" layer="27">&gt;VALUE</text>
<rectangle x1="-2.8" y1="-3.15" x2="-2.2" y2="3.15" layer="51"/>
<rectangle x1="2.2" y1="-3.15" x2="2.8" y2="3.15" layer="51"/>
</package>
</packages>
</library>
</libraries>
<attributes>
</attributes>
<variantdefs>
</variantdefs>
<classes>
<class number="0" name="default" width="0" drill="0">
</class>
</classes>
<designrules>
<description language="en">&lt;b&gt;EAGLE Design Rules&lt;/b&gt;
&lt;p&gt;
The default Design Rules have been set to cover
a wide range of applications. Your particular design
may have different requirements, so please make the
necessary adjustments and save your customized
design rules under a new name.</description>
<param name="layerSetup" value="(1*16)"/>
<param name="mtCopper" value="0.035mm 0.035mm 0.035mm 0.035mm 0.035mm 0.035mm 0.035mm 0.035mm 0.035mm 0.035mm 0.035mm 0.035mm 0.035mm 0.035mm 0.035mm 0.035mm"/>
<param name="mtIsolate" value="1.5mm 0.15mm 0.2mm 0.15mm 0.2mm 0.15mm 0.2mm 0.15mm 0.2mm 0.15mm 0.2mm 0.15mm 0.2mm 0.15mm 0.2mm"/>
<param name="mdWireWire" value="8mil"/>
<param name="mdWirePad" value="8mil"/>
<param name="mdWireVia" value="8mil"/>
<param name="mdPadPad" value="8mil"/>
<param name="mdPadVia" value="8mil"/>
<param name="mdViaVia" value="8mil"/>
<param name="mdSmdPad" value="8mil"/>
<param name="mdSmdVia" value="8mil"/>
<param name="mdSmdSmd" value="8mil"/>
<param name="mdViaViaSameLayer" value="8mil"/>
<param name="mnLayersViaInSmd" value="2"/>
<param name="mdCopperDimension" value="40mil"/>
<param name="mdDrill" value="8mil"/>
<param name="mdSmdStop" value="0mil"/>
<param name="msWidth" value="10mil"/>
<param name="msDrill" value="24mil"/>
<param name="msMicroVia" value="9.99mm"/>
<param name="msBlindViaRatio" value="0.5"/>
<param name="rvPadTop" value="0.25"/>
<param name="rvPadInner" value="0.25"/>
<param name="rvPadBottom" value="0.25"/>
<param name="rvViaOuter" value="0.25"/>
<param name="rvViaInner" value="0.25"/>
<param name="rvMicroViaOuter" value="0.25"/>
<param name="rvMicroViaInner" value="0.25"/>
<param name="rlMinPadTop" value="10mil"/>
<param name="rlMaxPadTop" value="20mil"/>
<param name="rlMinPadInner" value="10mil"/>
<param name="rlMaxPadInner" value="20mil"/>
<param name="rlMinPadBottom" value="10mil"/>
<param name="rlMaxPadBottom" value="20mil"/>
<param name="rlMinViaOuter" value="8mil"/>
<param name="rlMaxViaOuter" value="20mil"/>
<param name="rlMinViaInner" value="8mil"/>
<param name="rlMaxViaInner" value="20mil"/>
<param name="rlMinMicroViaOuter" value="4mil"/>
<param name="rlMaxMicroViaOuter" value="20mil"/>
<param name="rlMinMicroViaInner" value="4mil"/>
<param name="rlMaxMicroViaInner" value="20mil"/>
<param name="psTop" value="-1"/>
<param name="psBottom" value="-1"/>
<param name="psFirst" value="-1"/>
<param name="psElongationLong" value="100"/>
<param name="psElongationOffset" value="100"/>
<param name="mvStopFrame" value="1"/>
<param name="mvCreamFrame" value="0"/>
<param name="mlMinStopFrame" value="4mil"/>
<param name="mlMaxStopFrame" value="4mil"/>
<param name="mlMinCreamFrame" value="0mil"/>
<param name="mlMaxCreamFrame" value="0mil"/>
<param name="mlViaStopLimit" value="0mil"/>
<param name="srRoundness" value="0"/>
<param name="srMinRoundness" value="0mil"/>
<param name="srMaxRoundness" value="0mil"/>
<param name="slThermalIsolate" value="10mil"/>
<param name="slThermalsForVias" value="0"/>
<param name="dpMaxLengthDifference" value="10mm"/>
<param name="dpGapFactor" value="2.5"/>
<param name="checkGrid" value="0"/>
<param name="checkAngle" value="0"/>
<param name="checkFont" value="1"/>
<param name="checkRestrict" value="1"/>
<param name="useDiameter" value="13"/>
<param name="maxErrors" value="50"/>
</designrules>
<autorouter>
<pass name="Default">
<param name="RoutingGrid" value="50mil"/>
<param name="tpViaShape" value="round"/>
<param name="PrefDir.1" value="|"/>
<param name="PrefDir.2" value="0"/>
<param name="PrefDir.3" value="0"/>
<param name="PrefDir.4" value="0"/>
<param name="PrefDir.5" value="0"/>
<param name="PrefDir.6" value="0"/>
<param name="PrefDir.7" value="0"/>
<param name="PrefDir.8" value="0"/>
<param name="PrefDir.9" value="0"/>
<param name="PrefDir.10" value="0"/>
<param name="PrefDir.11" value="0"/>
<param name="PrefDir.12" value="0"/>
<param name="PrefDir.13" value="0"/>
<param name="PrefDir.14" value="0"/>
<param name="PrefDir.15" value="0"/>
<param name="PrefDir.16" value="-"/>
<param name="cfVia" value="8"/>
<param name="cfNonPref" value="5"/>
<param name="cfChangeDir" value="2"/>
<param name="cfOrthStep" value="2"/>
<param name="cfDiagStep" value="3"/>
<param name="cfExtdStep" value="0"/>
<param name="cfBonusStep" value="1"/>
<param name="cfMalusStep" value="1"/>
<param name="cfPadImpact" value="4"/>
<param name="cfSmdImpact" value="4"/>
<param name="cfBusImpact" value="0"/>
<param name="cfHugging" value="3"/>
<param name="cfAvoid" value="4"/>
<param name="cfPolygon" value="10"/>
<param name="cfBase.1" value="0"/>
<param name="cfBase.2" value="1"/>
<param name="cfBase.3" value="1"/>
<param name="cfBase.4" value="1"/>
<param name="cfBase.5" value="1"/>
<param name="cfBase.6" value="1"/>
<param name="cfBase.7" value="1"/>
<param name="cfBase.8" value="1"/>
<param name="cfBase.9" value="1"/>
<param name="cfBase.10" value="1"/>
<param name="cfBase.11" value="1"/>
<param name="cfBase.12" value="1"/>
<param name="cfBase.13" value="1"/>
<param name="cfBase.14" value="1"/>
<param name="cfBase.15" value="1"/>
<param name="cfBase.16" value="0"/>
<param name="mnVias" value="20"/>
<param name="mnSegments" value="9999"/>
<param name="mnExtdSteps" value="9999"/>
<param name="mnRipupLevel" value="10"/>
<param name="mnRipupSteps" value="100"/>
<param name="mnRipupTotal" value="100"/>
</pass>
<pass name="Follow-me" refer="Default" active="yes">
</pass>
<pass name="Busses" refer="Default" active="yes">
<param name="cfNonPref" value="4"/>
<param name="cfBusImpact" value="4"/>
<param name="cfHugging" value="0"/>
<param name="mnVias" value="0"/>
</pass>
<pass name="Route" refer="Default" active="yes">
</pass>
<pass name="Optimize1" refer="Default" active="yes">
<param name="cfVia" value="99"/>
<param name="cfExtdStep" value="10"/>
<param name="cfHugging" value="1"/>
<param name="mnExtdSteps" value="1"/>
<param name="mnRipupLevel" value="0"/>
</pass>
<pass name="Optimize2" refer="Optimize1" active="yes">
<param name="cfNonPref" value="0"/>
<param name="cfChangeDir" value="6"/>
<param name="cfExtdStep" value="0"/>
<param name="cfBonusStep" value="2"/>
<param name="cfMalusStep" value="2"/>
<param name="cfPadImpact" value="2"/>
<param name="cfSmdImpact" value="2"/>
<param name="cfHugging" value="0"/>
</pass>
<pass name="Optimize3" refer="Optimize2" active="yes">
<param name="cfChangeDir" value="8"/>
<param name="cfPadImpact" value="0"/>
<param name="cfSmdImpact" value="0"/>
</pass>
<pass name="Optimize4" refer="Optimize3" active="yes">
<param name="cfChangeDir" value="25"/>
</pass>
</autorouter>
<elements>
<element name="IO1" library="#PaJa_20" package="DIL8" value="555" x="13.6525" y="25.4" smashed="yes" rot="R90">
<attribute name="NAME" x="12.7376" y="25.392" size="1.4224" layer="25" rot="R90"/>
<attribute name="VALUE" x="16.0711" y="25.391" size="1.4224" layer="27" rot="R90"/>
</element>
<element name="DZ1" library="#PaJa_20" package="D-7,5" value="10V" x="12.3825" y="6.6675" smashed="yes" rot="R270">
<attribute name="NAME" x="11.7465" y="9.0525" size="1.27" layer="25" rot="R270"/>
<attribute name="VALUE" x="10.9485" y="10.95" size="1.27" layer="27"/>
</element>
<element name="D1." library="#PaJa_20" package="SOD-80" value="1N4148" x="6.985" y="27.6225" smashed="yes" rot="MR270">
<attribute name="NAME" x="5.8736" y="25.8762" size="0.8128" layer="26" rot="MR270"/>
<attribute name="VALUE" x="5.8737" y="30.6388" size="0.8128" layer="28" rot="MR270"/>
</element>
<element name="D3" library="#PaJa_20" package="D-10" value="1N4007" x="40.3225" y="21.59" rot="R180"/>
<element name="D2" library="#PaJa_20" package="LED_5" value="zelena_2mA" x="5.08" y="11.7475" smashed="yes" rot="R90">
<attribute name="NAME" x="2.377" y="7.7725" size="1.016" layer="25"/>
<attribute name="VALUE" x="0.6265" y="14.7685" size="1.016" layer="27" rot="R270"/>
</element>
<element name="D4" library="#PaJa_20" package="D-10" value="1N4007" x="20.0025" y="14.605" rot="R180"/>
<element name="C1" library="#PaJa_C-el" package="C_EL_5" value="220M/63V" x="21.59" y="5.3975" smashed="yes" rot="R90">
<attribute name="NAME" x="19.5145" y="3.968" size="1.4224" layer="25" rot="R90"/>
<attribute name="VALUE" x="24.4585" y="1.417" size="1.27" layer="27" rot="R90"/>
</element>
<element name="C6" library="#PaJa_C-el" package="C_EL_2" value="47M/25V" x="13.6525" y="34.6075" smashed="yes" rot="R90">
<attribute name="NAME" x="12.7038" y="39.0485" size="1.27" layer="25" rot="R180"/>
<attribute name="VALUE" x="12.0607" y="31.744" size="1.27" layer="27"/>
</element>
<element name="C2" library="#PaJa_20" package="C-5" value="10n" x="9.8425" y="34.29" smashed="yes" rot="R90">
<attribute name="NAME" x="8.2535" y="33.4975" size="1.016" layer="25" rot="R90"/>
<attribute name="VALUE" x="8.576" y="36.0375" size="1.016" layer="27" rot="R90"/>
</element>
<element name="C5" library="#PaJa_20" package="C-5" value="100n" x="17.4625" y="34.29" smashed="yes" rot="R90">
<attribute name="NAME" x="20.001" y="33.4975" size="1.016" layer="25" rot="R90"/>
<attribute name="VALUE" x="19.6885" y="35.72" size="1.016" layer="27" rot="R90"/>
</element>
<element name="C7" library="#PaJa_20" package="C-5" value="100n" x="14.9225" y="5.3975" smashed="yes" rot="R90">
<attribute name="NAME" x="16.0325" y="10.1585" size="1.016" layer="25" rot="R180"/>
<attribute name="VALUE" x="13.8125" y="0.6315" size="1.016" layer="27"/>
</element>
<element name="R1" library="#PaJa_20" package="R-7,5" value="15k" x="13.6525" y="18.0975"/>
<element name="R2" library="#PaJa_20" package="R-7,5" value="1M8" x="2.54" y="27.94" smashed="yes" rot="R90">
<attribute name="NAME" x="3.017" y="28.7292" size="1.016" layer="25" rot="R90"/>
<attribute name="VALUE" x="3.017" y="25.0822" size="1.016" layer="27" rot="R90"/>
</element>
<element name="R6" library="#PaJa_20" package="R-7,5" value="470" x="22.5425" y="31.75" smashed="yes" rot="R90">
<attribute name="NAME" x="23.0195" y="29.0467" size="1.016" layer="25" rot="R90"/>
<attribute name="VALUE" x="23.0195" y="32.0672" size="1.016" layer="27" rot="R90"/>
</element>
<element name="R7" library="#PaJa_20" package="R-7,5" value="560" x="9.525" y="6.6675" rot="R90"/>
<element name="T1" library="#PaJa_20" package="TO-220S" value="IRF840" x="36.5125" y="26.035" smashed="yes">
<attribute name="NAME" x="29.0435" y="26.5155" size="1.27" layer="25"/>
<attribute name="VALUE" x="26.8275" y="22.7055" size="1.27" layer="27"/>
</element>
<element name="K1" library="#PaJa_20" package="ARK500/2" value="ARK500/2" x="42.8625" y="4.1275" smashed="yes">
<attribute name="NAME" x="37.945" y="0.6345" size="1.4224" layer="25"/>
<attribute name="VALUE" x="40.6932" y="0.7975" size="1.016" layer="27"/>
</element>
<element name="K2" library="#PaJa_20" package="ARK500/2" value="ARK500/2" x="32.7025" y="4.1275" smashed="yes">
<attribute name="NAME" x="27.785" y="0.6345" size="1.4224" layer="25"/>
<attribute name="VALUE" x="31.1682" y="0.7975" size="1.016" layer="27"/>
</element>
<element name="C3" library="#PaJa_C-folie" package="RM5_5,0" value="1M" x="21.59" y="21.59" rot="R270"/>
<element name="C4" library="#_GM99" package="CFAC-22" value="220n/630V" x="51.435" y="14.605" smashed="yes" rot="R180">
<attribute name="NAME" x="52.6974" y="13.2875" size="1.27" layer="25" rot="R180"/>
<attribute name="VALUE" x="47.9349" y="13.2476" size="1.27" layer="27" rot="R180"/>
</element>
<element name="U$1" library="#PaJa_31" package="CH_V7142" value="" x="36.5125" y="32.7025" smashed="yes">
<attribute name="VALUE" x="32.0625" y="30.7865" size="1.27" layer="27" font="vector" rot="R90"/>
</element>
<element name="D4." library="#PaJa_31" package="SM-1" value="1N4007" x="20.0025" y="14.605" smashed="yes" rot="MR180">
<attribute name="NAME" x="20.6375" y="13.6525" size="1.016" layer="26" font="vector" rot="MR90"/>
<attribute name="VALUE" x="16.6687" y="13.0176" size="1.016" layer="28" rot="MR180"/>
</element>
<element name="D3." library="#PaJa_31" package="SM-1" value="1N4007" x="40.3225" y="21.59" smashed="yes" rot="MR180">
<attribute name="NAME" x="41.91" y="22.5425" size="1.016" layer="26" rot="MR270"/>
<attribute name="VALUE" x="37.9412" y="19.3676" size="1.016" layer="28" font="vector" rot="MR180"/>
</element>
<element name="C2." library="#PaJa_31" package="1206" value="10n" x="9.8425" y="34.29" smashed="yes" rot="MR90">
<attribute name="NAME" x="10.3188" y="35.7188" size="1.016" layer="26" rot="MR270"/>
<attribute name="VALUE" x="7.62" y="33.4962" size="1.016" layer="28" font="vector" rot="MR90"/>
</element>
<element name="C7." library="#PaJa_31" package="1206" value="100n" x="14.9225" y="5.3975" smashed="yes" rot="MR90">
<attribute name="NAME" x="14.4462" y="4.6037" size="1.016" layer="26" font="vector" rot="MR90"/>
<attribute name="VALUE" x="16.51" y="3.9687" size="1.016" layer="28" rot="MR90"/>
</element>
<element name="C5." library="#PaJa_31" package="1206" value="100n" x="17.4625" y="34.29" smashed="yes" rot="MR90">
<attribute name="NAME" x="17.9388" y="35.7188" size="1.016" layer="26" rot="MR270"/>
<attribute name="VALUE" x="19.685" y="36.3538" size="1.016" layer="28" font="vector" rot="MR270"/>
</element>
<element name="R1." library="#PaJa_20" package="1206" value="15k" x="13.335" y="18.0975" smashed="yes" rot="MR180">
<attribute name="NAME" x="14.1288" y="17.6212" size="1.016" layer="26" rot="MR0"/>
<attribute name="VALUE" x="13.1763" y="15.875" size="1.016" layer="28" rot="MR0"/>
</element>
<element name="R2." library="#PaJa_20" package="1206" value="1M8" x="2.54" y="27.94" smashed="yes" rot="MR90">
<attribute name="NAME" x="3.0163" y="29.0513" size="1.016" layer="26" rot="MR270"/>
<attribute name="VALUE" x="1.5875" y="29.0513" size="1.016" layer="28" rot="MR270"/>
</element>
<element name="R6." library="#PaJa_20" package="1206" value="470" x="22.5425" y="31.75" smashed="yes" rot="MR90">
<attribute name="NAME" x="22.0662" y="30.9562" size="1.016" layer="26" rot="MR90"/>
<attribute name="VALUE" x="23.8125" y="30.6387" size="1.016" layer="28" rot="MR90"/>
</element>
<element name="R7." library="#PaJa_20" package="1206" value="560" x="9.525" y="6.6675" smashed="yes" rot="MR90">
<attribute name="NAME" x="9.0487" y="5.8737" size="1.016" layer="26" rot="MR90"/>
<attribute name="VALUE" x="6.985" y="5.8737" size="1.016" layer="28" rot="MR90"/>
</element>
<element name="DZ1." library="#PaJa_20" package="SOD-80" value="10V" x="12.3825" y="6.6675" smashed="yes" rot="MR90">
<attribute name="NAME" x="13.4937" y="0.4764" size="1.016" layer="26" rot="MR0"/>
<attribute name="VALUE" x="13.4938" y="11.5888" size="1.016" layer="28" rot="MR0"/>
</element>
<element name="C3." library="rcl" package="C2225K" value="1M" x="26.3525" y="21.59" smashed="yes" rot="MR270">
<attribute name="NAME" x="24.6575" y="22.485" size="1.016" layer="26" rot="MR270"/>
<attribute name="VALUE" x="28.3875" y="22.8025" size="1.016" layer="28" rot="MR270"/>
</element>
<element name="P1" library="#PaJa_31" package="PT6V" value="50k" x="5.08" y="19.05" smashed="yes">
<attribute name="NAME" x="7.783" y="17.9365" size="1.27" layer="25" rot="R90"/>
<attribute name="VALUE" x="3.5002" y="17.7747" size="1.27" layer="27" rot="R90"/>
</element>
<element name="U$2" library="#PaJa_31" package="HOLE_3,0" value="" x="51.7525" y="3.175"/>
<element name="U$3" library="#PaJa_31" package="HOLE_3,0" value="" x="51.7525" y="36.195"/>
<element name="U$4" library="#PaJa_31" package="HOLE_3,0" value="" x="3.175" y="3.175"/>
<element name="U$5" library="#PaJa_31" package="HOLE_3,0" value="" x="3.175" y="36.195"/>
<element name="D1" library="#PaJa_20" package="D-7,5" value="1N4148" x="6.985" y="27.94" smashed="yes" rot="R90">
<attribute name="NAME" x="7.621" y="25.555" size="1.27" layer="25" rot="R90"/>
<attribute name="VALUE" x="5.8775" y="24.9185" size="1.27" layer="27" rot="R90"/>
</element>
</elements>
<signals>
<signal name="N$3">
<contactref element="R1" pad="1"/>
<contactref element="R1." pad="1"/>
<contactref element="P1" pad="2"/>
<wire x1="9.8425" y1="18.0975" x2="11.7475" y2="18.0975" width="0.6096" layer="16"/>
<wire x1="7.62" y1="16.51" x2="9.2075" y2="18.0975" width="0.6096" layer="16"/>
<wire x1="9.2075" y1="18.0975" x2="9.8425" y2="18.0975" width="0.6096" layer="16"/>
</signal>
<signal name="N$6">
<contactref element="IO1" pad="5"/>
<contactref element="C2" pad="1"/>
<contactref element="C2." pad="1"/>
<wire x1="9.8425" y1="31.75" x2="9.8425" y2="32.7025" width="0.6096" layer="16"/>
<wire x1="9.8425" y1="29.21" x2="9.8425" y2="31.75" width="0.6096" layer="16"/>
</signal>
<signal name="GND">
<contactref element="C2" pad="2"/>
<contactref element="IO1" pad="1"/>
<contactref element="C5" pad="2"/>
<contactref element="C6" pad="C-"/>
<contactref element="D2" pad="K"/>
<contactref element="C1" pad="C-"/>
<contactref element="D3" pad="A"/>
<contactref element="T1" pad="3"/>
<contactref element="K1" pad="2"/>
<contactref element="C3" pad="2"/>
<contactref element="C4" pad="1"/>
<contactref element="C7" pad="2"/>
<contactref element="D3." pad="A"/>
<contactref element="C5." pad="2"/>
<contactref element="C7." pad="2"/>
<contactref element="C2." pad="2"/>
<contactref element="C3." pad="2"/>
<wire x1="17.4625" y1="36.83" x2="17.4625" y2="35.8775" width="0.6096" layer="16"/>
<wire x1="13.6525" y1="36.83" x2="13.6563" y2="37.1513" width="0.6096" layer="16"/>
<wire x1="19.05" y1="21.59" x2="17.4625" y2="21.59" width="0.4064" layer="16"/>
<wire x1="21.59" y1="19.05" x2="26.3425" y2="19.05" width="0.6096" layer="16"/>
<wire x1="26.3425" y1="19.05" x2="26.3525" y2="19.04" width="0.4064" layer="16"/>
<wire x1="9.8425" y1="35.8775" x2="9.8425" y2="36.83" width="0.6096" layer="16"/>
<wire x1="21.59" y1="17.4625" x2="21.59" y2="19.05" width="0.6096" layer="16"/>
<wire x1="14.9225" y1="6.985" x2="14.9225" y2="7.9375" width="0.6096" layer="16"/>
<wire x1="23.8125" y1="11.1125" x2="26.035" y2="8.89" width="0.4064" layer="1"/>
<wire x1="26.035" y1="8.89" x2="31.75" y2="8.89" width="0.4064" layer="1"/>
<wire x1="7.3025" y1="20.0025" x2="13.0175" y2="20.0025" width="0.4064" layer="16"/>
<wire x1="51.435" y1="14.605" x2="53.6575" y2="14.605" width="0.6096" layer="16"/>
<wire x1="53.6575" y1="14.605" x2="53.6575" y2="16.51" width="0.6096" layer="16"/>
<wire x1="53.6575" y1="14.605" x2="53.6575" y2="12.3825" width="0.6096" layer="16"/>
<wire x1="23.8125" y1="11.1125" x2="21.59" y2="11.1125" width="0.4064" layer="16"/>
<wire x1="23.8125" y1="7.9375" x2="23.8125" y2="11.1125" width="0.4064" layer="16"/>
<wire x1="31.75" y1="8.89" x2="31.75" y2="6.985" width="0.4064" layer="16"/>
<wire x1="31.75" y1="8.89" x2="31.75" y2="10.795" width="0.4064" layer="16"/>
<wire x1="31.75" y1="8.89" x2="33.655" y2="8.89" width="0.4064" layer="16"/>
<wire x1="23.8125" y1="11.1125" x2="23.8125" y2="12.3825" width="0.4064" layer="16"/>
<wire x1="23.8125" y1="12.3825" x2="21.59" y2="12.3825" width="0.4064" layer="16"/>
<via x="53.6575" y="14.605" extent="1-16" drill="0.8" diameter="1.9304" shape="octagon"/>
<via x="23.8125" y="11.1125" extent="1-16" drill="0.6" diameter="1.9304" shape="octagon"/>
<via x="31.75" y="8.89" extent="1-16" drill="0.6" diameter="1.9304" shape="octagon"/>
<polygon width="0.4064" layer="16" pour="hatch" isolate="0.8128">
<vertex x="0" y="0"/>
<vertex x="0" y="39.37"/>
<vertex x="54.9275" y="39.37"/>
<vertex x="54.9275" y="0"/>
</polygon>
</signal>
<signal name="N$7">
<contactref element="IO1" pad="3"/>
<contactref element="R6" pad="1"/>
<contactref element="R6." pad="1"/>
<wire x1="17.4625" y1="26.67" x2="19.685" y2="26.67" width="0.6096" layer="16"/>
<wire x1="19.685" y1="26.67" x2="20.955" y2="27.94" width="0.6096" layer="16"/>
<wire x1="20.955" y1="27.94" x2="22.5425" y2="27.94" width="0.6096" layer="16"/>
<wire x1="22.5425" y1="27.94" x2="22.5425" y2="30.1625" width="0.6096" layer="16"/>
</signal>
<signal name="N$9">
<contactref element="IO1" pad="7"/>
<contactref element="D1." pad="A"/>
<contactref element="P1" pad="3"/>
<contactref element="D1" pad="A"/>
<wire x1="6.985" y1="24.13" x2="9.8425" y2="24.13" width="0.6096" layer="16"/>
<wire x1="6.985" y1="24.13" x2="6.985" y2="25.7175" width="0.6096" layer="16"/>
<wire x1="5.08" y1="21.59" x2="5.08" y2="22.86" width="0.6096" layer="16"/>
<wire x1="5.08" y1="22.86" x2="6.35" y2="24.13" width="0.6096" layer="16"/>
<wire x1="6.35" y1="24.13" x2="6.985" y2="24.13" width="0.6096" layer="16"/>
</signal>
<signal name="N$10">
<contactref element="R2" pad="2"/>
<contactref element="R2." pad="2"/>
<contactref element="IO1" pad="6"/>
<contactref element="IO1" pad="2"/>
<contactref element="D1." pad="K"/>
<contactref element="C3" pad="1"/>
<contactref element="C3." pad="1"/>
<contactref element="D1" pad="K"/>
<wire x1="9.8425" y1="26.67" x2="10.795" y2="26.67" width="0.6096" layer="16"/>
<wire x1="8.89" y1="26.67" x2="9.8425" y2="26.67" width="0.6096" layer="16"/>
<wire x1="6.985" y1="28.575" x2="8.89" y2="26.67" width="0.6096" layer="16"/>
<wire x1="6.985" y1="29.845" x2="6.985" y2="28.575" width="0.6096" layer="16"/>
<wire x1="10.795" y1="26.67" x2="12.065" y2="25.4" width="0.6096" layer="16"/>
<wire x1="12.065" y1="25.4" x2="15.24" y2="25.4" width="0.6096" layer="16"/>
<wire x1="15.24" y1="25.4" x2="16.51" y2="24.13" width="0.6096" layer="16"/>
<wire x1="16.51" y1="24.13" x2="17.4625" y2="24.13" width="0.6096" layer="16"/>
<wire x1="17.4625" y1="24.13" x2="21.59" y2="24.13" width="0.6096" layer="16"/>
<wire x1="21.59" y1="24.13" x2="26.3425" y2="24.13" width="0.6096" layer="16"/>
<wire x1="26.3425" y1="24.13" x2="26.3525" y2="24.14" width="0.4064" layer="16"/>
<wire x1="6.985" y1="31.75" x2="6.985" y2="29.845" width="0.6096" layer="16"/>
<wire x1="2.54" y1="31.75" x2="6.985" y2="31.75" width="0.6096" layer="16"/>
<wire x1="2.54" y1="29.5275" x2="2.54" y2="31.75" width="0.6096" layer="16"/>
</signal>
<signal name="N$11">
<contactref element="D2" pad="A"/>
<contactref element="R7" pad="1"/>
<contactref element="R7." pad="1"/>
<wire x1="9.525" y1="2.8575" x2="9.525" y2="5.08" width="0.6096" layer="16"/>
<wire x1="5.08" y1="8.89" x2="5.08" y2="10.4775" width="0.6096" layer="16"/>
<wire x1="8.5725" y1="5.08" x2="5.08" y2="8.89" width="0.6096" layer="16"/>
<wire x1="9.525" y1="5.08" x2="8.5725" y2="5.08" width="0.6096" layer="16"/>
</signal>
<signal name="N$12">
<contactref element="R7" pad="2"/>
<contactref element="DZ1" pad="A"/>
<contactref element="R7." pad="2"/>
<contactref element="DZ1." pad="A"/>
<wire x1="12.3825" y1="10.4775" x2="12.3825" y2="8.5725" width="0.6096" layer="16"/>
<wire x1="9.525" y1="10.4775" x2="12.3825" y2="10.4775" width="0.6096" layer="16"/>
<wire x1="9.525" y1="8.255" x2="9.525" y2="10.4775" width="0.6096" layer="16"/>
</signal>
<signal name="+12V">
<contactref element="DZ1" pad="K"/>
<contactref element="D4" pad="A"/>
<contactref element="C1" pad="C+"/>
<contactref element="K1" pad="1"/>
<contactref element="K2" pad="2"/>
<contactref element="C7" pad="1"/>
<contactref element="D4." pad="A"/>
<contactref element="C7." pad="1"/>
<contactref element="DZ1." pad="K"/>
<wire x1="25.0825" y1="14.605" x2="22.86" y2="14.605" width="0.6096" layer="16"/>
<wire x1="14.9225" y1="2.8575" x2="14.9225" y2="3.81" width="0.6096" layer="16"/>
<wire x1="35.2425" y1="4.1275" x2="40.3225" y2="4.1275" width="1.6764" layer="16"/>
<wire x1="35.2425" y1="2.2225" x2="35.2425" y2="4.1275" width="1.016" layer="16"/>
<wire x1="33.655" y1="0.635" x2="35.2425" y2="2.2225" width="1.016" layer="16"/>
<wire x1="12.3825" y1="2.8575" x2="14.9225" y2="2.8575" width="0.6096" layer="16"/>
<wire x1="14.9225" y1="2.8575" x2="21.59" y2="2.8575" width="1.016" layer="16"/>
<wire x1="12.3825" y1="4.445" x2="12.3825" y2="2.8575" width="0.6096" layer="16"/>
<wire x1="25.0825" y1="14.605" x2="22.86" y2="14.605" width="0.6096" layer="16"/>
<wire x1="27.94" y1="0.635" x2="33.655" y2="0.635" width="1.016" layer="16"/>
<wire x1="26.3525" y1="13.335" x2="25.0825" y2="14.605" width="1.016" layer="16"/>
<wire x1="26.3525" y1="2.8575" x2="26.3525" y2="13.335" width="1.016" layer="16"/>
<wire x1="21.59" y1="2.8575" x2="26.3525" y2="2.8575" width="1.016" layer="16"/>
<wire x1="26.3525" y1="2.2225" x2="27.94" y2="0.635" width="1.016" layer="16"/>
<wire x1="26.3525" y1="2.8575" x2="26.3525" y2="2.2225" width="1.016" layer="16"/>
</signal>
<signal name="+NAP">
<contactref element="IO1" pad="4"/>
<contactref element="IO1" pad="8"/>
<contactref element="C6" pad="C+"/>
<contactref element="C5" pad="1"/>
<contactref element="R1" pad="2"/>
<contactref element="D4" pad="K"/>
<contactref element="D4." pad="K"/>
<contactref element="C5." pad="1"/>
<contactref element="R1." pad="2"/>
<wire x1="13.6525" y1="23.495" x2="13.6525" y2="27.305" width="0.4064" layer="1"/>
<wire x1="14.9225" y1="14.605" x2="17.145" y2="14.605" width="0.6096" layer="16"/>
<wire x1="17.4625" y1="31.75" x2="17.4625" y2="32.7025" width="0.6096" layer="16"/>
<wire x1="14.9225" y1="18.0975" x2="17.4625" y2="18.0975" width="0.6096" layer="16"/>
<wire x1="13.6525" y1="27.305" x2="13.6525" y2="29.21" width="0.6096" layer="16"/>
<wire x1="13.6525" y1="29.21" x2="13.6525" y2="34.6075" width="0.6096" layer="16"/>
<wire x1="17.4625" y1="29.21" x2="17.4625" y2="31.75" width="0.6096" layer="16"/>
<wire x1="13.6525" y1="29.21" x2="17.4625" y2="29.21" width="0.6096" layer="16"/>
<wire x1="13.6525" y1="21.59" x2="9.8425" y2="21.59" width="0.6096" layer="16"/>
<wire x1="13.6525" y1="21.59" x2="13.6525" y2="23.495" width="0.6096" layer="16"/>
<wire x1="14.9225" y1="18.0975" x2="14.9225" y2="20.0025" width="0.6096" layer="16"/>
<wire x1="14.9225" y1="20.0025" x2="13.6525" y2="21.59" width="0.6096" layer="16"/>
<wire x1="14.9225" y1="14.605" x2="17.145" y2="14.605" width="0.6096" layer="16"/>
<wire x1="14.9225" y1="14.605" x2="14.9225" y2="18.0975" width="0.6096" layer="16"/>
<via x="13.6525" y="23.495" extent="1-16" drill="0.6" diameter="1.778" shape="square"/>
<via x="13.6525" y="27.305" extent="1-16" drill="0.6" diameter="1.778" shape="square"/>
</signal>
<signal name="OUT">
<contactref element="D3" pad="K"/>
<contactref element="T1" pad="2"/>
<contactref element="K2" pad="1"/>
<contactref element="C4" pad="2"/>
<contactref element="D3." pad="K"/>
<wire x1="32.7025" y1="14.605" x2="36.5125" y2="14.605" width="1.6764" layer="16"/>
<wire x1="36.5125" y1="21.59" x2="36.5125" y2="26.035" width="1.6764" layer="16"/>
<wire x1="36.5125" y1="21.59" x2="35.2425" y2="21.59" width="1.4224" layer="16"/>
<wire x1="36.5125" y1="14.605" x2="36.5125" y2="21.59" width="1.6764" layer="16"/>
<wire x1="36.5125" y1="21.59" x2="37.465" y2="21.59" width="1.4224" layer="16"/>
<wire x1="28.9349" y1="14.605" x2="32.7025" y2="14.605" width="1.6764" layer="16"/>
<wire x1="30.1625" y1="4.1275" x2="28.9349" y2="5.3551" width="1.6764" layer="16"/>
<wire x1="28.9349" y1="5.3551" x2="28.9349" y2="14.605" width="1.6764" layer="16"/>
<via x="32.7025" y="14.605" extent="1-16" drill="0.8" diameter="1.9304" shape="octagon"/>
<via x="36.5125" y="14.605" extent="1-16" drill="0.8" diameter="1.9304" shape="octagon"/>
</signal>
<signal name="N$8">
<contactref element="R6" pad="2"/>
<contactref element="T1" pad="1"/>
<contactref element="R6." pad="2"/>
<wire x1="22.5425" y1="33.3375" x2="22.5425" y2="35.56" width="0.6096" layer="16"/>
<wire x1="33.9725" y1="27.305" x2="33.9725" y2="26.035" width="0.6096" layer="16"/>
<wire x1="25.7175" y1="35.56" x2="33.9725" y2="27.305" width="0.6096" layer="16"/>
<wire x1="22.5425" y1="35.56" x2="25.7175" y2="35.56" width="0.6096" layer="16"/>
</signal>
<signal name="N$14">
<via x="36.5125" y="32.7025" extent="1-16" drill="2.5" diameter="5" shape="octagon"/>
</signal>
<signal name="N$2">
<contactref element="P1" pad="1"/>
<contactref element="R2" pad="1"/>
<contactref element="R2." pad="1"/>
<wire x1="2.54" y1="24.13" x2="2.54" y2="26.3525" width="0.6096" layer="16"/>
<wire x1="2.54" y1="16.51" x2="2.54" y2="24.13" width="0.6096" layer="16"/>
</signal>
</signals>
</board>
</drawing>
</eagle>
